<?xml version='1.0' encoding='UTF-8' standalone='no'?>
<!-- Created with Fritzing (http://www.fritzing.org/) -->
<svg xmlns="http://www.w3.org/2000/svg"  y="0in" width="3.14961in" height="2.16535in" viewBox="0 0 226.772 155.906" baseProfile="tiny" xmlns:svg="http://www.w3.org/2000/svg" version="1.2" x="0in">
 <g partID="196230">
  <g  id="board">
   <rect  y="0.288" fill-opacity="0.5" width="226.196" stroke-width="0.5" fill="none" id="boardoutline" height="155.33" x="0.288" stroke="black"/>
  </g>
 </g>
 <g partID="854683962">
  <g transform="translate(2.0456,63.6098)">
   <g transform="matrix(1, 0, 0, 1, 0, -794.551)">
    <g id="copper1">
     <g transform="matrix(0.352778, 0, 0, 0.352778, -8.05732, 795.261)">
      <g>
       <g stroke-width="0" gorn="0.3.0.0.0.0.0.1">
        <g stroke-width="0" id="copper0" gorn="0.3.0.0.0.0.0.1.0">
         <circle cy="14.0617" connectorname="ST" cx="46.9444" stroke-width="3.46961" fill="none" id="connector0pin" gorn="0.3.0.0.0.0.0.1.0.0" r="5.81669" stroke="black"/>
         <circle cy="14.078" connectorname="ZOUT" cx="87.7472" stroke-width="3.46961" fill="none" id="connector1pin" gorn="0.3.0.0.0.0.0.1.0.1" r="5.81669" stroke="black"/>
         <circle cy="14.0842" connectorname="YOUT" cx="169.395" stroke-width="3.46961" fill="none" id="connector2pin" gorn="0.3.0.0.0.0.0.1.0.2" r="5.81669" stroke="black"/>
         <circle cy="116.093" connectorname="XOUT" cx="169.386" stroke-width="3.46961" fill="none" id="connector3pin" gorn="0.3.0.0.0.0.0.1.0.3" r="5.81669" stroke="black"/>
         <circle cy="116.1" connectorname="GND" cx="128.59" stroke-width="3.46961" fill="none" id="connector4pin" gorn="0.3.0.0.0.0.0.1.0.4" r="5.81669" stroke="black"/>
        </g>
       </g>
      </g>
     </g>
    </g>
   </g>
  </g>
 </g>
 <g partID="854690522">
  <g transform="translate(72.4578,57.3851)">
   <g transform="matrix(1, 0, 0, 1, 0, -794.551)">
    <g id="copper1">
     <g transform="matrix(0.352778, 0, 0, 0.352778, -8.05732, 795.261)">
      <g>
       <g stroke-width="0" gorn="0.3.0.0.0.0.0.1">
        <g stroke-width="0" id="copper0" gorn="0.3.0.0.0.0.0.1.0">
         <circle cy="14.0617" connectorname="ST" cx="46.9444" stroke-width="3.46961" fill="none" id="connector0pin" gorn="0.3.0.0.0.0.0.1.0.0" r="5.81669" stroke="black"/>
         <circle cy="14.078" connectorname="ZOUT" cx="87.7472" stroke-width="3.46961" fill="none" id="connector1pin" gorn="0.3.0.0.0.0.0.1.0.1" r="5.81669" stroke="black"/>
         <circle cy="14.0842" connectorname="YOUT" cx="169.395" stroke-width="3.46961" fill="none" id="connector2pin" gorn="0.3.0.0.0.0.0.1.0.2" r="5.81669" stroke="black"/>
         <circle cy="116.093" connectorname="XOUT" cx="169.386" stroke-width="3.46961" fill="none" id="connector3pin" gorn="0.3.0.0.0.0.0.1.0.3" r="5.81669" stroke="black"/>
         <circle cy="116.1" connectorname="GND" cx="128.59" stroke-width="3.46961" fill="none" id="connector4pin" gorn="0.3.0.0.0.0.0.1.0.4" r="5.81669" stroke="black"/>
        </g>
       </g>
      </g>
     </g>
    </g>
   </g>
  </g>
 </g>
 <g partID="854691912">
  <g transform="translate(141.907,57.3851)">
   <g transform="matrix(1, 0, 0, 1, 0, -794.551)">
    <g id="copper1">
     <g transform="matrix(0.352778, 0, 0, 0.352778, -8.05732, 795.261)">
      <g>
       <g stroke-width="0" gorn="0.3.0.0.0.0.0.1">
        <g stroke-width="0" id="copper0" gorn="0.3.0.0.0.0.0.1.0">
         <circle cy="14.0617" connectorname="ST" cx="46.9444" stroke-width="3.46961" fill="none" id="connector0pin" gorn="0.3.0.0.0.0.0.1.0.0" r="5.81669" stroke="black"/>
         <circle cy="14.078" connectorname="ZOUT" cx="87.7472" stroke-width="3.46961" fill="none" id="connector1pin" gorn="0.3.0.0.0.0.0.1.0.1" r="5.81669" stroke="black"/>
         <circle cy="14.0842" connectorname="YOUT" cx="169.395" stroke-width="3.46961" fill="none" id="connector2pin" gorn="0.3.0.0.0.0.0.1.0.2" r="5.81669" stroke="black"/>
         <circle cy="116.093" connectorname="XOUT" cx="169.386" stroke-width="3.46961" fill="none" id="connector3pin" gorn="0.3.0.0.0.0.0.1.0.3" r="5.81669" stroke="black"/>
         <circle cy="116.1" connectorname="GND" cx="128.59" stroke-width="3.46961" fill="none" id="connector4pin" gorn="0.3.0.0.0.0.0.1.0.4" r="5.81669" stroke="black"/>
        </g>
       </g>
      </g>
     </g>
    </g>
   </g>
  </g>
 </g>
 <g partID="854654921">
  <g transform="translate(30.6786,113.623)">
   <g  id="copper1">
    <circle  cy="3.01732" cx="3.01732" stroke-width="0.850392" fill="none" id="connector0pin" r="0.992124" stroke="black"/>
   </g>
  </g>
 </g>
 <g partID="854655361">
  <g transform="translate(25.4946,127.447)">
   <g  id="copper1">
    <circle  cy="3.01732" cx="3.01732" stroke-width="0.850392" fill="none" id="connector0pin" r="0.992124" stroke="black"/>
   </g>
  </g>
 </g>
 <g partID="854657001">
  <g transform="translate(56.5986,58.3266)">
   <g  id="copper1">
    <circle  cy="3.01732" cx="3.01732" stroke-width="0.850392" fill="none" id="connector0pin" r="0.992124" stroke="black"/>
   </g>
  </g>
 </g>
 <g partID="854659041">
  <g transform="translate(101.527,127.447)">
   <g  id="copper1">
    <circle  cy="3.01732" cx="3.01732" stroke-width="0.850392" fill="none" id="connector0pin" r="0.992124" stroke="black"/>
   </g>
  </g>
 </g>
 <g partID="854659281">
  <g transform="translate(201.751,37.5906)">
   <g  id="copper1">
    <circle  cy="3.01732" cx="3.01732" stroke-width="0.850392" fill="none" id="connector0pin" r="0.992124" stroke="black"/>
   </g>
  </g>
 </g>
 <g partID="854661881">
  <g transform="translate(44.5274,9.60168)">
   <g  id="copper1">
    <circle  cy="3.01733" cx="3.01733" stroke-width="0.850392" fill="none" id="connector0pin" r="0.992124" stroke="black"/>
   </g>
  </g>
 </g>
 <g partID="854663371">
  <g transform="translate(57.2866,26.5557)">
   <g  id="copper1">
    <circle  cy="3.01733" cx="3.01733" stroke-width="0.850392" fill="none" id="connector0pin" r="0.992124" stroke="black"/>
   </g>
  </g>
 </g>
 <g partID="854666171">
  <g transform="translate(160.759,47.8793)">
   <g  id="copper1">
    <circle  cy="3.01733" cx="3.01733" stroke-width="0.850392" fill="none" id="connector0pin" r="0.992124" stroke="black"/>
   </g>
  </g>
 </g>
 <g partID="854666431">
  <g transform="translate(107.047,43.4743)">
   <g  id="copper1">
    <circle  cy="3.01733" cx="3.01733" stroke-width="0.850392" fill="none" id="connector0pin" r="0.992124" stroke="black"/>
   </g>
  </g>
 </g>
 <g partID="854667791">
  <g transform="translate(85.7762,117.302)">
   <g  id="copper1">
    <circle  cy="3.01733" cx="3.01733" stroke-width="0.850392" fill="none" id="connector0pin" r="0.992124" stroke="black"/>
   </g>
  </g>
 </g>
 <g partID="854673341">
  <g transform="translate(145.243,108.772)">
   <g  id="copper1">
    <circle  cy="3.01733" cx="3.01733" stroke-width="0.850392" fill="none" id="connector0pin" r="0.992124" stroke="black"/>
   </g>
  </g>
 </g>
 <g partID="854677901">
  <g transform="translate(214.759,78.9589)">
   <g  id="copper1">
    <circle  cy="3.01733" cx="3.01733" stroke-width="0.850392" fill="none" id="connector0pin" r="0.992124" stroke="black"/>
   </g>
  </g>
 </g>
 <g partID="854678141">
  <g transform="translate(214.759,129.981)">
   <g  id="copper1">
    <circle  cy="3.01733" cx="3.01733" stroke-width="0.850392" fill="none" id="connector0pin" r="0.992124" stroke="black"/>
   </g>
  </g>
 </g>
 <g partID="854678381">
  <g transform="translate(207.612,132.867)">
   <g  id="copper1">
    <circle  cy="3.01733" cx="3.01733" stroke-width="0.850392" fill="none" id="connector0pin" r="0.992124" stroke="black"/>
   </g>
  </g>
 </g>
 <g partID="854678421">
  <g transform="translate(207.612,96.0717)">
   <g  id="copper1">
    <circle  cy="3.01733" cx="3.01733" stroke-width="0.850392" fill="none" id="connector0pin" r="0.992124" stroke="black"/>
   </g>
  </g>
 </g>
 <g partID="854679461">
  <g transform="translate(125.404,142.841)">
   <g  id="copper1">
    <circle  cy="3.01733" cx="3.01733" stroke-width="0.850392" fill="none" id="connector0pin" r="0.992124" stroke="black"/>
   </g>
  </g>
 </g>
 <g partID="854679741">
  <g transform="translate(136.726,43.5437)">
   <g  id="copper1">
    <circle  cy="3.01733" cx="3.01733" stroke-width="0.850392" fill="none" id="connector0pin" r="0.992124" stroke="black"/>
   </g>
  </g>
 </g>
 <g partID="854679891">
  <g transform="translate(136.726,52.0609)">
   <g  id="copper1">
    <circle  cy="3.01733" cx="3.01733" stroke-width="0.850392" fill="none" id="connector0pin" r="0.992124" stroke="black"/>
   </g>
  </g>
 </g>
 <g partID="854680701">
  <g transform="translate(65.829,96.0189)">
   <g  id="copper1">
    <circle  cy="3.01733" cx="3.01733" stroke-width="0.850392" fill="none" id="connector0pin" r="0.992124" stroke="black"/>
   </g>
  </g>
 </g>
 <g partID="854515662">
  <g transform="translate(176.787,112.833)">
   <g transform="matrix(1, 0, 0, 1, 0.377238, -800.114)">
    <g id="copper1">
     <g transform="matrix(1, 0, 0, 1, -0.288, 797.219)">
      <g>
       <g gorn="0.3.0.0.0.0.0.0.0.0.3">
        <circle cy="6.12" connectorname="PWR" cx="13.0439" stroke-width="0.850394" fill="none" id="connector2pad2" gorn="0.3.0.0.0.0.0.0.0.0.3.0" r="2.69291" stroke="black"/>
        <circle cy="22.5609" connectorname="GND" cx="13.0439" stroke-width="0.850394" fill="none" id="connector0pad2" gorn="0.3.0.0.0.0.0.0.0.0.3.1" r="2.69291" stroke="black"/>
        <circle cy="14.6239" connectorname="GNDBREAK" cx="26.6502" stroke-width="0.850394" fill="none" id="connector1pad2" gorn="0.3.0.0.0.0.0.0.0.0.3.2" r="2.69291" stroke="black"/>
       </g>
      </g>
     </g>
    </g>
   </g>
  </g>
 </g>
 <g partID="854511852">
  <g transform="translate(140.66,120.308)">
   <g transform="matrix(1, 0, 0, 1, 0.615231, 1.27105)">
    <g id="copper1">
     <g gorn="0.3.0.0">
      <circle cy="1.70533" connectorname="PWR" cx="6.52411" stroke-width="0.850393" fill="none" id="connector2pad" gorn="0.3.0.0.0" r="2.55118" stroke="black"/>
      <path d="M3.68929,-1.13043A2.83464,2.83465,0,0,0,0.854824,1.70404,2.83464,2.83465,0,0,0,3.68929,4.53997L9.35971,4.53997A2.83464,2.83465,0,0,0,12.1942,1.70404,2.83464,2.83465,0,0,0,9.35971,-1.13043Zm2.85352,0.706054A2.12598,2.12598,0,0,1,8.66828,1.70111,2.12598,2.12598,0,0,1,6.54281,3.8266,2.12598,2.12598,0,0,1,4.41587,1.70111,2.12598,2.12598,0,0,1,6.54281,-0.424381Z" stroke-width="0" fill="black" id="connector2extra" gorn="0.3.0.0.1" stroke="none"/>
      <circle cy="15.8982" connectorname="GND@1" cx="6.58983" stroke-width="0.850393" fill="none" id="connector0pad" gorn="0.3.0.0.2" r="2.55118" stroke="black"/>
      <g transform="matrix(0.264583, 0, 0, 0.264583, -0.5625, -1.12932)">
       <g>
        <g>
         <path d="m16.0722,53.5703a10.7136,10.7136,0,0,0,-10.713,10.713,10.7136,10.7136,0,0,0,10.713,10.713l21.4259,0a10.7136,10.7136,0,0,0,10.713,-10.713,10.7136,10.7136,0,0,0,-10.713,-10.713zm10.713,2.70731A8.03522,8.03523,0,0,1,34.8185,64.311,8.03522,8.03523,0,0,1,26.7852,72.3498,8.03522,8.03523,0,0,1,18.7463,64.311,8.03522,8.03523,0,0,1,26.7852,56.2776Z" stroke-width="0" fill="black" id="connector0extra" gorn="0.3.0.0.3.0.0" stroke="none"/>
        </g>
       </g>
      </g>
      <circle cy="8.79404" connectorname="GND@2" cx="14.0961" stroke-width="0.850393" fill="none" id="connector1pad" gorn="0.3.0.0.4" r="2.55118" stroke="black"/>
      <g id="copper0" gorn="0.3.0.0.5">
       <path d="m3.68929,-1.13043a2.83464,2.83465,0,0,0,-2.83447,2.83447,2.83464,2.83465,0,0,0,2.83447,2.83595l5.67039,0a2.83464,2.83465,0,0,0,2.83447,-2.83595,2.83464,2.83465,0,0,0,-2.83447,-2.83447zm2.85352,0.706054a2.12598,2.12598,0,0,1,2.12549,2.12549,2.12598,2.12598,0,0,1,-2.12549,2.12549,2.12598,2.12598,0,0,1,-2.12695,-2.12549,2.12598,2.12598,0,0,1,2.12695,-2.12549z" stroke-width="0" fill="black" id="path1831" gorn="0.3.0.0.5.0" stroke="none"/>
       <path d="m3.68929,-1.13043a2.83464,2.83465,0,0,0,-2.83447,2.83447,2.83464,2.83465,0,0,0,2.83447,2.83595l5.67042,0a2.83464,2.83465,0,0,0,2.83447,-2.83595,2.83464,2.83465,0,0,0,-2.83447,-2.83447zm2.85352,0.706054a2.12598,2.12598,0,0,1,2.12549,2.12549,2.12598,2.12598,0,0,1,-2.12549,2.12549,2.12598,2.12598,0,0,1,-2.12695,-2.12549,2.12598,2.12598,0,0,1,2.12695,-2.12549z" stroke-width="0" fill="black" id="connector2extra2" gorn="0.3.0.0.5.1" stroke="none"/>
       <circle cy="1.70533" connectorname="PWR" cx="6.52411" stroke-width="0.850393" fill="none" id="connector2pad2" gorn="0.3.0.0.5.2" r="2.55118" stroke="black"/>
       <circle cy="15.8786" connectorname="GND@1" cx="6.52411" stroke-width="0.850393" fill="none" id="connector0pad2" gorn="0.3.0.0.5.3" r="2.55118" stroke="black"/>
       <g transform="matrix(0.264583, 0, 0, 0.264583, -0.5625, -1.12932)">
        <g>
         <g>
          <path d="m16.0722,53.5703a10.7136,10.7136,0,0,0,-10.713,10.713,10.7136,10.7136,0,0,0,10.713,10.713l21.4259,0a10.7136,10.7136,0,0,0,10.713,-10.713,10.7136,10.7136,0,0,0,-10.713,-10.713zm10.713,2.67409a8.03522,8.03523,0,0,1,8.03332,8.03889,8.03522,8.03523,0,0,1,-8.03332,8.03336,8.03522,8.03523,0,0,1,-8.03888,-8.03336,8.03522,8.03523,0,0,1,8.03888,-8.03889z" stroke-width="0" fill="black" id="connector0extra2" gorn="0.3.0.0.5.4.0.0" stroke="none"/>
         </g>
        </g>
       </g>
       <circle cy="8.79404" connectorname="GND@2" cx="14.0961" stroke-width="0.850393" fill="none" id="connector1pad2" gorn="0.3.0.0.5.5" r="2.55118" stroke="black"/>
      </g>
     </g>
    </g>
   </g>
  </g>
 </g>
 <g partID="854511842">
  <g transform="translate(102.393,120.308)">
   <g transform="matrix(1, 0, 0, 1, 0.615231, 1.27105)">
    <g id="copper1">
     <g gorn="0.3.0.0">
      <circle cy="1.70533" connectorname="PWR" cx="6.52411" stroke-width="0.850393" fill="none" id="connector2pad" gorn="0.3.0.0.0" r="2.55118" stroke="black"/>
      <path d="M3.68929,-1.13043A2.83464,2.83465,0,0,0,0.854824,1.70404,2.83464,2.83465,0,0,0,3.68929,4.53997L9.35971,4.53997A2.83464,2.83465,0,0,0,12.1942,1.70404,2.83464,2.83465,0,0,0,9.35971,-1.13043Zm2.85352,0.706054A2.12598,2.12598,0,0,1,8.66828,1.70111,2.12598,2.12598,0,0,1,6.54281,3.8266,2.12598,2.12598,0,0,1,4.41587,1.70111,2.12598,2.12598,0,0,1,6.54281,-0.424381Z" stroke-width="0" fill="black" id="connector2extra" gorn="0.3.0.0.1" stroke="none"/>
      <circle cy="15.8982" connectorname="GND@1" cx="6.58983" stroke-width="0.850393" fill="none" id="connector0pad" gorn="0.3.0.0.2" r="2.55118" stroke="black"/>
      <g transform="matrix(0.264583, 0, 0, 0.264583, -0.5625, -1.12932)">
       <g>
        <g>
         <path d="m16.0722,53.5703a10.7136,10.7136,0,0,0,-10.713,10.713,10.7136,10.7136,0,0,0,10.713,10.713l21.4259,0a10.7136,10.7136,0,0,0,10.713,-10.713,10.7136,10.7136,0,0,0,-10.713,-10.713zm10.713,2.70731A8.03522,8.03523,0,0,1,34.8185,64.311,8.03522,8.03523,0,0,1,26.7852,72.3498,8.03522,8.03523,0,0,1,18.7463,64.311,8.03522,8.03523,0,0,1,26.7852,56.2776Z" stroke-width="0" fill="black" id="connector0extra" gorn="0.3.0.0.3.0.0" stroke="none"/>
        </g>
       </g>
      </g>
      <circle cy="8.79404" connectorname="GND@2" cx="14.0961" stroke-width="0.850393" fill="none" id="connector1pad" gorn="0.3.0.0.4" r="2.55118" stroke="black"/>
      <g id="copper0" gorn="0.3.0.0.5">
       <path d="m3.68929,-1.13043a2.83464,2.83465,0,0,0,-2.83447,2.83447,2.83464,2.83465,0,0,0,2.83447,2.83595l5.67039,0a2.83464,2.83465,0,0,0,2.83447,-2.83595,2.83464,2.83465,0,0,0,-2.83447,-2.83447zm2.85352,0.706054a2.12598,2.12598,0,0,1,2.12549,2.12549,2.12598,2.12598,0,0,1,-2.12549,2.12549,2.12598,2.12598,0,0,1,-2.12695,-2.12549,2.12598,2.12598,0,0,1,2.12695,-2.12549z" stroke-width="0" fill="black" id="path1831" gorn="0.3.0.0.5.0" stroke="none"/>
       <path d="m3.68929,-1.13043a2.83464,2.83465,0,0,0,-2.83447,2.83447,2.83464,2.83465,0,0,0,2.83447,2.83595l5.67042,0a2.83464,2.83465,0,0,0,2.83447,-2.83595,2.83464,2.83465,0,0,0,-2.83447,-2.83447zm2.85352,0.706054a2.12598,2.12598,0,0,1,2.12549,2.12549,2.12598,2.12598,0,0,1,-2.12549,2.12549,2.12598,2.12598,0,0,1,-2.12695,-2.12549,2.12598,2.12598,0,0,1,2.12695,-2.12549z" stroke-width="0" fill="black" id="connector2extra2" gorn="0.3.0.0.5.1" stroke="none"/>
       <circle cy="1.70533" connectorname="PWR" cx="6.52411" stroke-width="0.850393" fill="none" id="connector2pad2" gorn="0.3.0.0.5.2" r="2.55118" stroke="black"/>
       <circle cy="15.8786" connectorname="GND@1" cx="6.52411" stroke-width="0.850393" fill="none" id="connector0pad2" gorn="0.3.0.0.5.3" r="2.55118" stroke="black"/>
       <g transform="matrix(0.264583, 0, 0, 0.264583, -0.5625, -1.12932)">
        <g>
         <g>
          <path d="m16.0722,53.5703a10.7136,10.7136,0,0,0,-10.713,10.713,10.7136,10.7136,0,0,0,10.713,10.713l21.4259,0a10.7136,10.7136,0,0,0,10.713,-10.713,10.7136,10.7136,0,0,0,-10.713,-10.713zm10.713,2.67409a8.03522,8.03523,0,0,1,8.03332,8.03889,8.03522,8.03523,0,0,1,-8.03332,8.03336,8.03522,8.03523,0,0,1,-8.03888,-8.03336,8.03522,8.03523,0,0,1,8.03888,-8.03889z" stroke-width="0" fill="black" id="connector0extra2" gorn="0.3.0.0.5.4.0.0" stroke="none"/>
         </g>
        </g>
       </g>
       <circle cy="8.79404" connectorname="GND@2" cx="14.0961" stroke-width="0.850393" fill="none" id="connector1pad2" gorn="0.3.0.0.5.5" r="2.55118" stroke="black"/>
      </g>
     </g>
    </g>
   </g>
  </g>
 </g>
 <g partID="854511832">
  <g transform="translate(64.125,120.308)">
   <g transform="matrix(1, 0, 0, 1, 0.615231, 1.27105)">
    <g id="copper1">
     <g gorn="0.3.0.0">
      <circle cy="1.70533" connectorname="PWR" cx="6.52411" stroke-width="0.850393" fill="none" id="connector2pad" gorn="0.3.0.0.0" r="2.55118" stroke="black"/>
      <path d="M3.68929,-1.13043A2.83464,2.83465,0,0,0,0.854824,1.70404,2.83464,2.83465,0,0,0,3.68929,4.53997L9.35971,4.53997A2.83464,2.83465,0,0,0,12.1942,1.70404,2.83464,2.83465,0,0,0,9.35971,-1.13043Zm2.85352,0.706054A2.12598,2.12598,0,0,1,8.66828,1.70111,2.12598,2.12598,0,0,1,6.54281,3.8266,2.12598,2.12598,0,0,1,4.41587,1.70111,2.12598,2.12598,0,0,1,6.54281,-0.424381Z" stroke-width="0" fill="black" id="connector2extra" gorn="0.3.0.0.1" stroke="none"/>
      <circle cy="15.8982" connectorname="GND@1" cx="6.58983" stroke-width="0.850393" fill="none" id="connector0pad" gorn="0.3.0.0.2" r="2.55118" stroke="black"/>
      <g transform="matrix(0.264583, 0, 0, 0.264583, -0.5625, -1.12932)">
       <g>
        <g>
         <path d="m16.0722,53.5703a10.7136,10.7136,0,0,0,-10.713,10.713,10.7136,10.7136,0,0,0,10.713,10.713l21.4259,0a10.7136,10.7136,0,0,0,10.713,-10.713,10.7136,10.7136,0,0,0,-10.713,-10.713zm10.713,2.70731A8.03522,8.03523,0,0,1,34.8185,64.311,8.03522,8.03523,0,0,1,26.7852,72.3498,8.03522,8.03523,0,0,1,18.7463,64.311,8.03522,8.03523,0,0,1,26.7852,56.2776Z" stroke-width="0" fill="black" id="connector0extra" gorn="0.3.0.0.3.0.0" stroke="none"/>
        </g>
       </g>
      </g>
      <circle cy="8.79404" connectorname="GND@2" cx="14.0961" stroke-width="0.850393" fill="none" id="connector1pad" gorn="0.3.0.0.4" r="2.55118" stroke="black"/>
      <g id="copper0" gorn="0.3.0.0.5">
       <path d="m3.68929,-1.13043a2.83464,2.83465,0,0,0,-2.83447,2.83447,2.83464,2.83465,0,0,0,2.83447,2.83595l5.67039,0a2.83464,2.83465,0,0,0,2.83447,-2.83595,2.83464,2.83465,0,0,0,-2.83447,-2.83447zm2.85352,0.706054a2.12598,2.12598,0,0,1,2.12549,2.12549,2.12598,2.12598,0,0,1,-2.12549,2.12549,2.12598,2.12598,0,0,1,-2.12695,-2.12549,2.12598,2.12598,0,0,1,2.12695,-2.12549z" stroke-width="0" fill="black" id="path1831" gorn="0.3.0.0.5.0" stroke="none"/>
       <path d="m3.68929,-1.13043a2.83464,2.83465,0,0,0,-2.83447,2.83447,2.83464,2.83465,0,0,0,2.83447,2.83595l5.67042,0a2.83464,2.83465,0,0,0,2.83447,-2.83595,2.83464,2.83465,0,0,0,-2.83447,-2.83447zm2.85352,0.706054a2.12598,2.12598,0,0,1,2.12549,2.12549,2.12598,2.12598,0,0,1,-2.12549,2.12549,2.12598,2.12598,0,0,1,-2.12695,-2.12549,2.12598,2.12598,0,0,1,2.12695,-2.12549z" stroke-width="0" fill="black" id="connector2extra2" gorn="0.3.0.0.5.1" stroke="none"/>
       <circle cy="1.70533" connectorname="PWR" cx="6.52411" stroke-width="0.850393" fill="none" id="connector2pad2" gorn="0.3.0.0.5.2" r="2.55118" stroke="black"/>
       <circle cy="15.8786" connectorname="GND@1" cx="6.52411" stroke-width="0.850393" fill="none" id="connector0pad2" gorn="0.3.0.0.5.3" r="2.55118" stroke="black"/>
       <g transform="matrix(0.264583, 0, 0, 0.264583, -0.5625, -1.12932)">
        <g>
         <g>
          <path d="m16.0722,53.5703a10.7136,10.7136,0,0,0,-10.713,10.713,10.7136,10.7136,0,0,0,10.713,10.713l21.4259,0a10.7136,10.7136,0,0,0,10.713,-10.713,10.7136,10.7136,0,0,0,-10.713,-10.713zm10.713,2.67409a8.03522,8.03523,0,0,1,8.03332,8.03889,8.03522,8.03523,0,0,1,-8.03332,8.03336,8.03522,8.03523,0,0,1,-8.03888,-8.03336,8.03522,8.03523,0,0,1,8.03888,-8.03889z" stroke-width="0" fill="black" id="connector0extra2" gorn="0.3.0.0.5.4.0.0" stroke="none"/>
         </g>
        </g>
       </g>
       <circle cy="8.79404" connectorname="GND@2" cx="14.0961" stroke-width="0.850393" fill="none" id="connector1pad2" gorn="0.3.0.0.5.5" r="2.55118" stroke="black"/>
      </g>
     </g>
    </g>
   </g>
  </g>
 </g>
 <g partID="854511862">
  <g transform="translate(25.8575,120.308)">
   <g transform="matrix(1, 0, 0, 1, 0.615231, 1.27105)">
    <g id="copper1">
     <g gorn="0.3.0.0">
      <circle cy="1.70533" connectorname="PWR" cx="6.52411" stroke-width="0.850393" fill="none" id="connector2pad" gorn="0.3.0.0.0" r="2.55118" stroke="black"/>
      <path d="M3.68929,-1.13043A2.83464,2.83465,0,0,0,0.854824,1.70404,2.83464,2.83465,0,0,0,3.68929,4.53997L9.35971,4.53997A2.83464,2.83465,0,0,0,12.1942,1.70404,2.83464,2.83465,0,0,0,9.35971,-1.13043Zm2.85352,0.706054A2.12598,2.12598,0,0,1,8.66828,1.70111,2.12598,2.12598,0,0,1,6.54281,3.8266,2.12598,2.12598,0,0,1,4.41587,1.70111,2.12598,2.12598,0,0,1,6.54281,-0.424381Z" stroke-width="0" fill="black" id="connector2extra" gorn="0.3.0.0.1" stroke="none"/>
      <circle cy="15.8982" connectorname="GND@1" cx="6.58983" stroke-width="0.850393" fill="none" id="connector0pad" gorn="0.3.0.0.2" r="2.55118" stroke="black"/>
      <g transform="matrix(0.264583, 0, 0, 0.264583, -0.5625, -1.12932)">
       <g>
        <g>
         <path d="m16.0722,53.5703a10.7136,10.7136,0,0,0,-10.713,10.713,10.7136,10.7136,0,0,0,10.713,10.713l21.4259,0a10.7136,10.7136,0,0,0,10.713,-10.713,10.7136,10.7136,0,0,0,-10.713,-10.713zm10.713,2.70731A8.03522,8.03523,0,0,1,34.8185,64.311,8.03522,8.03523,0,0,1,26.7852,72.3498,8.03522,8.03523,0,0,1,18.7463,64.311,8.03522,8.03523,0,0,1,26.7852,56.2776Z" stroke-width="0" fill="black" id="connector0extra" gorn="0.3.0.0.3.0.0" stroke="none"/>
        </g>
       </g>
      </g>
      <circle cy="8.79404" connectorname="GND@2" cx="14.0961" stroke-width="0.850393" fill="none" id="connector1pad" gorn="0.3.0.0.4" r="2.55118" stroke="black"/>
      <g id="copper0" gorn="0.3.0.0.5">
       <path d="m3.68929,-1.13043a2.83464,2.83465,0,0,0,-2.83447,2.83447,2.83464,2.83465,0,0,0,2.83447,2.83595l5.67039,0a2.83464,2.83465,0,0,0,2.83447,-2.83595,2.83464,2.83465,0,0,0,-2.83447,-2.83447zm2.85352,0.706054a2.12598,2.12598,0,0,1,2.12549,2.12549,2.12598,2.12598,0,0,1,-2.12549,2.12549,2.12598,2.12598,0,0,1,-2.12695,-2.12549,2.12598,2.12598,0,0,1,2.12695,-2.12549z" stroke-width="0" fill="black" id="path1831" gorn="0.3.0.0.5.0" stroke="none"/>
       <path d="m3.68929,-1.13043a2.83464,2.83465,0,0,0,-2.83447,2.83447,2.83464,2.83465,0,0,0,2.83447,2.83595l5.67042,0a2.83464,2.83465,0,0,0,2.83447,-2.83595,2.83464,2.83465,0,0,0,-2.83447,-2.83447zm2.85352,0.706054a2.12598,2.12598,0,0,1,2.12549,2.12549,2.12598,2.12598,0,0,1,-2.12549,2.12549,2.12598,2.12598,0,0,1,-2.12695,-2.12549,2.12598,2.12598,0,0,1,2.12695,-2.12549z" stroke-width="0" fill="black" id="connector2extra2" gorn="0.3.0.0.5.1" stroke="none"/>
       <circle cy="1.70533" connectorname="PWR" cx="6.52411" stroke-width="0.850393" fill="none" id="connector2pad2" gorn="0.3.0.0.5.2" r="2.55118" stroke="black"/>
       <circle cy="15.8786" connectorname="GND@1" cx="6.52411" stroke-width="0.850393" fill="none" id="connector0pad2" gorn="0.3.0.0.5.3" r="2.55118" stroke="black"/>
       <g transform="matrix(0.264583, 0, 0, 0.264583, -0.5625, -1.12932)">
        <g>
         <g>
          <path d="m16.0722,53.5703a10.7136,10.7136,0,0,0,-10.713,10.713,10.7136,10.7136,0,0,0,10.713,10.713l21.4259,0a10.7136,10.7136,0,0,0,10.713,-10.713,10.7136,10.7136,0,0,0,-10.713,-10.713zm10.713,2.67409a8.03522,8.03523,0,0,1,8.03332,8.03889,8.03522,8.03523,0,0,1,-8.03332,8.03336,8.03522,8.03523,0,0,1,-8.03888,-8.03336,8.03522,8.03523,0,0,1,8.03888,-8.03889z" stroke-width="0" fill="black" id="connector0extra2" gorn="0.3.0.0.5.4.0.0" stroke="none"/>
         </g>
        </g>
       </g>
       <circle cy="8.79404" connectorname="GND@2" cx="14.0961" stroke-width="0.850393" fill="none" id="connector1pad2" gorn="0.3.0.0.5.5" r="2.55118" stroke="black"/>
      </g>
     </g>
    </g>
   </g>
  </g>
 </g>
 <g partID="854422621">
  <g transform="translate(1.37504,1.7808)">
   <g  id="copper1">
    <circle  cy="7.97796" cx="7.97796" stroke-width="2.83465" fill="none" id="nonconn0" r="4.96063" stroke="black"/>
   </g>
  </g>
 </g>
 <g partID="854422601">
  <g transform="translate(1.37504,139.261)">
   <g  id="copper1">
    <circle  cy="7.97796" cx="7.97796" stroke-width="2.83465" fill="none" id="nonconn0" r="4.96063" stroke="black"/>
   </g>
  </g>
 </g>
 <g partID="854422361">
  <g transform="translate(209.722,139.261)">
   <g  id="copper1">
    <circle  cy="7.97796" cx="7.97796" stroke-width="2.83465" fill="none" id="nonconn0" r="4.96063" stroke="black"/>
   </g>
  </g>
 </g>
 <g partID="854422071">
  <g transform="translate(209.722,1.7808)">
   <g  id="copper1">
    <circle  cy="7.97796" cx="7.97796" stroke-width="2.83465" fill="none" id="nonconn0" r="4.96063" stroke="black"/>
   </g>
  </g>
 </g>
 <g partID="854384892">
  <g transform="translate(154.975,26.5398)">
   <g  id="copper1">
    <g  id="copper0">
     <rect  y="12.168" width="4.464" stroke-width="1.44" fill="none" height="4.464" x="6.408" stroke="black"/>
     <circle  cy="14.4" cx="8.64" stroke-width="1.44" fill="none" id="connector0pad" r="2.232" stroke="black"/>
     <circle  cy="14.4" cx="15.84" stroke-width="1.44" fill="none" id="connector1pad" r="2.232" stroke="black"/>
     <circle  cy="14.4" cx="23.04" stroke-width="1.44" fill="none" id="connector2pad" r="2.232" stroke="black"/>
    </g>
   </g>
  </g>
 </g>
 <g partID="854133742">
  <g transform="translate(105.866,36.4265)">
   <g  id="copper1">
    <!-- <rect width="55" x="10" y="15.5" fill="none" height="55" stroke="rgb(255, 191, 0)" stroke-width="20" />  -->
    <circle  cy="3.096" cx="2.7" stroke-width="1.44" fill="none" id="connector0pin" r="1.98" stroke="black"/>
    <circle  cy="3.096" cx="31.5" stroke-width="1.44" fill="none" id="connector1pin" r="1.98" stroke="black"/>
   </g>
  </g>
 </g>
 <g partID="198051">
  <g transform="translate(195.523,21.088)">
   <g transform="matrix(-1,0,0,-1,0,0)">
    <g transform="matrix(1, 0, 0, 1, -21.472, -3.00704)">
     <g id="copper1">
      <g gorn="0.3.0.0">
       <circle cy="12.919" cx="24.185" stroke-width="1.25" fill="none" id="connector0pin" gorn="0.3.0.0.0" r="2.088" stroke="black"/>
       <circle cy="12.919" cx="31.384" stroke-width="1.25" fill="none" id="connector1pin" gorn="0.3.0.0.1" r="2.088" stroke="black"/>
       <circle cy="12.919" cx="38.585" stroke-width="1.25" fill="none" id="connector2pin" gorn="0.3.0.0.2" r="2.088" stroke="black"/>
       <circle cy="12.919" cx="45.784" stroke-width="1.25" fill="none" id="connector3pin" gorn="0.3.0.0.3" r="2.088" stroke="black"/>
       <circle cy="12.919" cx="52.9849" stroke-width="1.25" fill="none" id="connector4pin" gorn="0.3.0.0.4" r="2.088" stroke="black"/>
       <circle cy="12.919" cx="60.1849" stroke-width="1.25" fill="none" id="connector5pin" gorn="0.3.0.0.5" r="2.088" stroke="black"/>
       <circle cy="12.919" cx="67.3839" stroke-width="1.25" fill="none" id="connector6pin" gorn="0.3.0.0.6" r="2.088" stroke="black"/>
       <circle cy="12.919" cx="74.5849" stroke-width="1.25" fill="none" id="connector7pin" gorn="0.3.0.0.7" r="2.088" stroke="black"/>
       <circle cy="12.919" cx="81.7839" stroke-width="1.25" fill="none" id="connector8pin" gorn="0.3.0.0.8" r="2.088" stroke="black"/>
       <circle cy="12.919" cx="88.9849" stroke-width="1.25" fill="none" id="connector9pin" gorn="0.3.0.0.9" r="2.088" stroke="black"/>
       <circle cy="12.919" cx="96.1849" stroke-width="1.25" fill="none" id="connector10pin" gorn="0.3.0.0.10" r="2.088" stroke="black"/>
       <circle cy="12.919" cx="103.385" stroke-width="1.25" fill="none" id="connector11pin" gorn="0.3.0.0.11" r="2.088" stroke="black"/>
       <circle cy="12.919" cx="110.585" stroke-width="1.25" fill="none" id="connector12pin" gorn="0.3.0.0.12" r="2.088" stroke="black"/>
       <circle cy="12.919" cx="117.784" stroke-width="1.25" fill="none" id="connector13pin" gorn="0.3.0.0.13" r="2.088" stroke="black"/>
       <circle cy="12.919" cx="124.986" stroke-width="1.25" fill="none" id="connector14pin" gorn="0.3.0.0.14" r="2.088" stroke="black"/>
       <circle cy="12.919" cx="132.185" stroke-width="1.25" fill="none" id="connector15pin" gorn="0.3.0.0.15" r="2.088" stroke="black"/>
       <circle cy="12.919" cx="139.385" stroke-width="1.25" fill="none" id="connector16pin" gorn="0.3.0.0.16" r="2.088" stroke="black"/>
       <circle cy="12.919" cx="146.585" stroke-width="1.25" fill="none" id="connector17pin" gorn="0.3.0.0.17" r="2.088" stroke="black"/>
       <circle cy="12.919" cx="153.784" stroke-width="1.25" fill="none" id="connector18pin" gorn="0.3.0.0.18" r="2.088" stroke="black"/>
       <circle cy="12.919" cx="160.986" stroke-width="1.25" fill="none" id="connector19pin" gorn="0.3.0.0.19" r="2.088" stroke="black"/>
       <circle cy="5.72001" cx="160.986" stroke-width="1.25" fill="none" id="connector20pin" gorn="0.3.0.0.20" r="2.088" stroke="black"/>
       <circle cy="5.72001" cx="153.784" stroke-width="1.25" fill="none" id="connector21pin" gorn="0.3.0.0.21" r="2.088" stroke="black"/>
       <circle cy="5.72001" cx="146.585" stroke-width="1.25" fill="none" id="connector22pin" gorn="0.3.0.0.22" r="2.088" stroke="black"/>
       <circle cy="5.72001" cx="139.385" stroke-width="1.25" fill="none" id="connector23pin" gorn="0.3.0.0.23" r="2.088" stroke="black"/>
       <circle cy="5.72001" cx="132.185" stroke-width="1.25" fill="none" id="connector24pin" gorn="0.3.0.0.24" r="2.088" stroke="black"/>
       <circle cy="5.72001" cx="124.986" stroke-width="1.25" fill="none" id="connector25pin" gorn="0.3.0.0.25" r="2.088" stroke="black"/>
       <circle cy="5.72001" cx="117.784" stroke-width="1.25" fill="none" id="connector26pin" gorn="0.3.0.0.26" r="2.088" stroke="black"/>
       <circle cy="5.72001" cx="110.585" stroke-width="1.25" fill="none" id="connector27pin" gorn="0.3.0.0.27" r="2.088" stroke="black"/>
       <circle cy="5.72001" cx="103.385" stroke-width="1.25" fill="none" id="connector28pin" gorn="0.3.0.0.28" r="2.088" stroke="black"/>
       <circle cy="5.72001" cx="96.1849" stroke-width="1.25" fill="none" id="connector29pin" gorn="0.3.0.0.29" r="2.088" stroke="black"/>
       <circle cy="5.72001" cx="88.9849" stroke-width="1.25" fill="none" id="connector30pin" gorn="0.3.0.0.30" r="2.088" stroke="black"/>
       <circle cy="5.72001" cx="81.7839" stroke-width="1.25" fill="none" id="connector31pin" gorn="0.3.0.0.31" r="2.088" stroke="black"/>
       <circle cy="5.72001" cx="74.5849" stroke-width="1.25" fill="none" id="connector32pin" gorn="0.3.0.0.32" r="2.088" stroke="black"/>
       <circle cy="5.72001" cx="67.3839" stroke-width="1.25" fill="none" id="connector33pin" gorn="0.3.0.0.33" r="2.088" stroke="black"/>
       <circle cy="5.72001" cx="60.1849" stroke-width="1.25" fill="none" id="connector34pin" gorn="0.3.0.0.34" r="2.088" stroke="black"/>
       <circle cy="5.72001" cx="52.9849" stroke-width="1.25" fill="none" id="connector35pin" gorn="0.3.0.0.35" r="2.088" stroke="black"/>
       <circle cy="5.72001" cx="45.784" stroke-width="1.25" fill="none" id="connector36pin" gorn="0.3.0.0.36" r="2.088" stroke="black"/>
       <circle cy="5.72001" cx="38.585" stroke-width="1.25" fill="none" id="connector37pin" gorn="0.3.0.0.37" r="2.088" stroke="black"/>
       <circle cy="5.72001" cx="31.384" stroke-width="1.25" fill="none" id="connector38pin" gorn="0.3.0.0.38" r="2.088" stroke="black"/>
       <circle cy="5.72001" cx="24.185" stroke-width="1.25" fill="none" id="connector39pin" gorn="0.3.0.0.39" r="2.088" stroke="black"/>
      </g>
     </g>
    </g>
   </g>
  </g>
 </g>
 <g partID="337482">
  <g transform="translate(208.407,21.4998)">
   <g  id="copper1">
    <g  id="copper0">
     <circle  cy="5.04" cx="5.04" stroke-width="1.44" fill="none" id="connector0pin" r="2.088" stroke="black"/>
     <circle  cy="12.24" cx="5.04" stroke-width="1.44" fill="none" id="connector1pin" r="2.088" stroke="black"/>
     <circle  cy="19.44" cx="5.04" stroke-width="1.44" fill="none" id="connector2pin" r="2.088" stroke="black"/>
     <circle  cy="26.64" cx="5.04" stroke-width="1.44" fill="none" id="connector3pin" r="2.088" stroke="black"/>
     <circle  cy="33.84" cx="5.04" stroke-width="1.44" fill="none" id="connector4pin" r="2.088" stroke="black"/>
    </g>
   </g>
  </g>
 </g>
 <g partID="854654940">
  <line x2="33.303" y1="118" stroke-linecap="round" stroke-width="1.728" x1="33.5529" y2="120.374" stroke="black"/>
 </g>
 <g partID="854655380">
  <line x2="31.4698" y1="131.611" stroke-linecap="round" stroke-width="1.728" x1="29.256" y2="135.023" stroke="black"/>
 </g>
 <g partID="854680860">
  <line x2="207.759" y1="55.0977" stroke-linecap="round" stroke-width="1.728" x1="207.759" y2="48.0555" stroke="black"/>
 </g>
 <g partID="854664870">
  <line x2="137.261" y1="29.573" stroke-linecap="round" stroke-width="1.728" x1="136.859" y2="37.4651" stroke="black"/>
 </g>
 <g partID="854664800">
  <line x2="136.86" y1="29.573" stroke-linecap="round" stroke-width="1.728" x1="156.785" y2="29.573" stroke="black"/>
 </g>
 <g partID="854655540">
  <line x2="156.785" y1="20.638" stroke-linecap="round" stroke-width="1.728" x1="156.805" y2="29.573" stroke="black"/>
 </g>
 <g partID="854655700">
  <line x2="207.758" y1="55.2477" stroke-linecap="round" stroke-width="1.728" x1="211.281" y2="55.0977" stroke="black"/>
 </g>
 <g partID="854680910">
  <line x2="192.761" y1="48.0555" stroke-linecap="round" stroke-width="1.728" x1="192.165" y2="20.6375" stroke="black"/>
 </g>
 <g partID="854680760">
  <line x2="71.3906" y1="113.208" stroke-linecap="round" stroke-width="1.728" x1="71.6986" y2="120.361" stroke="black"/>
 </g>
 <g partID="854667440">
  <line x2="71.6981" y1="113.208" stroke-linecap="round" stroke-width="1.728" x1="68.8778" y2="113.208" stroke="black"/>
 </g>
 <g partID="854655820">
  <line x2="192.165" y1="48.0555" stroke-linecap="round" stroke-width="1.728" x1="207.759" y2="48.0555" stroke="black"/>
 </g>
 <g partID="854667740">
  <line x2="88.7941" y1="121.687" stroke-linecap="round" stroke-width="1.728" x1="88.7939" y2="137.329" stroke="black"/>
 </g>
 <g partID="854667690">
  <line x2="74.256" y1="137.328" stroke-linecap="round" stroke-width="1.728" x1="88.7938" y2="137.452" stroke="black"/>
 </g>
 <g partID="854680980">
  <line x2="141.11" y1="46.6386" stroke-linecap="round" stroke-width="1.728" x1="170.905" y2="46.5645" stroke="black"/>
 </g>
 <g partID="854679590">
  <line x2="139.743" y1="56.4451" stroke-linecap="round" stroke-width="1.728" x1="139.743" y2="116.049" stroke="black"/>
 </g>
 <g partID="854656840">
  <line x2="136.939" y1="116.048" stroke-linecap="round" stroke-width="1.728" x1="139.743" y2="116.048" stroke="black"/>
 </g>
 <g partID="854656780">
  <line x2="170.905" y1="43.2515" stroke-linecap="round" stroke-width="1.728" x1="170.851" y2="46.6386" stroke="black"/>
 </g>
 <g partID="854656920">
  <line x2="144.94" y1="137.341" stroke-linecap="round" stroke-width="1.728" x1="136.939" y2="137.44" stroke="black"/>
 </g>
 <g partID="854656900">
  <line x2="136.939" y1="116.048" stroke-linecap="round" stroke-width="1.728" x1="136.939" y2="137.341" stroke="black"/>
 </g>
 <g partID="854657140">
  <line x2="77.433" y1="2.65632" stroke-linecap="round" stroke-width="1.728" x1="47.545" y2="2.65632" stroke="black"/>
 </g>
 <g partID="854657060">
  <line x2="47.545" y1="11.252" stroke-linecap="round" stroke-width="1.728" x1="47.545" y2="2.65632" stroke="black"/>
 </g>
 <g partID="854657160">
  <line x2="77.5632" y1="2.65632" stroke-linecap="round" stroke-width="1.728" x1="77.433" y2="8.91357" stroke="black"/>
 </g>
 <g partID="854658260">
  <line x2="128.422" y1="144.492" stroke-linecap="round" stroke-width="1.728" x1="128.422" y2="123.112" stroke="black"/>
 </g>
 <g partID="854658480">
  <line x2="112.459" y1="123.112" stroke-linecap="round" stroke-width="1.728" x1="128.422" y2="123.257" stroke="black"/>
 </g>
 <g partID="854677370">
  <line x2="106.673" y1="137.316" stroke-linecap="round" stroke-width="1.728" x1="104.331" y2="137.388" stroke="black"/>
 </g>
 <g partID="854659060">
  <line x2="104.332" y1="131.83" stroke-linecap="round" stroke-width="1.728" x1="104.502" y2="137.315" stroke="black"/>
 </g>
 <g partID="854659300">
  <line x2="205.025" y1="39.241" stroke-linecap="round" stroke-width="1.728" x1="204.777" y2="2.65632" stroke="black"/>
 </g>
 <g partID="854659540">
  <line x2="156.804" y1="2.65632" stroke-linecap="round" stroke-width="1.728" x1="156.785" y2="8.91309" stroke="black"/>
 </g>
 <g partID="854659520">
  <line x2="156.785" y1="2.65632" stroke-linecap="round" stroke-width="1.728" x1="205.025" y2="2.65632" stroke="black"/>
 </g>
 <g partID="854659640">
  <line x2="178.37" y1="38.6282" stroke-linecap="round" stroke-width="1.728" x1="178.055" y2="20.6377" stroke="black"/>
 </g>
 <g partID="854679930">
  <line x2="162.409" y1="50.8196" stroke-linecap="round" stroke-width="1.728" x1="109.933" y2="50.8947" stroke="black"/>
 </g>
 <g partID="854673960">
  <line x2="148.26" y1="123.111" stroke-linecap="round" stroke-width="1.728" x1="148.26" y2="113.156" stroke="black"/>
 </g>
 <g partID="854657020">
  <line x2="60.2747" y1="59.9773" stroke-linecap="round" stroke-width="1.728" x1="59.6458" y2="30.9396" stroke="black"/>
 </g>
 <g partID="854653010">
  <line x2="109.933" y1="47.858" stroke-linecap="round" stroke-width="1.728" x1="110.023" y2="50.8196" stroke="black"/>
 </g>
 <g partID="854677760">
  <line x2="210.63" y1="100.456" stroke-linecap="round" stroke-width="1.728" x1="210.63" y2="134.518" stroke="black"/>
 </g>
 <g partID="854677120">
  <line x2="217.777" y1="131.632" stroke-linecap="round" stroke-width="1.728" x1="217.777" y2="83.3434" stroke="black"/>
 </g>
 <g partID="854673970">
  <line x2="148.26" y1="122.258" stroke-linecap="round" stroke-width="1.728" x1="150.54" y2="123.111" stroke="black"/>
 </g>
 <g partID="854680250">
  <line x2="68.8781" y1="100.403" stroke-linecap="round" stroke-width="1.728" x1="68.8497" y2="113.209" stroke="black"/>
 </g>
</svg>
