<?xml version='1.0' encoding='UTF-8' standalone='no'?>
<!-- Created with Fritzing (http://www.fritzing.org/) -->
<svg xmlns="http://www.w3.org/2000/svg"  y="0in" width="3.14961in" height="2.16535in" viewBox="0 0 226.772 155.906" baseProfile="tiny" xmlns:svg="http://www.w3.org/2000/svg" version="1.2" x="0in">
 <g partID="196231">
  <g id="silkscreen">
   <rect y="0.288" width="226.196" stroke-width="0.576" fill="none" height="155.33" x="0.288" stroke="black"/>
  </g>
 </g>
 <g partID="196230">
  <g id="board">
   <rect y="0.288" fill-opacity="0.5" width="226.196" stroke-width="0.5" fill="none" id="boardoutline" height="155.33" x="0.288" stroke="black"/>
  </g>
 </g>
 <g partID="854683961">
  <g transform="translate(2.0456,63.6098)">
   <g transform="matrix(1, 0, 0, 1, 0, -794.551)">
    <g id="silkscreen">
     <g transform="matrix(0.352778, 0, 0, 0.352778, -8.05732, 795.261)">
      <g>
       <g stroke-width="0" gorn="0.3.0.0.0.0.0.0">
        <line x2="192.429" style="stroke-linecap:round" y1="131.162" stroke-width="2.04094" id="line972" gorn="0.3.0.0.0.0.0.0.0" y2="96.4658" x1="192.429" stroke="black"/>
        <line x2="23.8709" style="stroke-linecap:round" y1="-0.955724" stroke-width="2.04094" id="line978" gorn="0.3.0.0.0.0.0.0.1" y2="-0.955724" x1="60.6079" stroke="black"/>
       </g>
      </g>
     </g>
    </g>
   </g>
  </g>
 </g>
 <g partID="854690521">
  <g transform="translate(72.4578,57.3851)">
   <g transform="matrix(1, 0, 0, 1, 0, -794.551)">
    <g id="silkscreen">
     <g transform="matrix(0.352778, 0, 0, 0.352778, -8.05732, 795.261)">
      <g>
       <g stroke-width="0" gorn="0.3.0.0.0.0.0.0">
        <line x2="192.429" style="stroke-linecap:round" y1="131.162" stroke-width="2.04094" id="line972" gorn="0.3.0.0.0.0.0.0.0" y2="96.4658" x1="192.429" stroke="black"/>
        <line x2="23.8709" style="stroke-linecap:round" y1="-0.955724" stroke-width="2.04094" id="line978" gorn="0.3.0.0.0.0.0.0.1" y2="-0.955724" x1="60.6079" stroke="black"/>
       </g>
      </g>
     </g>
    </g>
   </g>
  </g>
 </g>
 <g partID="854691911">
  <g transform="translate(141.907,57.3851)">
   <g transform="matrix(1, 0, 0, 1, 0, -794.551)">
    <g id="silkscreen">
     <g transform="matrix(0.352778, 0, 0, 0.352778, -8.05732, 795.261)">
      <g>
       <g stroke-width="0" gorn="0.3.0.0.0.0.0.0">
        <line x2="192.429" style="stroke-linecap:round" y1="131.162" stroke-width="2.04094" id="line972" gorn="0.3.0.0.0.0.0.0.0" y2="96.4658" x1="192.429" stroke="black"/>
        <line x2="23.8709" style="stroke-linecap:round" y1="-0.955724" stroke-width="2.04094" id="line978" gorn="0.3.0.0.0.0.0.0.1" y2="-0.955724" x1="60.6079" stroke="black"/>
       </g>
      </g>
     </g>
    </g>
   </g>
  </g>
 </g>
 <g partID="854703420">
  <g transform="translate(40.1234,23.4842)">
   <g id="silkscreen">
    <text y="7.09276" stroke-width="0" fill="black" xml:space="preserve" id="label" font-size="7.88083" x="39.4042" xmlns:xml="http://www.w3.org/XML/1998/namespace" font-family="OCRA" text-anchor="middle">High Power</text>
   </g>
  </g>
 </g>
 <g partID="854703340">
  <g transform="translate(1.28368,9.68288)">
   <g id="silkscreen">
    <defs id="defs2"/>
    <metadata id="metadata5">
     <rdf:RDF xmlns:rdf="http://www.w3.org/1999/02/22-rdf-syntax-ns#">
      <cc:Work xmlns:cc="http://creativecommons.org/ns#" rdf:about="" xmlns:rdf="http://www.w3.org/1999/02/22-rdf-syntax-ns#">
       <dc:format xmlns:dc="http://purl.org/dc/elements/1.1/">image/svg+xml</dc:format>
       <dc:type xmlns:dc="http://purl.org/dc/elements/1.1/" rdf:resource="http://purl.org/dc/dcmitype/StillImage" xmlns:rdf="http://www.w3.org/1999/02/22-rdf-syntax-ns#"/>
       <dc:title xmlns:dc="http://purl.org/dc/elements/1.1/"/>
      </cc:Work>
     </rdf:RDF>
    </metadata>
    <g transform="matrix(1, 0, 0, 1, -688.022, 810.86)">
     <g>
      <g id="layer1">
       <path style="opacity:1;stroke-linecap:round;stroke-linejoin:round;stroke-miterlimit:4;stroke-dasharray:none;paint-order:normal" fill-opacity="1.0" d="m723.191,-798.833c-1.69363,-0.447742,-2.5045,-0.711631,-3.13279,-1.0195,-0.139232,-0.0682369,-0.310115,-0.162018,-0.379723,-0.208389,-0.388152,-0.258655,-0.983281,-0.808784,-1.25835,-1.1632,-0.404421,-0.521125,-0.584926,-0.911511,-0.858357,-1.85647,-0.126827,-0.438321,-0.175351,-0.622319,-0.289289,-1.09699,-0.0120181,-0.0501694,-0.0110502,-0.0508147,0.0196806,-0.0130666,0.0177448,0.0218584,0.0724311,0.116793,0.121375,0.210954,0.0489596,0.0941765,0.12769,0.228303,0.174924,0.298056,0.0472657,0.0697694,0.171318,0.262736,0.275738,0.428811,0.260268,0.41393,0.457873,0.672674,0.701065,0.918012,0.354033,0.357147,0.773795,0.647387,1.30307,0.900993,1.03991,0.498266,1.65016,0.568536,4.5146,0.519721,0.900122,-0.0154057,1.02702,-0.0132279,1.37663,0.0232296,0.423593,0.0441201,0.430965,0.0470237,0.522867,0.204622,0.0271012,0.0463785,0.0654138,0.143128,0.0852638,0.21489l0.0360542,0.130489,-0.067269,0.104759c-0.0815052,0.127013,-0.356977,0.394919,-0.574126,0.558357,-0.339821,0.255767,-0.902477,0.549153,-1.44145,0.751598,-0.243136,0.0913212,-0.637604,0.214035,-0.674811,0.209905,-0.0124214,-0.00241975,-0.217301,-0.0539604,-0.455155,-0.116833z" stroke-width="0.843821" fill="black" id="path4622" stroke-opacity="1.0" stroke="none"/>
       <path style="stroke-linecap:butt;stroke-linejoin:miter;stroke-miterlimit:4;stroke-dasharray:none;" d="m713.191,-762.358c0,0,0.522553,0.217003,0.801654,2.23619,0.310066,2.24321,-0.168769,2.53155,-0.168769,2.53155" stroke-width="0.295347" fill="none" id="path844-8" stroke-opacity="1.0" stroke="black"/>
       <path style="stroke-linecap:butt;stroke-linejoin:miter;stroke-miterlimit:4;stroke-dasharray:none;" d="m717.916,-764.889c0,0,1.01261,1.47674,1.39235,3.16443,0.421915,1.18138,-0.126585,4.00827,-0.168769,4.13486" stroke-width="0.295347" fill="none" id="path846-9" stroke-opacity="1.0" stroke="black"/>
       <path style="stroke-linecap:butt;stroke-linejoin:miter;stroke-miterlimit:4;stroke-dasharray:none;" d="m723.359,-766.45c0,0,0.849412,1.89694,0.886039,3.58636,0.0776739,3.5831,-0.295346,3.33319,-0.295346,3.92389" stroke-width="0.295347" fill="none" id="path848-8" stroke-opacity="1.0" stroke="black"/>
       <path style="stroke-linecap:butt;stroke-linejoin:miter;stroke-miterlimit:4;stroke-dasharray:none;" d="m728.254,-765.607c0,0,1.7721,1.86705,2.3628,3.92389,0.723174,2.51823,0.590693,3.08006,0.590693,4.76775" stroke-width="0.295347" fill="none" id="path850-7" stroke-opacity="1.0" stroke="black"/>
       <path style="stroke-linecap:butt;stroke-linejoin:miter;stroke-miterlimit:4;stroke-dasharray:none;" d="m729.351,-768.012c0,0,1.5611,-0.0843846,2.95346,0.379731,1.39234,0.464116,3.37539,1.51892,4.4302,2.44715" stroke-width="0.295347" fill="none" id="path852-0" stroke-opacity="1.0" stroke="black"/>
       <path style="stroke-linecap:butt;stroke-linejoin:miter;stroke-miterlimit:4;stroke-dasharray:none;" d="m729.604,-772.653c0,0,1.22357,-0.295346,3.08002,-0.295346,1.85647,0,3.12225,0.464116,3.62855,0.759462" stroke-width="0.295347" fill="none" id="path854-9" stroke-opacity="1.0" stroke="black"/>
       <path style="stroke-linecap:round;stroke-linejoin:miter;stroke-miterlimit:4;stroke-dasharray:none;" d="m729.236,-784.88c0,0,0.853623,0.0275045,1.22225,0.28791,0.368632,0.260429,0.791282,0.972916,0.763931,0.963551" stroke-width="0.44302" fill="none" id="path1006-3-3" stroke-opacity="1.0" stroke="black"/>
       <path style="stroke-linecap:round;stroke-linejoin:miter;stroke-miterlimit:4;stroke-dasharray:none;" d="m728.277,-783.173c0,0,0.721674,-0.456719,1.17295,-0.448298,0.451267,0.0083078,1.20113,0.36051,1.17324,0.368092" stroke-width="0.44302" fill="none" id="path1006-3-2-2" stroke-opacity="1.0" stroke="black"/>
       <path style="stroke-linecap:butt;stroke-linejoin:miter;stroke-miterlimit:4;stroke-dasharray:none;" d="m688.124,-760.191c0,0,0.745347,-0.705388,2.03596,-1.44786,0.962043,-0.553453,1.12275,-0.630425,2.17071,-0.938902,0.844678,-0.248621,1.12242,-0.173948,1.41297,-0.147395,0.339781,0.0310534,0.634361,0.189345,0.832732,0.393757,0.473109,0.487482,0.374488,0.306154,1.39411,1.66306,1.01963,1.3569,1.76024,1.49173,2.35693,1.49173,0.433716,0,1.3623,0.0529118,2.48444,-0.428457,0.421657,-0.180876,1.77059,-0.799759,2.08023,-1.09311,1.46788,-1.00721,2.19662,-1.27914,2.83429,-1.34255,0.363809,-0.0330699,0.525964,0.651347,0.679538,1.16554,0.12348,0.413438,0.569593,0.843096,0.782353,0.922883,0.477344,0.179005,0.865197,0.56685,1.10387,0.447516" stroke-width="0.295347" fill="none" id="path1038-1" stroke-opacity="1.0" stroke="black"/>
       <path style="opacity:1;stroke-linecap:butt;stroke-linejoin:bevel;stroke-miterlimit:4;stroke-dasharray:none;paint-order:markers stroke fill" fill-opacity="1.0" d="m734.337,-779.074c-0.313107,-0.0121794,-0.736765,-0.047669,-0.753558,-0.0633167,-0.00322633,-0.00241975,0.035651,-0.0151637,0.0861672,-0.0272625,0.0504921,-0.0121794,0.201718,-0.0600904,0.336095,-0.106517,0.889273,-0.307268,1.4734,-0.733724,1.64602,-1.20171,0.110276,-0.298911,0.0515406,-0.596435,-0.16097,-0.815301,-0.0997178,-0.102686,-0.33424,-0.259865,-0.444895,-0.298145,-0.0367802,-0.0125827,-0.066785,-0.0296822,-0.066785,-0.0377481,0,-0.0245201,0.252904,-0.13799,0.419423,-0.18824,0.367326,-0.110784,0.680304,-0.137627,1.25251,-0.107388,0.599049,0.031618,0.959728,0.08382,1.37892,0.19946,0.337273,0.0930231,1.23357,0.460946,1.29914,0.582183,0.127351,0.299855,-0.259357,0.732102,-0.482893,0.990007,-0.464333,0.497927,-0.311083,0.329973,-0.602219,0.58249,-0.403888,0.225569,-0.545572,0.280578,-0.837015,0.376021,-0.225609,0.0738829,-0.340926,0.0830941,-1.45583,0.116067,-0.682546,0.0200839,-1.08076,0.0200839,-1.61413,0z" stroke-width="0.133096" fill="black" id="path1156" stroke-opacity="1.0" stroke="black"/>
       <path style="opacity:1;stroke-linecap:butt;stroke-linejoin:miter;stroke-miterlimit:4;stroke-dasharray:none;paint-order:markers stroke fill" fill-opacity="1.0" d="m732.306,-775.796c-0.199581,-0.0270205,-0.434724,-0.0788837,-0.775231,-0.170923,-0.312849,-0.0845702,-0.545661,-0.171931,-0.804356,-0.301847,-0.174883,-0.0878368,-0.471036,-0.258203,-0.486256,-0.279723,-0.0121794,-0.0170995,0.0909341,-0.626045,0.238095,-1.00858,0.157356,-0.409042,0.209284,-0.71189,0.235764,-0.707034,0.0102436,0.00241975,0.415471,0.14579,0.681457,0.255428,0.265979,0.109606,0.60747,0.245056,0.758841,0.30096,0.332852,0.0909583,0.222447,0.0489595,0.290233,0.0986934,0.0358929,0.0800936,-0.00854978,0.30067,0.0340378,0.852106,0.0336345,0.43545,0.0445234,0.851501,0.0498468,0.898734,0.0112922,0.10025,0.0267785,0.095951,-0.222472,0.0621875z" stroke-width="0.632452" fill="black" id="path1160" stroke-opacity="1.0" stroke="none"/>
       <path style="opacity:1;stroke-linecap:butt;stroke-linejoin:miter;stroke-miterlimit:4;stroke-dasharray:none;paint-order:markers stroke fill" fill-opacity="1.0" d="m734.913,-774.477c-0.306501,-0.0458139,-0.73345,-0.1397,-1.12398,-0.247193l-0.383014,-0.105445,-0.314688,-0.44187,-0.31468,-0.441838,-0.0660591,-0.968746,-0.0660591,-0.96877,0.303081,-0.590563,0.303106,-0.590588,0.170883,0.0190353c0.646468,0.0715439,2.40462,0.0966447,3.24704,0.0462978,0.205074,-0.0121794,0.376601,-0.0196806,0.381175,-0.0166963,0.0048395,0.00322633,-0.119592,0.252283,-0.275924,0.553703l-0.284256,0.548032,0.0652525,1.00703,0.0652525,1.00706,0.339773,0.474351,0.339757,0.474367,-0.300008,0.0499274c-1.10819,0.184409,-1.74494,0.242967,-2.08664,0.19191z" stroke-width="0.590675" fill="black" id="path1158" stroke-opacity="1.0" stroke="none"/>
       <path style="opacity:1;stroke-linecap:round;stroke-linejoin:miter;stroke-miterlimit:4;stroke-dasharray:none;paint-order:markers stroke fill" fill-opacity="1.0" d="m737.235,-775.284,-0.303122,-0.44383,-0.0628328,-0.977231,-0.0628328,-0.977223,0.259018,-0.54646,0.259018,-0.546451,0.359929,-0.0990564c0.511277,-0.140708,0.81235,-0.312188,1.14223,-0.650678,0.307929,-0.315971,0.685127,-0.869867,0.837249,-1.22941l0.0934103,-0.220826,0.139636,0.228521c0.166204,0.272012,0.342878,1.42521,0.399275,2.60629l0.0364575,0.76343,-0.229691,0.473173c-0.257501,0.530409,-0.791217,1.37684,-0.967552,1.53443,-0.0636394,0.0569447,-0.394742,0.182215,-0.735757,0.278489,-0.340999,0.0962575,-0.674295,0.192063,-0.740693,0.212857,-0.0978385,0.0306501,-0.178085,-0.0462172,-0.423811,-0.406034z" stroke-width="0.585002" fill="black" id="path1149" stroke-opacity="1.0" stroke="none"/>
       <path style="opacity:1;stroke-linecap:square;stroke-linejoin:round;stroke-miterlimit:4;stroke-dasharray:none;paint-order:normal" fill-opacity="1.0" d="m717.043,-810.558c0.463551,-0.108889,1.41225,-0.181562,1.84865,-0.141636,0.605614,0.0556542,1.39703,0.264882,1.86313,0.493225,0.551138,0.269963,1.28393,0.872238,1.58667,1.30416,0.357082,0.509518,0.433248,0.520165,1.266,0.176964,0.778239,-0.320616,1.20132,-0.386595,1.94843,-0.303517,0.546024,0.0604937,1.44653,0.38603,1.91888,0.693257,0.757639,0.492741,1.36231,1.19479,1.72352,2.00124,0.599138,1.33769,0.50726,2.65964,-0.261276,3.75915l-0.170141,0.243418,0.248589,0.199089c0.669214,0.536006,1.15503,1.40604,1.28121,2.29443,0.381772,2.68789,-1.73145,5.56053,-4.58994,6.23946,-0.916713,0.217729,-2.03764,0.170415,-2.70798,-0.114317l-0.19433,-0.0825295,-0.105461,0.171076c-0.16768,0.272004,-0.720698,0.864519,-1.03856,1.11274,-0.44967,0.351129,-1.53625,0.845242,-2.1708,0.987168,-1.33586,0.29879,-2.66287,0.193475,-3.91105,-0.310373,-2.10822,-0.851009,-3.30021,-2.63448,-2.96572,-4.4374l0.0828038,-0.446306,-0.655978,-0.245983c-0.531723,-0.199371,-0.737346,-0.314196,-1.08535,-0.605993,-1.05338,-0.88328,-1.55471,-2.08144,-1.50778,-3.60353,0.0590418,-1.91496,1.09436,-2.97169,2.67342,-3.76979l1.3476,-0.407719,-0.0469431,-1.89777c0.199339,-1.21245,0.435837,-1.75416,1.38357,-2.36659,0.442572,-0.34675,1.68096,-0.810857,2.23887,-0.941927z" stroke-width="0.295347" fill="none" id="path1714-8" stroke-opacity="1.0" stroke="black"/>
       <path style="opacity:1;stroke-linecap:butt;stroke-linejoin:miter;stroke-miterlimit:4;stroke-dasharray:none;paint-order:markers stroke fill" fill-opacity="1.0" d="m715.91,-807.113c-0.154565,-0.250847,0.0623488,1.11591,-0.0334732,1.55503,-0.0958785,0.439087,-3.01034,2.47191,0.746968,6.80084,1.19017,1.37122,2.5502,1.84345,3.69149,2.11659,1.51065,0.361559,3.18893,0.155436,4.08936,-0.221036,0.624432,-0.261115,0.731458,-0.455953,0.731458,-0.455953,0.0455719,-0.421665,-0.105719,-0.59283,-0.105719,-0.59283l-0.810301,-0.321584c-0.670811,-0.257138,-3.74154,-0.831885,-4.85721,-1.67422,-1.88759,-1.42514,-1.90053,-2.61027,-2.2315,-3.53283,-0.108614,-0.638845,-0.404049,-1.42155,-0.629578,-1.97478,-0.22552,-0.553211,0.0271818,-1.70664,0.0271818,-1.70664z" stroke-width="0.590693" fill="black" id="path1408-6-0" stroke-opacity="1.0" stroke="none"/>
       <circle style="opacity:1;stroke-linecap:square;stroke-linejoin:round;stroke-miterlimit:4;stroke-dasharray:none;paint-order:normal" cy="-790.351" fill-opacity="1.0" cx="724.548" stroke-width="0.295347" fill="none" id="path1557-3-6-9" r="1.64651" stroke-opacity="1.0" stroke="black"/>
       <circle style="opacity:1;stroke-linecap:square;stroke-linejoin:round;stroke-miterlimit:4;stroke-dasharray:none;paint-order:normal" cy="-787.265" fill-opacity="1.0" cx="726.919" stroke-width="0.295347" fill="none" id="path1557-3-1-1-8" r="0.898043" stroke-opacity="1.0" stroke="black"/>
       <rect style="opacity:1;stroke-linecap:round;stroke-linejoin:round;stroke-miterlimit:4;stroke-dasharray:none;paint-order:normal" y="-779.117" width="1.50838" fill-opacity="1.0" stroke-width="0.590675" fill="none" id="rect859" height="0.748915" stroke-opacity="1.0" x="735.209" stroke="none"/>
       <rect style="opacity:1;stroke-linecap:round;stroke-linejoin:round;stroke-miterlimit:4;stroke-dasharray:none;paint-order:normal" y="-779.297" width="1.3607" fill-opacity="1.0" stroke-width="0.590675" fill="none" id="rect862" height="0.590693" stroke-opacity="1.0" x="734.998" stroke="none"/>
       <rect style="opacity:1;stroke-linecap:round;stroke-linejoin:round;stroke-miterlimit:4;stroke-dasharray:none;paint-order:normal" y="-779.276" width="1.4029" fill-opacity="1.0" clip-path="none" stroke-width="0.590675" fill="none" id="rect864" height="1.3818" stroke-opacity="1.0" x="735.124" stroke="none"/>
       <rect style="opacity:1;stroke-linecap:round;stroke-linejoin:round;stroke-miterlimit:4;stroke-dasharray:none;paint-order:normal" y="-779.74" width="1.80372" fill-opacity="1.0" stroke-width="0.590675" fill="none" id="rect868" height="1.54002" stroke-opacity="1.0" x="734.966" stroke="none"/>
       <rect style="opacity:1;stroke-linecap:round;stroke-linejoin:round;stroke-miterlimit:4;stroke-dasharray:none;paint-order:normal" y="-780.309" width="2.07798" fill-opacity="1.0" stroke-width="0.590675" fill="none" id="rect873" height="1.54002" stroke-opacity="1.0" x="730.557" stroke="none"/>
       <rect style="opacity:1;stroke-linecap:round;stroke-linejoin:round;stroke-miterlimit:4;stroke-dasharray:none;paint-order:normal" y="-781.006" width="2.56319" fill-opacity="1.0" stroke-width="0.590675" fill="none" id="rect876" height="2.03578" stroke-opacity="1.0" x="730.304" stroke="none"/>
       <rect style="opacity:1;stroke-linecap:round;stroke-linejoin:round;stroke-miterlimit:4;stroke-dasharray:none;paint-order:normal" y="-779.972" width="1.87756" fill-opacity="1.0" stroke-width="0.590675" fill="none" id="rect878" height="1.67715" stroke-opacity="1.0" x="734.861" stroke="none"/>
       <path style="color:#000000;font-style:normal;font-variant:normal;font-weight:normal;font-stretch:normal;line-height:normal;font-family:sans-serif;font-variant-ligatures:normal;font-variant-position:normal;font-variant-caps:normal;font-variant-numeric:normal;font-variant-alternates:normal;font-feature-settings:normal;text-indent:0;text-align:start;text-decoration:none;text-decoration-line:none;text-decoration-style:solid;text-decoration-color:#000000;letter-spacing:normal;word-spacing:normal;text-transform:none;writing-mode:lr-tb;direction:ltr;text-orientation:mixed;dominant-baseline:auto;baseline-shift:baseline;text-anchor:start;white-space:normal;shape-padding:0;clip-rule:nonzero;display:inline;overflow:visible;visibility:visible;opacity:1;isolation:auto;mix-blend-mode:normal;color-interpolation:sRGB;color-interpolation-filters:linearRGB;solid-color:#000000;solid-opacity:1;vector-effect:none;fill-rule:nonzero;stroke-linecap:butt;stroke-linejoin:miter;stroke-miterlimit:4;stroke-dasharray:none;stroke-dashoffset:0;color-rendering:auto;image-rendering:auto;shape-rendering:auto;text-rendering:auto;enable-background:accumulate" fill-opacity="1.0" d="m731.918,-784.141c-1.68147,0.00403291,-2.63669,1.09667,-2.63669,1.09667l-0.177359,0.204606,0.268035,0.0383127c0,0,0.427271,0.0613003,0.927368,0.255195,0.488846,0.189555,1.03094,0.506937,1.30586,0.986523,-0.0338765,0.83103,-0.0750928,1.15307,-0.191547,1.44147,-0.119148,0.295096,-0.336813,0.602727,-0.719673,1.41102,-0.355977,0.751509,-0.914657,2.5047,-1.06547,4.1736,-0.181005,2.00291,-0.25292,4.26297,-0.298613,4.99401,-0.0521859,0.834756,-0.216551,2.70068,-1.06468,3.78245,-0.254824,0.325045,-0.645573,0.628061,-1.04499,0.774738,-0.399428,0.146677,-0.790556,0.143846,-1.11168,-0.107461,-0.976328,-0.764083,-1.70391,-1.21475,-2.4243,-1.44256,-0.720391,-0.227803,-1.42352,-0.226343,-2.32727,-0.106517,-1.63409,0.216664,-2.96062,1.03628,-5.22206,2.90155,-1.09014,0.899162,-2.52196,1.27266,-4.04071,1.30443,-1.14861,0.0240362,-2.29763,-0.507429,-3.09275,-0.939572,-0.397557,-0.216075,-0.69888,-0.403807,-0.89792,-0.491733,-0.0497661,-0.021939,-0.0921843,-0.0389579,-0.143894,-0.0467818,-0.0258913,-0.00403291,-0.0554122,-0.00645266,-0.0935152,0.00403291,-0.0380707,0.0102436,-0.0855865,0.0419423,-0.109332,0.0840459,-0.0475077,0.0841507,-0.0225037,0.143249,-0.0048395,0.193596,0.0175028,0.0503307,0.0434748,0.101549,0.0793677,0.164083l0.00403291,0.00725924,0.0048395,0.00645266c0,0,2.36721,3.21346,3.03388,4.21348,0.146959,0.220431,0.487297,0.512462,0.874069,0.804848,0.386772,0.292386,0.8033,0.565285,1.10493,0.682183,1.03501,0.401121,2.4864,0.714809,4.81729,0.603816,1.43074,-0.0681562,2.28874,-0.711938,2.90548,-1.08903,0.850098,-0.519786,2.35551,-0.75705,3.55615,-0.516914,0.336401,0.067269,0.75972,0.323698,1.20062,0.614801,0.440926,0.291104,0.901679,0.613567,1.36103,0.79796,1.53552,0.616406,2.72875,1.14711,4.85871,0.268834,1.47994,-0.354832,2.51237,-1.48075,3.52519,-2.74675l0.0048395,-0.00645266,0.00403291,-0.00725924c0.627521,-0.99062,1.12217,-1.76879,1.53564,-3.76261,0.319302,-1.5398,0.386853,-3.05765,0.343491,-3.75151,-0.0423456,-0.67794,-0.147887,-2.04919,-0.274617,-3.401,-0.12673,-1.35182,-0.272286,-2.67496,-0.403436,-3.287,-0.118164,-0.551364,-0.112688,-1.6896,-0.155001,-2.91715,-0.0134699,-0.387627,-0.0317794,-0.785151,-0.0615423,-1.17921a0.907139,0.759463,0,0,1,-0.229755,0.025246,0.907139,0.759463,0,0,1,-0.0658978,-0.00241975c0.0297629,0.388353,0.0487176,0.782151,0.0619455,1.16696,0.042023,1.21962,0.0264559,2.33869,0.161462,2.9687,0.121979,0.569318,0.27177,1.9043,0.398178,3.25279,0.126432,1.34849,0.231852,2.71966,0.273867,3.39187,0.0404098,0.646766,-0.0248427,2.16329,-0.337958,3.673,-0.406066,1.9583,-0.865633,2.66969,-1.49102,3.65687,-1.00704,1.25827,-1.99558,2.31915,-3.37367,2.64341l-0.0115341,0.00241975,-0.0111308,0.00483949c-2.06192,0.852356,-3.09828,0.352251,-4.64243,-0.267632,-0.410946,-0.164962,-0.863301,-0.476577,-1.30827,-0.770351,-0.444943,-0.293773,-0.880272,-0.572988,-1.30538,-0.65801,-1.2814,-0.256283,-2.82318,-0.0232296,-3.76817,0.554558,-0.639628,0.391079,-1.41642,0.981812,-2.76551,1.04606,-2.29881,0.109461,-3.69954,-0.197806,-4.6965,-0.584175,-0.237918,-0.0922085,-0.659131,-0.359284,-1.03365,-0.642411,-0.374537,-0.283127,-0.719157,-0.60221,-0.806349,-0.733006,-0.655711,-0.983563,-2.76157,-3.84357,-2.93905,-4.08452,0.173165,0.0923375,0.365608,0.202468,0.679675,0.373165,0.809857,0.44016,1.99738,1.00141,3.23993,0.975416,1.56326,-0.0327472,3.06544,-0.417624,4.22242,-1.37192,2.25057,-1.85629,3.51393,-2.62986,5.07294,-2.83656,0.884539,-0.117285,1.53148,-0.115825,2.19941,0.0953784,0.667891,0.211204,1.36679,0.638539,2.3313,1.39338,0.414148,0.324117,0.932861,0.322117,1.39554,0.152202,0.46268,-0.169915,0.886362,-0.500888,1.17559,-0.869802,0.935983,-1.19384,1.07438,-3.10363,1.12705,-3.9462,0.0468624,-0.749339,0.118221,-2.99576,0.298056,-4.98581,0.146524,-1.62143,0.708002,-3.37659,1.03823,-4.07375,0.376577,-0.795016,0.588636,-1.08543,0.726521,-1.42693,0.137893,-0.341515,0.181207,-0.702057,0.215745,-1.58395l0.00241975,-0.0403291,-0.0192773,-0.035409c-0.322318,-0.598605,-0.945879,-0.947291,-1.47949,-1.1542,-0.277416,-0.107558,-0.525126,-0.174214,-0.708147,-0.215954,0.348581,-0.301073,1.16076,-0.855711,2.37265,-0.805574,0.110357,0.00483949,0.224053,0.0141152,0.340991,0.0292789,1.00792,0.131473,1.88644,1.01957,2.54094,2.26844,0.188321,0.359332,0.252323,0.528997,0.289749,0.66222,0.0374254,0.133231,0.051218,0.249976,0.128948,0.473456,0.0866834,0.249161,0.157074,0.524593,0.214761,0.817334a0.907139,0.759463,0,0,1,0.255719,-0.0313761,0.907139,0.759463,0,0,1,0.0406518,0.00241975c-0.061139,-0.313381,-0.137055,-0.611268,-0.232199,-0.884772,-0.070818,-0.203477,-0.0796904,-0.300395,-0.123504,-0.456211,-0.0437168,-0.155791,-0.119245,-0.35046,-0.312656,-0.719471,-0.677989,-1.29367,-1.61139,-2.2738,-2.76426,-2.42418,-0.125666,-0.0164543,-0.247903,-0.0266172,-0.366834,-0.0312954l0,0c-0.0557349,-0.00241975,-0.110744,-0.00322633,-0.164986,-0.00322633z" clip-path="none" stroke-width="0.295347" fill="black" id="path828-6" stroke-opacity="1.0" font-size="medium" stroke="none"/>
       <rect style="opacity:1;stroke-linecap:round;stroke-linejoin:round;stroke-miterlimit:4;stroke-dasharray:none;paint-order:normal" y="-779.455" width="1.56112" fill-opacity="1.0" stroke-width="0.590675" fill="none" id="rect880" height="1.1181" stroke-opacity="1.0" x="735.103" stroke="none"/>
       <rect style="opacity:1;stroke-linecap:round;stroke-linejoin:round;stroke-miterlimit:4;stroke-dasharray:none;paint-order:normal" y="-779.539" width="2.01469" fill-opacity="1.0" stroke-width="0.590675" fill="none" id="rect4597" height="1.74044" stroke-opacity="1.0" x="734.597" stroke="none"/>
       <rect style="opacity:1;stroke-linecap:round;stroke-linejoin:round;stroke-miterlimit:4;stroke-dasharray:none;paint-order:normal" y="-779.35" width="1.48728" fill-opacity="1.0" stroke-width="0.590675" fill="none" id="rect4603" height="1.24467" stroke-opacity="1.0" x="735.093" stroke="none"/>
       <rect style="opacity:1;stroke-linecap:round;stroke-linejoin:round;stroke-miterlimit:4;stroke-dasharray:none;paint-order:normal" y="-779.371" width="1.54002" fill-opacity="1.0" stroke-width="0.590675" fill="none" id="rect4612" height="1.13919" stroke-opacity="1.0" x="735.093" stroke="none"/>
       <ellipse style="opacity:1;stroke-linecap:round;stroke-linejoin:round;stroke-miterlimit:4;stroke-dasharray:none;paint-order:normal" cy="-778.859" fill-opacity="1.0" cx="735.757" stroke-width="0.590675" fill="none" id="path4614" stroke-opacity="1.0" rx="0.580145" stroke="none" ry="0.701448"/>
      </g>
     </g>
    </g>
   </g>
  </g>
 </g>
 <g partID="854515661">
  <g transform="translate(176.787,112.833)">
   <g transform="matrix(1, 0, 0, 1, 0.377238, -800.114)">
    <g id="silkscreen">
     <g transform="matrix(1, 0, 0, 1, -0.288, 797.219)">
      <g>
       <g gorn="0.3.0.0.0.0.0.0.0.1">
        <line x2="15.9457" style="stroke-linecap:round" y1="3.3263" stroke-width="0.861453" id="line5583" class="other" gorn="0.3.0.0.0.0.0.0.0.1.0" x1="29.2605" y2="3.3263" stroke="black"/>
        <line x2="29.4976" style="stroke-linecap:round" y1="44.0797" stroke-width="0.762397" id="line5585" class="other" gorn="0.3.0.0.0.0.0.0.0.1.1" x1="29.4976" y2="17.7593" stroke="black"/>
        <line x2="29.2801" style="stroke-linecap:round" y1="3.60127" stroke-width="1.1527" id="line5587" class="other" gorn="0.3.0.0.0.0.0.0.0.1.2" x1="29.2801" y2="11.5479" stroke="black"/>
        <line x2="0.288" style="stroke-linecap:round" y1="44.2427" stroke-width="0.668813" id="line5589" class="other" gorn="0.3.0.0.0.0.0.0.0.1.3" x1="0.288" y2="3.34997" stroke="black"/>
        <line x2="10.2164" style="stroke-linecap:round" y1="3.34997" stroke-width="0.743881" id="line5591" class="other" gorn="0.3.0.0.0.0.0.0.0.1.4" x1="0.288" y2="3.34997" stroke="black"/>
        <line x2="29.4132" style="stroke-linecap:round" y1="44.2427" stroke-width="0.615565" id="line5593" class="other" gorn="0.3.0.0.0.0.0.0.0.1.5" x1="0.276284" y2="44.2427" stroke="black"/>
       </g>
      </g>
     </g>
    </g>
   </g>
  </g>
 </g>
 <g partID="854511851">
  <g transform="translate(140.66,120.308)">
   <g transform="matrix(1, 0, 0, 1, 0.0527316, 1.27105)">
    <g id="silkscreen">
     <g gorn="0.4.0.0">
      <line x2="11.6017" style="stroke-linecap:round" y1="-0.941906" stroke-width="0.36605" id="line3703" gorn="0.4.0.0.0" class="other" y2="-0.941906" x1="16.7534" stroke="black"/>
      <line x2="16.7419" style="stroke-linecap:round" y1="33.2125" stroke-width="0.49048" id="line3709" gorn="0.4.0.0.1" class="other" y2="11.4253" x1="16.7419" stroke="black"/>
      <line x2="16.6313" style="stroke-linecap:round" y1="33.1654" stroke-width="0.475143" id="line3711" gorn="0.4.0.0.2" class="other" y2="33.1654" x1="0.235889" stroke="black"/>
      <line x2="0.215446" style="display:inline;stroke-linecap:round" y1="33.2545" stroke-width="0.402977" id="line3709-8" gorn="0.4.0.0.3" class="other" y2="18.5476" x1="0.215446" stroke="black"/>
      <line x2="16.8661" style="stroke-linecap:round" y1="6.28816" stroke-width="0.282618" id="line3709-6" gorn="0.4.0.0.4" class="other" y2="-0.94554" x1="16.8661" stroke="black"/>
      <line x2="0.165335" style="display:inline;stroke-linecap:round" y1="16.4761" stroke-width="0.436089" id="line3709-8-3" gorn="0.4.0.0.5" class="other" y2="-0.746985" x1="0.165335" stroke="black"/>
     </g>
    </g>
   </g>
  </g>
 </g>
 <g partID="854511841">
  <g transform="translate(102.393,120.308)">
   <g transform="matrix(1, 0, 0, 1, 0.0527316, 1.27105)">
    <g id="silkscreen">
     <g gorn="0.4.0.0">
      <line x2="11.6017" style="stroke-linecap:round" y1="-0.941906" stroke-width="0.36605" id="line3703" gorn="0.4.0.0.0" class="other" y2="-0.941906" x1="16.7534" stroke="black"/>
      <line x2="16.7419" style="stroke-linecap:round" y1="33.2125" stroke-width="0.49048" id="line3709" gorn="0.4.0.0.1" class="other" y2="11.4253" x1="16.7419" stroke="black"/>
      <line x2="16.6313" style="stroke-linecap:round" y1="33.1654" stroke-width="0.475143" id="line3711" gorn="0.4.0.0.2" class="other" y2="33.1654" x1="0.235889" stroke="black"/>
      <line x2="0.215446" style="display:inline;stroke-linecap:round" y1="33.2545" stroke-width="0.402977" id="line3709-8" gorn="0.4.0.0.3" class="other" y2="18.5476" x1="0.215446" stroke="black"/>
      <line x2="16.8661" style="stroke-linecap:round" y1="6.28816" stroke-width="0.282618" id="line3709-6" gorn="0.4.0.0.4" class="other" y2="-0.94554" x1="16.8661" stroke="black"/>
      <line x2="0.165335" style="display:inline;stroke-linecap:round" y1="16.4761" stroke-width="0.436089" id="line3709-8-3" gorn="0.4.0.0.5" class="other" y2="-0.746985" x1="0.165335" stroke="black"/>
     </g>
    </g>
   </g>
  </g>
 </g>
 <g partID="854511831">
  <g transform="translate(64.125,120.308)">
   <g transform="matrix(1, 0, 0, 1, 0.0527316, 1.27105)">
    <g id="silkscreen">
     <g gorn="0.4.0.0">
      <line x2="11.6017" style="stroke-linecap:round" y1="-0.941906" stroke-width="0.36605" id="line3703" gorn="0.4.0.0.0" class="other" y2="-0.941906" x1="16.7534" stroke="black"/>
      <line x2="16.7419" style="stroke-linecap:round" y1="33.2125" stroke-width="0.49048" id="line3709" gorn="0.4.0.0.1" class="other" y2="11.4253" x1="16.7419" stroke="black"/>
      <line x2="16.6313" style="stroke-linecap:round" y1="33.1654" stroke-width="0.475143" id="line3711" gorn="0.4.0.0.2" class="other" y2="33.1654" x1="0.235889" stroke="black"/>
      <line x2="0.215446" style="display:inline;stroke-linecap:round" y1="33.2545" stroke-width="0.402977" id="line3709-8" gorn="0.4.0.0.3" class="other" y2="18.5476" x1="0.215446" stroke="black"/>
      <line x2="16.8661" style="stroke-linecap:round" y1="6.28816" stroke-width="0.282618" id="line3709-6" gorn="0.4.0.0.4" class="other" y2="-0.94554" x1="16.8661" stroke="black"/>
      <line x2="0.165335" style="display:inline;stroke-linecap:round" y1="16.4761" stroke-width="0.436089" id="line3709-8-3" gorn="0.4.0.0.5" class="other" y2="-0.746985" x1="0.165335" stroke="black"/>
     </g>
    </g>
   </g>
  </g>
 </g>
 <g partID="854511861">
  <g transform="translate(25.8575,120.308)">
   <g transform="matrix(1, 0, 0, 1, 0.0527316, 1.27105)">
    <g id="silkscreen">
     <g gorn="0.4.0.0">
      <line x2="11.6017" style="stroke-linecap:round" y1="-0.941906" stroke-width="0.36605" id="line3703" gorn="0.4.0.0.0" class="other" y2="-0.941906" x1="16.7534" stroke="black"/>
      <line x2="16.7419" style="stroke-linecap:round" y1="33.2125" stroke-width="0.49048" id="line3709" gorn="0.4.0.0.1" class="other" y2="11.4253" x1="16.7419" stroke="black"/>
      <line x2="16.6313" style="stroke-linecap:round" y1="33.1654" stroke-width="0.475143" id="line3711" gorn="0.4.0.0.2" class="other" y2="33.1654" x1="0.235889" stroke="black"/>
      <line x2="0.215446" style="display:inline;stroke-linecap:round" y1="33.2545" stroke-width="0.402977" id="line3709-8" gorn="0.4.0.0.3" class="other" y2="18.5476" x1="0.215446" stroke="black"/>
      <line x2="16.8661" style="stroke-linecap:round" y1="6.28816" stroke-width="0.282618" id="line3709-6" gorn="0.4.0.0.4" class="other" y2="-0.94554" x1="16.8661" stroke="black"/>
      <line x2="0.165335" style="display:inline;stroke-linecap:round" y1="16.4761" stroke-width="0.436089" id="line3709-8-3" gorn="0.4.0.0.5" class="other" y2="-0.746985" x1="0.165335" stroke="black"/>
     </g>
    </g>
   </g>
  </g>
 </g>
 <g partID="854384891">
  <g transform="translate(154.975,26.5398)">
   <g id="silkscreen">
    <line x2="30.24" y1="5.76" stroke-width="0.72" x1="1.44" y2="5.76" stroke="black"/>
    <line x2="30.24" y1="5.76" stroke-width="0.72" x1="30.24" y2="18.72" stroke="black"/>
    <line x2="1.44" y1="18.72" stroke-width="0.72" x1="30.24" y2="18.72" stroke="black"/>
    <line x2="1.44" y1="18.72" stroke-width="0.72" x1="1.44" y2="5.76" stroke="black"/>
    <line x2="30.24" y1="5.76" stroke-width="0.72" x1="1.44" y2="5.76" stroke="black"/>
    <line x2="30.24" y1="5.76" stroke-width="0.72" x1="30.24" y2="10.08" stroke="black"/>
    <line x2="1.44" y1="10.08" stroke-width="0.72" x1="30.24" y2="10.08" stroke="black"/>
    <line x2="1.44" y1="10.08" stroke-width="0.72" x1="1.44" y2="5.76" stroke="black"/>
    <line x2="10.8" y1="5.76" stroke-width="0.36" x1="10.8" y2="10.08" stroke="black"/>
    <line x2="20.88" y1="5.76" stroke-width="0.36" x1="20.88" y2="10.08" stroke="black"/>
   </g>
  </g>
 </g>
 <g partID="854212410">
  <g transform="translate(64.0906,43.7388)">
   <g id="silkscreen">
    <text y="2.94367" stroke-width="0" fill="black" xml:space="preserve" id="label" font-size="3.27074" x="19.6245" xmlns:xml="http://www.w3.org/XML/1998/namespace" font-family="OCRA" text-anchor="middle">David Tadres</text>
   </g>
  </g>
 </g>
 <g partID="854212310">
  <g transform="translate(62.8962,47.4954)">
   <g id="silkscreen">
    <text y="2.94367" stroke-width="0" fill="black" xml:space="preserve" id="label" font-size="3.27074" x="21.2598" xmlns:xml="http://www.w3.org/XML/1998/namespace" font-family="OCRA" text-anchor="middle">with Fritzing</text>
   </g>
  </g>
 </g>
 <g partID="854212230">
  <g transform="translate(65.7434,39.3566)">
   <g id="silkscreen">
    <text y="2.94367" stroke-width="0" fill="black" xml:space="preserve" id="label" font-size="3.27074" x="17.9891" xmlns:xml="http://www.w3.org/XML/1998/namespace" font-family="OCRA" text-anchor="middle">Designed by</text>
   </g>
  </g>
 </g>
 <g partID="854212200">
  <g transform="translate(66.5474,31.671)">
   <g id="silkscreen">
    <text y="7.22894" stroke-width="0" fill="black" xml:space="preserve" id="label" font-size="8.03216" x="16.0643" xmlns:xml="http://www.w3.org/XML/1998/namespace" font-family="OCRA" text-anchor="middle">V2.4</text>
   </g>
  </g>
 </g>
 <g partID="854133741">
  <g transform="translate(105.866,36.4265)">
   <g id="silkscreen">
    <line x2="10.584" y1="3.096" stroke-width="0.72" x1="5.4" y2="3.096" stroke="black"/>
    <line x2="28.8" y1="3.096" stroke-width="0.72" x1="24.984" y2="3.096" stroke="black"/>
    <line x2="24.984" y1="0.72" stroke-width="0.72" x1="10.584" y2="0.72" stroke="black"/>
    <line x2="24.984" y1="0.72" stroke-width="0.72" x1="24.984" y2="5.472" stroke="black"/>
    <line x2="10.584" y1="5.472" stroke-width="0.72" x1="24.984" y2="5.472" stroke="black"/>
    <line x2="10.584" y1="5.472" stroke-width="0.72" x1="10.584" y2="0.72" stroke="black"/>
   </g>
  </g>
 </g>
 <g partID="196231">
  <g id="silkscreen">
   <rect y="0.288" width="226.196" stroke-width="0.576" fill="none" height="155.33" x="0.288" stroke="black"/>
  </g>
 </g>
 <g partID="337481">
  <g transform="translate(208.407,21.4998)">
   <g id="silkscreen">
    <line x2="1.44" y1="1.44" stroke-width="0.72" x1="1.44" y2="37.44" stroke="black"/>
    <line x2="8.64" y1="37.44" stroke-width="0.72" x1="1.44" y2="37.44" stroke="black"/>
    <line x2="8.64" y1="37.44" stroke-width="0.72" x1="8.64" y2="1.44" stroke="black"/>
    <line x2="1.44" y1="1.44" stroke-width="0.72" x1="8.64" y2="1.44" stroke="black"/>
    <line x2="3.96" y1="3.96" stroke-width="0.36" x1="1.44" y2="1.44" stroke="black"/>
    <!-- 120 -->
   </g>
  </g>
 </g>
 <g partID="337480" id="partLabel">
  <g transform="translate(219.916,55.3712)">
   <g transform="matrix(0,-1,1,0,0,0)">
    <g fill-opacity="1" font-weight="normal" fill="#000000" id="silkscreenLabel" font-size="5" font-style="normal" stroke="none" font-family="'OCRA'">
     <text y="3.75" x="0">+LCD 5V-</text>
    </g>
   </g>
  </g>
 </g>
 <g partID="198050" id="partLabel">
  <g transform="translate(114.416,23.7662)">
   <g fill-opacity="1" font-weight="normal" fill="#000000" id="silkscreenLabel" font-size="5" font-style="normal" stroke="none" font-family="'OCRA'">
    <text y="3.75" x="0">RPi GPIO</text>
   </g>
  </g>
 </g>
 <g partID="854511850" id="partLabel">
  <g transform="translate(134.845,155.02)">
   <g transform="matrix(0,-1,1,0,0,0)">
    <g fill-opacity="1" font-weight="normal" fill="#000000" id="silkscreenLabel" font-size="5" font-style="normal" stroke="none" font-family="'OCRA'">
     <text y="3.75" x="0">12V/18</text>
    </g>
   </g>
  </g>
 </g>
 <g partID="854515660" id="partLabel">
  <g transform="translate(170.761,154.672)">
   <g transform="matrix(0,-1,1,0,0,0)">
    <g fill-opacity="1" font-weight="normal" fill="#000000" id="silkscreenLabel" font-size="5" font-style="normal" stroke="none" font-family="'OCRA'">
     <text y="3.75" x="0">12V IN</text>
    </g>
   </g>
  </g>
 </g>
 <g partID="854511830" id="partLabel">
  <g transform="translate(58.4738,155.02)">
   <g transform="matrix(0,-1,1,0,0,0)">
    <g fill-opacity="1" font-weight="normal" fill="#000000" id="silkscreenLabel" font-size="5" font-style="normal" stroke="none" font-family="'OCRA'">
     <text y="3.75" x="0">12V/27</text>
    </g>
   </g>
  </g>
 </g>
 <g partID="854511840" id="partLabel">
  <g transform="translate(96.7418,154.691)">
   <g transform="matrix(0,-1,1,0,0,0)">
    <g fill-opacity="1" font-weight="normal" fill="#000000" id="silkscreenLabel" font-size="5" font-style="normal" stroke="none" font-family="'OCRA'">
     <text y="3.75" x="0">12V/17</text>
    </g>
   </g>
  </g>
 </g>
 <g partID="854384890" id="partLabel">
  <g transform="translate(154.758,24.4321)">
   <g fill-opacity="1" font-weight="normal" fill="#000000" id="silkscreenLabel" font-size="5" font-style="normal" stroke="none" font-family="'OCRA'">
    <text y="3.75" x="0">GPIO18</text>
   </g>
  </g>
 </g>
 <g partID="854511860" id="partLabel">
  <g transform="translate(20.2066,155.184)">
   <g transform="matrix(0,-1,1,0,0,0)">
    <g fill-opacity="1" font-weight="normal" fill="#000000" id="silkscreenLabel" font-size="5" font-style="normal" stroke="none" font-family="'OCRA'">
     <text y="3.75" x="0">12V/13</text>
    </g>
   </g>
  </g>
 </g>
 <g partID="854690520" id="partLabel">
  <g transform="translate(90.5858,68.5853)">
   <g fill-opacity="1" font-weight="normal" fill="#000000" id="silkscreenLabel" font-size="5" font-style="normal" stroke="none" font-family="'OCRA'">
    <text y="3.75" x="0">MiniPuck27</text>
   </g>
  </g>
 </g>
 <g partID="854691910" id="partLabel">
  <g transform="translate(156.472,68.9645)">
   <g fill-opacity="1" font-weight="normal" fill="#000000" id="silkscreenLabel" font-size="5" font-style="normal" stroke="none" font-family="'OCRA'">
    <text y="3.75" x="0">MiniPuck17</text>
   </g>
  </g>
 </g>
 <g partID="854133740" id="partLabel">
  <g transform="translate(120.047,32.392)">
   <g fill-opacity="1" font-weight="normal" fill="#000000" id="silkscreenLabel" font-size="5" font-style="normal" stroke="none" font-family="'OCRA'">
    <text y="3.75" x="0">R18</text>
   </g>
  </g>
 </g>
 <g partID="854683960" id="partLabel">
  <g transform="translate(21.1587,73.6309)">
   <g fill-opacity="1" font-weight="normal" fill="#000000" id="silkscreenLabel" font-size="5" font-style="normal" stroke="none" font-family="'OCRA'">
    <text y="3.75" x="0">MiniPuck13</text>
   </g>
  </g>
 </g>
 <g partID="854683962">
  <g transform="translate(2.0456,63.6098)">
   <g transform="matrix(1, 0, 0, 1, 0, -794.551)">
    <g id="copper1">
     <g transform="matrix(0.352778, 0, 0, 0.352778, -8.05732, 795.261)">
      <g>
       <g stroke-width="0" gorn="0.3.0.0.0.0.0.1">
        <g stroke-width="0" id="copper0" gorn="0.3.0.0.0.0.0.1.0">
         <circle cy="14.0617" connectorname="ST" cx="46.9444" stroke-width="4.18961" fill="white" id="connector0pin" gorn="0.3.0.0.0.0.0.1.0.0" r="5.81669" stroke="white"/>
         <circle cy="14.078" connectorname="ZOUT" cx="87.7472" stroke-width="4.18961" fill="white" id="connector1pin" gorn="0.3.0.0.0.0.0.1.0.1" r="5.81669" stroke="white"/>
         <circle cy="14.0842" connectorname="YOUT" cx="169.395" stroke-width="4.18961" fill="white" id="connector2pin" gorn="0.3.0.0.0.0.0.1.0.2" r="5.81669" stroke="white"/>
         <circle cy="116.093" connectorname="XOUT" cx="169.386" stroke-width="4.18961" fill="white" id="connector3pin" gorn="0.3.0.0.0.0.0.1.0.3" r="5.81669" stroke="white"/>
         <circle cy="116.1" connectorname="GND" cx="128.59" stroke-width="4.18961" fill="white" id="connector4pin" gorn="0.3.0.0.0.0.0.1.0.4" r="5.81669" stroke="white"/>
        </g>
       </g>
      </g>
     </g>
    </g>
   </g>
  </g>
 </g>
 <g partID="854690522">
  <g transform="translate(72.4578,57.3851)">
   <g transform="matrix(1, 0, 0, 1, 0, -794.551)">
    <g id="copper1">
     <g transform="matrix(0.352778, 0, 0, 0.352778, -8.05732, 795.261)">
      <g>
       <g stroke-width="0" gorn="0.3.0.0.0.0.0.1">
        <g stroke-width="0" id="copper0" gorn="0.3.0.0.0.0.0.1.0">
         <circle cy="14.0617" connectorname="ST" cx="46.9444" stroke-width="4.18961" fill="white" id="connector0pin" gorn="0.3.0.0.0.0.0.1.0.0" r="5.81669" stroke="white"/>
         <circle cy="14.078" connectorname="ZOUT" cx="87.7472" stroke-width="4.18961" fill="white" id="connector1pin" gorn="0.3.0.0.0.0.0.1.0.1" r="5.81669" stroke="white"/>
         <circle cy="14.0842" connectorname="YOUT" cx="169.395" stroke-width="4.18961" fill="white" id="connector2pin" gorn="0.3.0.0.0.0.0.1.0.2" r="5.81669" stroke="white"/>
         <circle cy="116.093" connectorname="XOUT" cx="169.386" stroke-width="4.18961" fill="white" id="connector3pin" gorn="0.3.0.0.0.0.0.1.0.3" r="5.81669" stroke="white"/>
         <circle cy="116.1" connectorname="GND" cx="128.59" stroke-width="4.18961" fill="white" id="connector4pin" gorn="0.3.0.0.0.0.0.1.0.4" r="5.81669" stroke="white"/>
        </g>
       </g>
      </g>
     </g>
    </g>
   </g>
  </g>
 </g>
 <g partID="854691912">
  <g transform="translate(141.907,57.3851)">
   <g transform="matrix(1, 0, 0, 1, 0, -794.551)">
    <g id="copper1">
     <g transform="matrix(0.352778, 0, 0, 0.352778, -8.05732, 795.261)">
      <g>
       <g stroke-width="0" gorn="0.3.0.0.0.0.0.1">
        <g stroke-width="0" id="copper0" gorn="0.3.0.0.0.0.0.1.0">
         <circle cy="14.0617" connectorname="ST" cx="46.9444" stroke-width="4.18961" fill="white" id="connector0pin" gorn="0.3.0.0.0.0.0.1.0.0" r="5.81669" stroke="white"/>
         <circle cy="14.078" connectorname="ZOUT" cx="87.7472" stroke-width="4.18961" fill="white" id="connector1pin" gorn="0.3.0.0.0.0.0.1.0.1" r="5.81669" stroke="white"/>
         <circle cy="14.0842" connectorname="YOUT" cx="169.395" stroke-width="4.18961" fill="white" id="connector2pin" gorn="0.3.0.0.0.0.0.1.0.2" r="5.81669" stroke="white"/>
         <circle cy="116.093" connectorname="XOUT" cx="169.386" stroke-width="4.18961" fill="white" id="connector3pin" gorn="0.3.0.0.0.0.0.1.0.3" r="5.81669" stroke="white"/>
         <circle cy="116.1" connectorname="GND" cx="128.59" stroke-width="4.18961" fill="white" id="connector4pin" gorn="0.3.0.0.0.0.0.1.0.4" r="5.81669" stroke="white"/>
        </g>
       </g>
      </g>
     </g>
    </g>
   </g>
  </g>
 </g>
 <g partID="854654921">
  <g transform="translate(30.6786,113.623)">
   <g id="copper1">
    <circle cy="3.01732" cx="3.01732" stroke-width="1.57039" fill="white" id="connector0pin" r="0.992124" stroke="white"/>
   </g>
  </g>
 </g>
 <g partID="854655361">
  <g transform="translate(25.4946,127.447)">
   <g id="copper1">
    <circle cy="3.01732" cx="3.01732" stroke-width="1.57039" fill="white" id="connector0pin" r="0.992124" stroke="white"/>
   </g>
  </g>
 </g>
 <g partID="854657001">
  <g transform="translate(56.5986,58.3266)">
   <g id="copper1">
    <circle cy="3.01732" cx="3.01732" stroke-width="1.57039" fill="white" id="connector0pin" r="0.992124" stroke="white"/>
   </g>
  </g>
 </g>
 <g partID="854659041">
  <g transform="translate(101.527,127.447)">
   <g id="copper1">
    <circle cy="3.01732" cx="3.01732" stroke-width="1.57039" fill="white" id="connector0pin" r="0.992124" stroke="white"/>
   </g>
  </g>
 </g>
 <g partID="854659281">
  <g transform="translate(201.751,37.5906)">
   <g id="copper1">
    <circle cy="3.01732" cx="3.01732" stroke-width="1.57039" fill="white" id="connector0pin" r="0.992124" stroke="white"/>
   </g>
  </g>
 </g>
 <g partID="854661881">
  <g transform="translate(44.5274,9.60168)">
   <g id="copper1">
    <circle cy="3.01733" cx="3.01733" stroke-width="1.57039" fill="white" id="connector0pin" r="0.992124" stroke="white"/>
   </g>
  </g>
 </g>
 <g partID="854663371">
  <g transform="translate(57.2866,26.5557)">
   <g id="copper1">
    <circle cy="3.01733" cx="3.01733" stroke-width="1.57039" fill="white" id="connector0pin" r="0.992124" stroke="white"/>
   </g>
  </g>
 </g>
 <g partID="854666171">
  <g transform="translate(160.759,47.8793)">
   <g id="copper1">
    <circle cy="3.01733" cx="3.01733" stroke-width="1.57039" fill="white" id="connector0pin" r="0.992124" stroke="white"/>
   </g>
  </g>
 </g>
 <g partID="854666431">
  <g transform="translate(107.047,43.4743)">
   <g id="copper1">
    <circle cy="3.01733" cx="3.01733" stroke-width="1.57039" fill="white" id="connector0pin" r="0.992124" stroke="white"/>
   </g>
  </g>
 </g>
 <g partID="854667791">
  <g transform="translate(85.7762,117.302)">
   <g id="copper1">
    <circle cy="3.01733" cx="3.01733" stroke-width="1.57039" fill="white" id="connector0pin" r="0.992124" stroke="white"/>
   </g>
  </g>
 </g>
 <g partID="854673341">
  <g transform="translate(145.243,108.772)">
   <g id="copper1">
    <circle cy="3.01733" cx="3.01733" stroke-width="1.57039" fill="white" id="connector0pin" r="0.992124" stroke="white"/>
   </g>
  </g>
 </g>
 <g partID="854677901">
  <g transform="translate(214.759,78.9589)">
   <g id="copper1">
    <circle cy="3.01733" cx="3.01733" stroke-width="1.57039" fill="white" id="connector0pin" r="0.992124" stroke="white"/>
   </g>
  </g>
 </g>
 <g partID="854678141">
  <g transform="translate(214.759,129.981)">
   <g id="copper1">
    <circle cy="3.01733" cx="3.01733" stroke-width="1.57039" fill="white" id="connector0pin" r="0.992124" stroke="white"/>
   </g>
  </g>
 </g>
 <g partID="854678381">
  <g transform="translate(207.612,132.867)">
   <g id="copper1">
    <circle cy="3.01733" cx="3.01733" stroke-width="1.57039" fill="white" id="connector0pin" r="0.992124" stroke="white"/>
   </g>
  </g>
 </g>
 <g partID="854678421">
  <g transform="translate(207.612,96.0717)">
   <g id="copper1">
    <circle cy="3.01733" cx="3.01733" stroke-width="1.57039" fill="white" id="connector0pin" r="0.992124" stroke="white"/>
   </g>
  </g>
 </g>
 <g partID="854679461">
  <g transform="translate(125.404,142.841)">
   <g id="copper1">
    <circle cy="3.01733" cx="3.01733" stroke-width="1.57039" fill="white" id="connector0pin" r="0.992124" stroke="white"/>
   </g>
  </g>
 </g>
 <g partID="854679741">
  <g transform="translate(136.726,43.5437)">
   <g id="copper1">
    <circle cy="3.01733" cx="3.01733" stroke-width="1.57039" fill="white" id="connector0pin" r="0.992124" stroke="white"/>
   </g>
  </g>
 </g>
 <g partID="854679891">
  <g transform="translate(136.726,52.0609)">
   <g id="copper1">
    <circle cy="3.01733" cx="3.01733" stroke-width="1.57039" fill="white" id="connector0pin" r="0.992124" stroke="white"/>
   </g>
  </g>
 </g>
 <g partID="854680701">
  <g transform="translate(65.829,96.0189)">
   <g id="copper1">
    <circle cy="3.01733" cx="3.01733" stroke-width="1.57039" fill="white" id="connector0pin" r="0.992124" stroke="white"/>
   </g>
  </g>
 </g>
 <g partID="854515662">
  <g transform="translate(176.787,112.833)">
   <g transform="matrix(1, 0, 0, 1, 0.377238, -800.114)">
    <g id="copper1">
     <g transform="matrix(1, 0, 0, 1, -0.288, 797.219)">
      <g>
       <g gorn="0.3.0.0.0.0.0.0.0.0.3">
        <circle cy="6.12" connectorname="PWR" cx="13.0439" stroke-width="1.57039" fill="white" id="connector2pad2" gorn="0.3.0.0.0.0.0.0.0.0.3.0" r="2.69291" stroke="white"/>
        <circle cy="22.5609" connectorname="GND" cx="13.0439" stroke-width="1.57039" fill="white" id="connector0pad2" gorn="0.3.0.0.0.0.0.0.0.0.3.1" r="2.69291" stroke="white"/>
        <circle cy="14.6239" connectorname="GNDBREAK" cx="26.6502" stroke-width="1.57039" fill="white" id="connector1pad2" gorn="0.3.0.0.0.0.0.0.0.0.3.2" r="2.69291" stroke="white"/>
       </g>
      </g>
     </g>
    </g>
   </g>
  </g>
 </g>
 <g partID="854511852">
  <g transform="translate(140.66,120.308)">
   <g transform="matrix(1, 0, 0, 1, 0.615231, 1.27105)">
    <g id="copper1">
     <g gorn="0.3.0.0">
      <circle cy="1.70533" connectorname="PWR" cx="6.52411" stroke-width="1.57039" fill="white" id="connector2pad" gorn="0.3.0.0.0" r="2.55118" stroke="white"/>
      <path d="M3.68929,-1.13043A2.83464,2.83465,0,0,0,0.854824,1.70404,2.83464,2.83465,0,0,0,3.68929,4.53997L9.35971,4.53997A2.83464,2.83465,0,0,0,12.1942,1.70404,2.83464,2.83465,0,0,0,9.35971,-1.13043Zm2.85352,0.706054A2.12598,2.12598,0,0,1,8.66828,1.70111,2.12598,2.12598,0,0,1,6.54281,3.8266,2.12598,2.12598,0,0,1,4.41587,1.70111,2.12598,2.12598,0,0,1,6.54281,-0.424381Z" stroke-width="0.72" fill="white" id="connector2extra" gorn="0.3.0.0.1" stroke="white"/>
      <circle cy="15.8982" connectorname="GND@1" cx="6.58983" stroke-width="1.57039" fill="white" id="connector0pad" gorn="0.3.0.0.2" r="2.55118" stroke="white"/>
      <g transform="matrix(0.264583, 0, 0, 0.264583, -0.5625, -1.12932)">
       <g>
        <g>
         <path d="m16.0722,53.5703a10.7136,10.7136,0,0,0,-10.713,10.713,10.7136,10.7136,0,0,0,10.713,10.713l21.4259,0a10.7136,10.7136,0,0,0,10.713,-10.713,10.7136,10.7136,0,0,0,-10.713,-10.713zm10.713,2.70731A8.03522,8.03523,0,0,1,34.8185,64.311,8.03522,8.03523,0,0,1,26.7852,72.3498,8.03522,8.03523,0,0,1,18.7463,64.311,8.03522,8.03523,0,0,1,26.7852,56.2776Z" stroke-width="0.72" fill="white" id="connector0extra" gorn="0.3.0.0.3.0.0" stroke="white"/>
        </g>
       </g>
      </g>
      <circle cy="8.79404" connectorname="GND@2" cx="14.0961" stroke-width="1.57039" fill="white" id="connector1pad" gorn="0.3.0.0.4" r="2.55118" stroke="white"/>
      <g id="copper0" gorn="0.3.0.0.5">
       <path d="m3.68929,-1.13043a2.83464,2.83465,0,0,0,-2.83447,2.83447,2.83464,2.83465,0,0,0,2.83447,2.83595l5.67039,0a2.83464,2.83465,0,0,0,2.83447,-2.83595,2.83464,2.83465,0,0,0,-2.83447,-2.83447zm2.85352,0.706054a2.12598,2.12598,0,0,1,2.12549,2.12549,2.12598,2.12598,0,0,1,-2.12549,2.12549,2.12598,2.12598,0,0,1,-2.12695,-2.12549,2.12598,2.12598,0,0,1,2.12695,-2.12549z" stroke-width="0.72" fill="white" id="path1831" gorn="0.3.0.0.5.0" stroke="white"/>
       <path d="m3.68929,-1.13043a2.83464,2.83465,0,0,0,-2.83447,2.83447,2.83464,2.83465,0,0,0,2.83447,2.83595l5.67042,0a2.83464,2.83465,0,0,0,2.83447,-2.83595,2.83464,2.83465,0,0,0,-2.83447,-2.83447zm2.85352,0.706054a2.12598,2.12598,0,0,1,2.12549,2.12549,2.12598,2.12598,0,0,1,-2.12549,2.12549,2.12598,2.12598,0,0,1,-2.12695,-2.12549,2.12598,2.12598,0,0,1,2.12695,-2.12549z" stroke-width="0.72" fill="white" id="connector2extra2" gorn="0.3.0.0.5.1" stroke="white"/>
       <circle cy="1.70533" connectorname="PWR" cx="6.52411" stroke-width="1.57039" fill="white" id="connector2pad2" gorn="0.3.0.0.5.2" r="2.55118" stroke="white"/>
       <circle cy="15.8786" connectorname="GND@1" cx="6.52411" stroke-width="1.57039" fill="white" id="connector0pad2" gorn="0.3.0.0.5.3" r="2.55118" stroke="white"/>
       <g transform="matrix(0.264583, 0, 0, 0.264583, -0.5625, -1.12932)">
        <g>
         <g>
          <path d="m16.0722,53.5703a10.7136,10.7136,0,0,0,-10.713,10.713,10.7136,10.7136,0,0,0,10.713,10.713l21.4259,0a10.7136,10.7136,0,0,0,10.713,-10.713,10.7136,10.7136,0,0,0,-10.713,-10.713zm10.713,2.67409a8.03522,8.03523,0,0,1,8.03332,8.03889,8.03522,8.03523,0,0,1,-8.03332,8.03336,8.03522,8.03523,0,0,1,-8.03888,-8.03336,8.03522,8.03523,0,0,1,8.03888,-8.03889z" stroke-width="0.72" fill="white" id="connector0extra2" gorn="0.3.0.0.5.4.0.0" stroke="white"/>
         </g>
        </g>
       </g>
       <circle cy="8.79404" connectorname="GND@2" cx="14.0961" stroke-width="1.57039" fill="white" id="connector1pad2" gorn="0.3.0.0.5.5" r="2.55118" stroke="white"/>
      </g>
     </g>
    </g>
   </g>
  </g>
 </g>
 <g partID="854511842">
  <g transform="translate(102.393,120.308)">
   <g transform="matrix(1, 0, 0, 1, 0.615231, 1.27105)">
    <g id="copper1">
     <g gorn="0.3.0.0">
      <circle cy="1.70533" connectorname="PWR" cx="6.52411" stroke-width="1.57039" fill="white" id="connector2pad" gorn="0.3.0.0.0" r="2.55118" stroke="white"/>
      <path d="M3.68929,-1.13043A2.83464,2.83465,0,0,0,0.854824,1.70404,2.83464,2.83465,0,0,0,3.68929,4.53997L9.35971,4.53997A2.83464,2.83465,0,0,0,12.1942,1.70404,2.83464,2.83465,0,0,0,9.35971,-1.13043Zm2.85352,0.706054A2.12598,2.12598,0,0,1,8.66828,1.70111,2.12598,2.12598,0,0,1,6.54281,3.8266,2.12598,2.12598,0,0,1,4.41587,1.70111,2.12598,2.12598,0,0,1,6.54281,-0.424381Z" stroke-width="0.72" fill="white" id="connector2extra" gorn="0.3.0.0.1" stroke="white"/>
      <circle cy="15.8982" connectorname="GND@1" cx="6.58983" stroke-width="1.57039" fill="white" id="connector0pad" gorn="0.3.0.0.2" r="2.55118" stroke="white"/>
      <g transform="matrix(0.264583, 0, 0, 0.264583, -0.5625, -1.12932)">
       <g>
        <g>
         <path d="m16.0722,53.5703a10.7136,10.7136,0,0,0,-10.713,10.713,10.7136,10.7136,0,0,0,10.713,10.713l21.4259,0a10.7136,10.7136,0,0,0,10.713,-10.713,10.7136,10.7136,0,0,0,-10.713,-10.713zm10.713,2.70731A8.03522,8.03523,0,0,1,34.8185,64.311,8.03522,8.03523,0,0,1,26.7852,72.3498,8.03522,8.03523,0,0,1,18.7463,64.311,8.03522,8.03523,0,0,1,26.7852,56.2776Z" stroke-width="0.72" fill="white" id="connector0extra" gorn="0.3.0.0.3.0.0" stroke="white"/>
        </g>
       </g>
      </g>
      <circle cy="8.79404" connectorname="GND@2" cx="14.0961" stroke-width="1.57039" fill="white" id="connector1pad" gorn="0.3.0.0.4" r="2.55118" stroke="white"/>
      <g id="copper0" gorn="0.3.0.0.5">
       <path d="m3.68929,-1.13043a2.83464,2.83465,0,0,0,-2.83447,2.83447,2.83464,2.83465,0,0,0,2.83447,2.83595l5.67039,0a2.83464,2.83465,0,0,0,2.83447,-2.83595,2.83464,2.83465,0,0,0,-2.83447,-2.83447zm2.85352,0.706054a2.12598,2.12598,0,0,1,2.12549,2.12549,2.12598,2.12598,0,0,1,-2.12549,2.12549,2.12598,2.12598,0,0,1,-2.12695,-2.12549,2.12598,2.12598,0,0,1,2.12695,-2.12549z" stroke-width="0.72" fill="white" id="path1831" gorn="0.3.0.0.5.0" stroke="white"/>
       <path d="m3.68929,-1.13043a2.83464,2.83465,0,0,0,-2.83447,2.83447,2.83464,2.83465,0,0,0,2.83447,2.83595l5.67042,0a2.83464,2.83465,0,0,0,2.83447,-2.83595,2.83464,2.83465,0,0,0,-2.83447,-2.83447zm2.85352,0.706054a2.12598,2.12598,0,0,1,2.12549,2.12549,2.12598,2.12598,0,0,1,-2.12549,2.12549,2.12598,2.12598,0,0,1,-2.12695,-2.12549,2.12598,2.12598,0,0,1,2.12695,-2.12549z" stroke-width="0.72" fill="white" id="connector2extra2" gorn="0.3.0.0.5.1" stroke="white"/>
       <circle cy="1.70533" connectorname="PWR" cx="6.52411" stroke-width="1.57039" fill="white" id="connector2pad2" gorn="0.3.0.0.5.2" r="2.55118" stroke="white"/>
       <circle cy="15.8786" connectorname="GND@1" cx="6.52411" stroke-width="1.57039" fill="white" id="connector0pad2" gorn="0.3.0.0.5.3" r="2.55118" stroke="white"/>
       <g transform="matrix(0.264583, 0, 0, 0.264583, -0.5625, -1.12932)">
        <g>
         <g>
          <path d="m16.0722,53.5703a10.7136,10.7136,0,0,0,-10.713,10.713,10.7136,10.7136,0,0,0,10.713,10.713l21.4259,0a10.7136,10.7136,0,0,0,10.713,-10.713,10.7136,10.7136,0,0,0,-10.713,-10.713zm10.713,2.67409a8.03522,8.03523,0,0,1,8.03332,8.03889,8.03522,8.03523,0,0,1,-8.03332,8.03336,8.03522,8.03523,0,0,1,-8.03888,-8.03336,8.03522,8.03523,0,0,1,8.03888,-8.03889z" stroke-width="0.72" fill="white" id="connector0extra2" gorn="0.3.0.0.5.4.0.0" stroke="white"/>
         </g>
        </g>
       </g>
       <circle cy="8.79404" connectorname="GND@2" cx="14.0961" stroke-width="1.57039" fill="white" id="connector1pad2" gorn="0.3.0.0.5.5" r="2.55118" stroke="white"/>
      </g>
     </g>
    </g>
   </g>
  </g>
 </g>
 <g partID="854511832">
  <g transform="translate(64.125,120.308)">
   <g transform="matrix(1, 0, 0, 1, 0.615231, 1.27105)">
    <g id="copper1">
     <g gorn="0.3.0.0">
      <circle cy="1.70533" connectorname="PWR" cx="6.52411" stroke-width="1.57039" fill="white" id="connector2pad" gorn="0.3.0.0.0" r="2.55118" stroke="white"/>
      <path d="M3.68929,-1.13043A2.83464,2.83465,0,0,0,0.854824,1.70404,2.83464,2.83465,0,0,0,3.68929,4.53997L9.35971,4.53997A2.83464,2.83465,0,0,0,12.1942,1.70404,2.83464,2.83465,0,0,0,9.35971,-1.13043Zm2.85352,0.706054A2.12598,2.12598,0,0,1,8.66828,1.70111,2.12598,2.12598,0,0,1,6.54281,3.8266,2.12598,2.12598,0,0,1,4.41587,1.70111,2.12598,2.12598,0,0,1,6.54281,-0.424381Z" stroke-width="0.72" fill="white" id="connector2extra" gorn="0.3.0.0.1" stroke="white"/>
      <circle cy="15.8982" connectorname="GND@1" cx="6.58983" stroke-width="1.57039" fill="white" id="connector0pad" gorn="0.3.0.0.2" r="2.55118" stroke="white"/>
      <g transform="matrix(0.264583, 0, 0, 0.264583, -0.5625, -1.12932)">
       <g>
        <g>
         <path d="m16.0722,53.5703a10.7136,10.7136,0,0,0,-10.713,10.713,10.7136,10.7136,0,0,0,10.713,10.713l21.4259,0a10.7136,10.7136,0,0,0,10.713,-10.713,10.7136,10.7136,0,0,0,-10.713,-10.713zm10.713,2.70731A8.03522,8.03523,0,0,1,34.8185,64.311,8.03522,8.03523,0,0,1,26.7852,72.3498,8.03522,8.03523,0,0,1,18.7463,64.311,8.03522,8.03523,0,0,1,26.7852,56.2776Z" stroke-width="0.72" fill="white" id="connector0extra" gorn="0.3.0.0.3.0.0" stroke="white"/>
        </g>
       </g>
      </g>
      <circle cy="8.79404" connectorname="GND@2" cx="14.0961" stroke-width="1.57039" fill="white" id="connector1pad" gorn="0.3.0.0.4" r="2.55118" stroke="white"/>
      <g id="copper0" gorn="0.3.0.0.5">
       <path d="m3.68929,-1.13043a2.83464,2.83465,0,0,0,-2.83447,2.83447,2.83464,2.83465,0,0,0,2.83447,2.83595l5.67039,0a2.83464,2.83465,0,0,0,2.83447,-2.83595,2.83464,2.83465,0,0,0,-2.83447,-2.83447zm2.85352,0.706054a2.12598,2.12598,0,0,1,2.12549,2.12549,2.12598,2.12598,0,0,1,-2.12549,2.12549,2.12598,2.12598,0,0,1,-2.12695,-2.12549,2.12598,2.12598,0,0,1,2.12695,-2.12549z" stroke-width="0.72" fill="white" id="path1831" gorn="0.3.0.0.5.0" stroke="white"/>
       <path d="m3.68929,-1.13043a2.83464,2.83465,0,0,0,-2.83447,2.83447,2.83464,2.83465,0,0,0,2.83447,2.83595l5.67042,0a2.83464,2.83465,0,0,0,2.83447,-2.83595,2.83464,2.83465,0,0,0,-2.83447,-2.83447zm2.85352,0.706054a2.12598,2.12598,0,0,1,2.12549,2.12549,2.12598,2.12598,0,0,1,-2.12549,2.12549,2.12598,2.12598,0,0,1,-2.12695,-2.12549,2.12598,2.12598,0,0,1,2.12695,-2.12549z" stroke-width="0.72" fill="white" id="connector2extra2" gorn="0.3.0.0.5.1" stroke="white"/>
       <circle cy="1.70533" connectorname="PWR" cx="6.52411" stroke-width="1.57039" fill="white" id="connector2pad2" gorn="0.3.0.0.5.2" r="2.55118" stroke="white"/>
       <circle cy="15.8786" connectorname="GND@1" cx="6.52411" stroke-width="1.57039" fill="white" id="connector0pad2" gorn="0.3.0.0.5.3" r="2.55118" stroke="white"/>
       <g transform="matrix(0.264583, 0, 0, 0.264583, -0.5625, -1.12932)">
        <g>
         <g>
          <path d="m16.0722,53.5703a10.7136,10.7136,0,0,0,-10.713,10.713,10.7136,10.7136,0,0,0,10.713,10.713l21.4259,0a10.7136,10.7136,0,0,0,10.713,-10.713,10.7136,10.7136,0,0,0,-10.713,-10.713zm10.713,2.67409a8.03522,8.03523,0,0,1,8.03332,8.03889,8.03522,8.03523,0,0,1,-8.03332,8.03336,8.03522,8.03523,0,0,1,-8.03888,-8.03336,8.03522,8.03523,0,0,1,8.03888,-8.03889z" stroke-width="0.72" fill="white" id="connector0extra2" gorn="0.3.0.0.5.4.0.0" stroke="white"/>
         </g>
        </g>
       </g>
       <circle cy="8.79404" connectorname="GND@2" cx="14.0961" stroke-width="1.57039" fill="white" id="connector1pad2" gorn="0.3.0.0.5.5" r="2.55118" stroke="white"/>
      </g>
     </g>
    </g>
   </g>
  </g>
 </g>
 <g partID="854511862">
  <g transform="translate(25.8575,120.308)">
   <g transform="matrix(1, 0, 0, 1, 0.615231, 1.27105)">
    <g id="copper1">
     <g gorn="0.3.0.0">
      <circle cy="1.70533" connectorname="PWR" cx="6.52411" stroke-width="1.57039" fill="white" id="connector2pad" gorn="0.3.0.0.0" r="2.55118" stroke="white"/>
      <path d="M3.68929,-1.13043A2.83464,2.83465,0,0,0,0.854824,1.70404,2.83464,2.83465,0,0,0,3.68929,4.53997L9.35971,4.53997A2.83464,2.83465,0,0,0,12.1942,1.70404,2.83464,2.83465,0,0,0,9.35971,-1.13043Zm2.85352,0.706054A2.12598,2.12598,0,0,1,8.66828,1.70111,2.12598,2.12598,0,0,1,6.54281,3.8266,2.12598,2.12598,0,0,1,4.41587,1.70111,2.12598,2.12598,0,0,1,6.54281,-0.424381Z" stroke-width="0.72" fill="white" id="connector2extra" gorn="0.3.0.0.1" stroke="white"/>
      <circle cy="15.8982" connectorname="GND@1" cx="6.58983" stroke-width="1.57039" fill="white" id="connector0pad" gorn="0.3.0.0.2" r="2.55118" stroke="white"/>
      <g transform="matrix(0.264583, 0, 0, 0.264583, -0.5625, -1.12932)">
       <g>
        <g>
         <path d="m16.0722,53.5703a10.7136,10.7136,0,0,0,-10.713,10.713,10.7136,10.7136,0,0,0,10.713,10.713l21.4259,0a10.7136,10.7136,0,0,0,10.713,-10.713,10.7136,10.7136,0,0,0,-10.713,-10.713zm10.713,2.70731A8.03522,8.03523,0,0,1,34.8185,64.311,8.03522,8.03523,0,0,1,26.7852,72.3498,8.03522,8.03523,0,0,1,18.7463,64.311,8.03522,8.03523,0,0,1,26.7852,56.2776Z" stroke-width="0.72" fill="white" id="connector0extra" gorn="0.3.0.0.3.0.0" stroke="white"/>
        </g>
       </g>
      </g>
      <circle cy="8.79404" connectorname="GND@2" cx="14.0961" stroke-width="1.57039" fill="white" id="connector1pad" gorn="0.3.0.0.4" r="2.55118" stroke="white"/>
      <g id="copper0" gorn="0.3.0.0.5">
       <path d="m3.68929,-1.13043a2.83464,2.83465,0,0,0,-2.83447,2.83447,2.83464,2.83465,0,0,0,2.83447,2.83595l5.67039,0a2.83464,2.83465,0,0,0,2.83447,-2.83595,2.83464,2.83465,0,0,0,-2.83447,-2.83447zm2.85352,0.706054a2.12598,2.12598,0,0,1,2.12549,2.12549,2.12598,2.12598,0,0,1,-2.12549,2.12549,2.12598,2.12598,0,0,1,-2.12695,-2.12549,2.12598,2.12598,0,0,1,2.12695,-2.12549z" stroke-width="0.72" fill="white" id="path1831" gorn="0.3.0.0.5.0" stroke="white"/>
       <path d="m3.68929,-1.13043a2.83464,2.83465,0,0,0,-2.83447,2.83447,2.83464,2.83465,0,0,0,2.83447,2.83595l5.67042,0a2.83464,2.83465,0,0,0,2.83447,-2.83595,2.83464,2.83465,0,0,0,-2.83447,-2.83447zm2.85352,0.706054a2.12598,2.12598,0,0,1,2.12549,2.12549,2.12598,2.12598,0,0,1,-2.12549,2.12549,2.12598,2.12598,0,0,1,-2.12695,-2.12549,2.12598,2.12598,0,0,1,2.12695,-2.12549z" stroke-width="0.72" fill="white" id="connector2extra2" gorn="0.3.0.0.5.1" stroke="white"/>
       <circle cy="1.70533" connectorname="PWR" cx="6.52411" stroke-width="1.57039" fill="white" id="connector2pad2" gorn="0.3.0.0.5.2" r="2.55118" stroke="white"/>
       <circle cy="15.8786" connectorname="GND@1" cx="6.52411" stroke-width="1.57039" fill="white" id="connector0pad2" gorn="0.3.0.0.5.3" r="2.55118" stroke="white"/>
       <g transform="matrix(0.264583, 0, 0, 0.264583, -0.5625, -1.12932)">
        <g>
         <g>
          <path d="m16.0722,53.5703a10.7136,10.7136,0,0,0,-10.713,10.713,10.7136,10.7136,0,0,0,10.713,10.713l21.4259,0a10.7136,10.7136,0,0,0,10.713,-10.713,10.7136,10.7136,0,0,0,-10.713,-10.713zm10.713,2.67409a8.03522,8.03523,0,0,1,8.03332,8.03889,8.03522,8.03523,0,0,1,-8.03332,8.03336,8.03522,8.03523,0,0,1,-8.03888,-8.03336,8.03522,8.03523,0,0,1,8.03888,-8.03889z" stroke-width="0.72" fill="white" id="connector0extra2" gorn="0.3.0.0.5.4.0.0" stroke="white"/>
         </g>
        </g>
       </g>
       <circle cy="8.79404" connectorname="GND@2" cx="14.0961" stroke-width="1.57039" fill="white" id="connector1pad2" gorn="0.3.0.0.5.5" r="2.55118" stroke="white"/>
      </g>
     </g>
    </g>
   </g>
  </g>
 </g>
 <g partID="854422621">
  <g transform="translate(1.37504,1.7808)">
   <g id="copper1">
    <circle cy="7.97796" cx="7.97796" stroke-width="3.55465" fill="white" id="nonconn0" r="4.96063" stroke="white"/>
   </g>
  </g>
 </g>
 <g partID="854422601">
  <g transform="translate(1.37504,139.261)">
   <g id="copper1">
    <circle cy="7.97796" cx="7.97796" stroke-width="3.55465" fill="white" id="nonconn0" r="4.96063" stroke="white"/>
   </g>
  </g>
 </g>
 <g partID="854422361">
  <g transform="translate(209.722,139.261)">
   <g id="copper1">
    <circle cy="7.97796" cx="7.97796" stroke-width="3.55465" fill="white" id="nonconn0" r="4.96063" stroke="white"/>
   </g>
  </g>
 </g>
 <g partID="854422071">
  <g transform="translate(209.722,1.7808)">
   <g id="copper1">
    <circle cy="7.97796" cx="7.97796" stroke-width="3.55465" fill="white" id="nonconn0" r="4.96063" stroke="white"/>
   </g>
  </g>
 </g>
 <g partID="854384892">
  <g transform="translate(154.975,26.5398)">
   <g id="copper1">
    <g id="copper0">
     <rect y="12.168" width="4.464" stroke-width="2.16" fill="white" height="4.464" x="6.408" stroke="white"/>
     <circle cy="14.4" cx="8.64" stroke-width="2.16" fill="white" id="connector0pad" r="2.232" stroke="white"/>
     <circle cy="14.4" cx="15.84" stroke-width="2.16" fill="white" id="connector1pad" r="2.232" stroke="white"/>
     <circle cy="14.4" cx="23.04" stroke-width="2.16" fill="white" id="connector2pad" r="2.232" stroke="white"/>
    </g>
   </g>
  </g>
 </g>
 <g partID="854133742">
  <g transform="translate(105.866,36.4265)">
   <g id="copper1">
    <!-- <rect width="55" x="10" y="15.5" fill="none" height="55" stroke="rgb(255, 191, 0)" stroke-width="20" />  -->
    <circle cy="3.096" cx="2.7" stroke-width="2.16" fill="white" id="connector0pin" r="1.98" stroke="white"/>
    <circle cy="3.096" cx="31.5" stroke-width="2.16" fill="white" id="connector1pin" r="1.98" stroke="white"/>
   </g>
  </g>
 </g>
 <g partID="198051">
  <g transform="translate(195.523,21.088)">
   <g transform="matrix(-1,0,0,-1,0,0)">
    <g transform="matrix(1, 0, 0, 1, -21.472, -3.00704)">
     <g id="copper1">
      <g gorn="0.3.0.0">
       <circle cy="12.919" cx="24.185" stroke-width="1.97" fill="white" id="connector0pin" gorn="0.3.0.0.0" r="2.088" stroke="white"/>
       <circle cy="12.919" cx="31.384" stroke-width="1.97" fill="white" id="connector1pin" gorn="0.3.0.0.1" r="2.088" stroke="white"/>
       <circle cy="12.919" cx="38.585" stroke-width="1.97" fill="white" id="connector2pin" gorn="0.3.0.0.2" r="2.088" stroke="white"/>
       <circle cy="12.919" cx="45.784" stroke-width="1.97" fill="white" id="connector3pin" gorn="0.3.0.0.3" r="2.088" stroke="white"/>
       <circle cy="12.919" cx="52.9849" stroke-width="1.97" fill="white" id="connector4pin" gorn="0.3.0.0.4" r="2.088" stroke="white"/>
       <circle cy="12.919" cx="60.1849" stroke-width="1.97" fill="white" id="connector5pin" gorn="0.3.0.0.5" r="2.088" stroke="white"/>
       <circle cy="12.919" cx="67.3839" stroke-width="1.97" fill="white" id="connector6pin" gorn="0.3.0.0.6" r="2.088" stroke="white"/>
       <circle cy="12.919" cx="74.5849" stroke-width="1.97" fill="white" id="connector7pin" gorn="0.3.0.0.7" r="2.088" stroke="white"/>
       <circle cy="12.919" cx="81.7839" stroke-width="1.97" fill="white" id="connector8pin" gorn="0.3.0.0.8" r="2.088" stroke="white"/>
       <circle cy="12.919" cx="88.9849" stroke-width="1.97" fill="white" id="connector9pin" gorn="0.3.0.0.9" r="2.088" stroke="white"/>
       <circle cy="12.919" cx="96.1849" stroke-width="1.97" fill="white" id="connector10pin" gorn="0.3.0.0.10" r="2.088" stroke="white"/>
       <circle cy="12.919" cx="103.385" stroke-width="1.97" fill="white" id="connector11pin" gorn="0.3.0.0.11" r="2.088" stroke="white"/>
       <circle cy="12.919" cx="110.585" stroke-width="1.97" fill="white" id="connector12pin" gorn="0.3.0.0.12" r="2.088" stroke="white"/>
       <circle cy="12.919" cx="117.784" stroke-width="1.97" fill="white" id="connector13pin" gorn="0.3.0.0.13" r="2.088" stroke="white"/>
       <circle cy="12.919" cx="124.986" stroke-width="1.97" fill="white" id="connector14pin" gorn="0.3.0.0.14" r="2.088" stroke="white"/>
       <circle cy="12.919" cx="132.185" stroke-width="1.97" fill="white" id="connector15pin" gorn="0.3.0.0.15" r="2.088" stroke="white"/>
       <circle cy="12.919" cx="139.385" stroke-width="1.97" fill="white" id="connector16pin" gorn="0.3.0.0.16" r="2.088" stroke="white"/>
       <circle cy="12.919" cx="146.585" stroke-width="1.97" fill="white" id="connector17pin" gorn="0.3.0.0.17" r="2.088" stroke="white"/>
       <circle cy="12.919" cx="153.784" stroke-width="1.97" fill="white" id="connector18pin" gorn="0.3.0.0.18" r="2.088" stroke="white"/>
       <circle cy="12.919" cx="160.986" stroke-width="1.97" fill="white" id="connector19pin" gorn="0.3.0.0.19" r="2.088" stroke="white"/>
       <circle cy="5.72001" cx="160.986" stroke-width="1.97" fill="white" id="connector20pin" gorn="0.3.0.0.20" r="2.088" stroke="white"/>
       <circle cy="5.72001" cx="153.784" stroke-width="1.97" fill="white" id="connector21pin" gorn="0.3.0.0.21" r="2.088" stroke="white"/>
       <circle cy="5.72001" cx="146.585" stroke-width="1.97" fill="white" id="connector22pin" gorn="0.3.0.0.22" r="2.088" stroke="white"/>
       <circle cy="5.72001" cx="139.385" stroke-width="1.97" fill="white" id="connector23pin" gorn="0.3.0.0.23" r="2.088" stroke="white"/>
       <circle cy="5.72001" cx="132.185" stroke-width="1.97" fill="white" id="connector24pin" gorn="0.3.0.0.24" r="2.088" stroke="white"/>
       <circle cy="5.72001" cx="124.986" stroke-width="1.97" fill="white" id="connector25pin" gorn="0.3.0.0.25" r="2.088" stroke="white"/>
       <circle cy="5.72001" cx="117.784" stroke-width="1.97" fill="white" id="connector26pin" gorn="0.3.0.0.26" r="2.088" stroke="white"/>
       <circle cy="5.72001" cx="110.585" stroke-width="1.97" fill="white" id="connector27pin" gorn="0.3.0.0.27" r="2.088" stroke="white"/>
       <circle cy="5.72001" cx="103.385" stroke-width="1.97" fill="white" id="connector28pin" gorn="0.3.0.0.28" r="2.088" stroke="white"/>
       <circle cy="5.72001" cx="96.1849" stroke-width="1.97" fill="white" id="connector29pin" gorn="0.3.0.0.29" r="2.088" stroke="white"/>
       <circle cy="5.72001" cx="88.9849" stroke-width="1.97" fill="white" id="connector30pin" gorn="0.3.0.0.30" r="2.088" stroke="white"/>
       <circle cy="5.72001" cx="81.7839" stroke-width="1.97" fill="white" id="connector31pin" gorn="0.3.0.0.31" r="2.088" stroke="white"/>
       <circle cy="5.72001" cx="74.5849" stroke-width="1.97" fill="white" id="connector32pin" gorn="0.3.0.0.32" r="2.088" stroke="white"/>
       <circle cy="5.72001" cx="67.3839" stroke-width="1.97" fill="white" id="connector33pin" gorn="0.3.0.0.33" r="2.088" stroke="white"/>
       <circle cy="5.72001" cx="60.1849" stroke-width="1.97" fill="white" id="connector34pin" gorn="0.3.0.0.34" r="2.088" stroke="white"/>
       <circle cy="5.72001" cx="52.9849" stroke-width="1.97" fill="white" id="connector35pin" gorn="0.3.0.0.35" r="2.088" stroke="white"/>
       <circle cy="5.72001" cx="45.784" stroke-width="1.97" fill="white" id="connector36pin" gorn="0.3.0.0.36" r="2.088" stroke="white"/>
       <circle cy="5.72001" cx="38.585" stroke-width="1.97" fill="white" id="connector37pin" gorn="0.3.0.0.37" r="2.088" stroke="white"/>
       <circle cy="5.72001" cx="31.384" stroke-width="1.97" fill="white" id="connector38pin" gorn="0.3.0.0.38" r="2.088" stroke="white"/>
       <circle cy="5.72001" cx="24.185" stroke-width="1.97" fill="white" id="connector39pin" gorn="0.3.0.0.39" r="2.088" stroke="white"/>
      </g>
     </g>
    </g>
   </g>
  </g>
 </g>
 <g partID="337482">
  <g transform="translate(208.407,21.4998)">
   <g id="copper1">
    <g id="copper0">
     <circle cy="5.04" cx="5.04" stroke-width="2.16" fill="white" id="connector0pin" r="2.088" stroke="white"/>
     <circle cy="12.24" cx="5.04" stroke-width="2.16" fill="white" id="connector1pin" r="2.088" stroke="white"/>
     <circle cy="19.44" cx="5.04" stroke-width="2.16" fill="white" id="connector2pin" r="2.088" stroke="white"/>
     <circle cy="26.64" cx="5.04" stroke-width="2.16" fill="white" id="connector3pin" r="2.088" stroke="white"/>
     <circle cy="33.84" cx="5.04" stroke-width="2.16" fill="white" id="connector4pin" r="2.088" stroke="white"/>
    </g>
   </g>
  </g>
 </g>
</svg>
