<?xml version='1.0' encoding='UTF-8' standalone='no'?>
<!-- Created with Fritzing (http://www.fritzing.org/) -->
<svg xmlns="http://www.w3.org/2000/svg"  y="0in" width="3.14961in" height="2.16535in" viewBox="0 0 226.772 155.906" baseProfile="tiny" xmlns:svg="http://www.w3.org/2000/svg" version="1.2" x="0in">
 <g partID="196230">
  <g  id="board">
   <rect  y="0.288" fill-opacity="0.5" width="226.196" stroke-width="0.5" fill="none" id="boardoutline" height="155.33" x="0.288" stroke="black"/>
  </g>
 </g>
 <g partID="854544811">
  <g transform="translate(55.961,52.0103)">
   <g  id="copper1">
    <circle  cy="3.01733" cx="3.01733" stroke-width="0.850392" fill="none" id="connector0pin" r="0.992124" stroke="black"/>
   </g>
  </g>
 </g>
 <g partID="854545391">
  <g transform="translate(44.5834,6.67368)">
   <g  id="copper1">
    <circle  cy="3.01733" cx="3.01733" stroke-width="0.850392" fill="none" id="connector0pin" r="0.992124" stroke="black"/>
   </g>
  </g>
 </g>
 <g partID="854536971">
  <g transform="translate(186.374,103.142)">
   <g  id="copper1">
    <circle  cy="3.01733" cx="3.01733" stroke-width="0.850392" fill="none" id="connector0pin" r="0.992124" stroke="black"/>
   </g>
  </g>
 </g>
 <g partID="854515662">
  <g transform="translate(176.787,112.833)">
   <g transform="matrix(1, 0, 0, 1, 0.377238, -800.114)">
    <g id="copper1">
     <g transform="matrix(1, 0, 0, 1, -0.288, 797.219)">
      <g>
       <g gorn="0.3.0.0.0.0.0.0.0.0.3">
        <circle cy="6.12" connectorname="PWR" cx="13.0439" stroke-width="0.850394" fill="none" id="connector2pad2" gorn="0.3.0.0.0.0.0.0.0.0.3.0" r="2.69291" stroke="black"/>
        <circle cy="22.5609" connectorname="GND" cx="13.0439" stroke-width="0.850394" fill="none" id="connector0pad2" gorn="0.3.0.0.0.0.0.0.0.0.3.1" r="2.69291" stroke="black"/>
        <circle cy="14.6239" connectorname="GNDBREAK" cx="26.6502" stroke-width="0.850394" fill="none" id="connector1pad2" gorn="0.3.0.0.0.0.0.0.0.0.3.2" r="2.69291" stroke="black"/>
       </g>
      </g>
     </g>
    </g>
   </g>
  </g>
 </g>
 <g partID="854512851">
  <g transform="translate(161.444,136.445)">
   <g  id="copper1">
    <circle  cy="3.01733" cx="3.01733" stroke-width="0.850392" fill="none" id="connector0pin" r="0.992124" stroke="black"/>
   </g>
  </g>
 </g>
 <g partID="854511852">
  <g transform="translate(140.66,120.308)">
   <g transform="matrix(1, 0, 0, 1, 0.615231, 1.27105)">
    <g id="copper1">
     <g gorn="0.3.0.0">
      <circle cy="1.70533" connectorname="PWR" cx="6.52411" stroke-width="0.850393" fill="none" id="connector2pad" gorn="0.3.0.0.0" r="2.55118" stroke="black"/>
      <path d="M3.68929,-1.13043A2.83464,2.83465,0,0,0,0.854824,1.70404,2.83464,2.83465,0,0,0,3.68929,4.53997L9.35971,4.53997A2.83464,2.83465,0,0,0,12.1942,1.70404,2.83464,2.83465,0,0,0,9.35971,-1.13043Zm2.85352,0.706054A2.12598,2.12598,0,0,1,8.66828,1.70111,2.12598,2.12598,0,0,1,6.54281,3.8266,2.12598,2.12598,0,0,1,4.41587,1.70111,2.12598,2.12598,0,0,1,6.54281,-0.424381Z" stroke-width="0" fill="black" id="connector2extra" gorn="0.3.0.0.1" stroke="none"/>
      <circle cy="15.8982" connectorname="GND@1" cx="6.58983" stroke-width="0.850393" fill="none" id="connector0pad" gorn="0.3.0.0.2" r="2.55118" stroke="black"/>
      <g transform="matrix(0.264583, 0, 0, 0.264583, -0.5625, -1.12932)">
       <g>
        <g>
         <path d="m16.0722,53.5703a10.7136,10.7136,0,0,0,-10.713,10.713,10.7136,10.7136,0,0,0,10.713,10.713l21.4259,0a10.7136,10.7136,0,0,0,10.713,-10.713,10.7136,10.7136,0,0,0,-10.713,-10.713zm10.713,2.70731A8.03522,8.03523,0,0,1,34.8185,64.311,8.03522,8.03523,0,0,1,26.7852,72.3498,8.03522,8.03523,0,0,1,18.7463,64.311,8.03522,8.03523,0,0,1,26.7852,56.2776Z" stroke-width="0" fill="black" id="connector0extra" gorn="0.3.0.0.3.0.0" stroke="none"/>
        </g>
       </g>
      </g>
      <circle cy="8.79404" connectorname="GND@2" cx="14.0961" stroke-width="0.850393" fill="none" id="connector1pad" gorn="0.3.0.0.4" r="2.55118" stroke="black"/>
      <g id="copper0" gorn="0.3.0.0.5">
       <path d="m3.68929,-1.13043a2.83464,2.83465,0,0,0,-2.83447,2.83447,2.83464,2.83465,0,0,0,2.83447,2.83595l5.67039,0a2.83464,2.83465,0,0,0,2.83447,-2.83595,2.83464,2.83465,0,0,0,-2.83447,-2.83447zm2.85352,0.706054a2.12598,2.12598,0,0,1,2.12549,2.12549,2.12598,2.12598,0,0,1,-2.12549,2.12549,2.12598,2.12598,0,0,1,-2.12695,-2.12549,2.12598,2.12598,0,0,1,2.12695,-2.12549z" stroke-width="0" fill="black" id="path1831" gorn="0.3.0.0.5.0" stroke="none"/>
       <path d="m3.68929,-1.13043a2.83464,2.83465,0,0,0,-2.83447,2.83447,2.83464,2.83465,0,0,0,2.83447,2.83595l5.67042,0a2.83464,2.83465,0,0,0,2.83447,-2.83595,2.83464,2.83465,0,0,0,-2.83447,-2.83447zm2.85352,0.706054a2.12598,2.12598,0,0,1,2.12549,2.12549,2.12598,2.12598,0,0,1,-2.12549,2.12549,2.12598,2.12598,0,0,1,-2.12695,-2.12549,2.12598,2.12598,0,0,1,2.12695,-2.12549z" stroke-width="0" fill="black" id="connector2extra2" gorn="0.3.0.0.5.1" stroke="none"/>
       <circle cy="1.70533" connectorname="PWR" cx="6.52411" stroke-width="0.850393" fill="none" id="connector2pad2" gorn="0.3.0.0.5.2" r="2.55118" stroke="black"/>
       <circle cy="15.8786" connectorname="GND@1" cx="6.52411" stroke-width="0.850393" fill="none" id="connector0pad2" gorn="0.3.0.0.5.3" r="2.55118" stroke="black"/>
       <g transform="matrix(0.264583, 0, 0, 0.264583, -0.5625, -1.12932)">
        <g>
         <g>
          <path d="m16.0722,53.5703a10.7136,10.7136,0,0,0,-10.713,10.713,10.7136,10.7136,0,0,0,10.713,10.713l21.4259,0a10.7136,10.7136,0,0,0,10.713,-10.713,10.7136,10.7136,0,0,0,-10.713,-10.713zm10.713,2.67409a8.03522,8.03523,0,0,1,8.03332,8.03889,8.03522,8.03523,0,0,1,-8.03332,8.03336,8.03522,8.03523,0,0,1,-8.03888,-8.03336,8.03522,8.03523,0,0,1,8.03888,-8.03889z" stroke-width="0" fill="black" id="connector0extra2" gorn="0.3.0.0.5.4.0.0" stroke="none"/>
         </g>
        </g>
       </g>
       <circle cy="8.79404" connectorname="GND@2" cx="14.0961" stroke-width="0.850393" fill="none" id="connector1pad2" gorn="0.3.0.0.5.5" r="2.55118" stroke="black"/>
      </g>
     </g>
    </g>
   </g>
  </g>
 </g>
 <g partID="854511842">
  <g transform="translate(102.393,120.308)">
   <g transform="matrix(1, 0, 0, 1, 0.615231, 1.27105)">
    <g id="copper1">
     <g gorn="0.3.0.0">
      <circle cy="1.70533" connectorname="PWR" cx="6.52411" stroke-width="0.850393" fill="none" id="connector2pad" gorn="0.3.0.0.0" r="2.55118" stroke="black"/>
      <path d="M3.68929,-1.13043A2.83464,2.83465,0,0,0,0.854824,1.70404,2.83464,2.83465,0,0,0,3.68929,4.53997L9.35971,4.53997A2.83464,2.83465,0,0,0,12.1942,1.70404,2.83464,2.83465,0,0,0,9.35971,-1.13043Zm2.85352,0.706054A2.12598,2.12598,0,0,1,8.66828,1.70111,2.12598,2.12598,0,0,1,6.54281,3.8266,2.12598,2.12598,0,0,1,4.41587,1.70111,2.12598,2.12598,0,0,1,6.54281,-0.424381Z" stroke-width="0" fill="black" id="connector2extra" gorn="0.3.0.0.1" stroke="none"/>
      <circle cy="15.8982" connectorname="GND@1" cx="6.58983" stroke-width="0.850393" fill="none" id="connector0pad" gorn="0.3.0.0.2" r="2.55118" stroke="black"/>
      <g transform="matrix(0.264583, 0, 0, 0.264583, -0.5625, -1.12932)">
       <g>
        <g>
         <path d="m16.0722,53.5703a10.7136,10.7136,0,0,0,-10.713,10.713,10.7136,10.7136,0,0,0,10.713,10.713l21.4259,0a10.7136,10.7136,0,0,0,10.713,-10.713,10.7136,10.7136,0,0,0,-10.713,-10.713zm10.713,2.70731A8.03522,8.03523,0,0,1,34.8185,64.311,8.03522,8.03523,0,0,1,26.7852,72.3498,8.03522,8.03523,0,0,1,18.7463,64.311,8.03522,8.03523,0,0,1,26.7852,56.2776Z" stroke-width="0" fill="black" id="connector0extra" gorn="0.3.0.0.3.0.0" stroke="none"/>
        </g>
       </g>
      </g>
      <circle cy="8.79404" connectorname="GND@2" cx="14.0961" stroke-width="0.850393" fill="none" id="connector1pad" gorn="0.3.0.0.4" r="2.55118" stroke="black"/>
      <g id="copper0" gorn="0.3.0.0.5">
       <path d="m3.68929,-1.13043a2.83464,2.83465,0,0,0,-2.83447,2.83447,2.83464,2.83465,0,0,0,2.83447,2.83595l5.67039,0a2.83464,2.83465,0,0,0,2.83447,-2.83595,2.83464,2.83465,0,0,0,-2.83447,-2.83447zm2.85352,0.706054a2.12598,2.12598,0,0,1,2.12549,2.12549,2.12598,2.12598,0,0,1,-2.12549,2.12549,2.12598,2.12598,0,0,1,-2.12695,-2.12549,2.12598,2.12598,0,0,1,2.12695,-2.12549z" stroke-width="0" fill="black" id="path1831" gorn="0.3.0.0.5.0" stroke="none"/>
       <path d="m3.68929,-1.13043a2.83464,2.83465,0,0,0,-2.83447,2.83447,2.83464,2.83465,0,0,0,2.83447,2.83595l5.67042,0a2.83464,2.83465,0,0,0,2.83447,-2.83595,2.83464,2.83465,0,0,0,-2.83447,-2.83447zm2.85352,0.706054a2.12598,2.12598,0,0,1,2.12549,2.12549,2.12598,2.12598,0,0,1,-2.12549,2.12549,2.12598,2.12598,0,0,1,-2.12695,-2.12549,2.12598,2.12598,0,0,1,2.12695,-2.12549z" stroke-width="0" fill="black" id="connector2extra2" gorn="0.3.0.0.5.1" stroke="none"/>
       <circle cy="1.70533" connectorname="PWR" cx="6.52411" stroke-width="0.850393" fill="none" id="connector2pad2" gorn="0.3.0.0.5.2" r="2.55118" stroke="black"/>
       <circle cy="15.8786" connectorname="GND@1" cx="6.52411" stroke-width="0.850393" fill="none" id="connector0pad2" gorn="0.3.0.0.5.3" r="2.55118" stroke="black"/>
       <g transform="matrix(0.264583, 0, 0, 0.264583, -0.5625, -1.12932)">
        <g>
         <g>
          <path d="m16.0722,53.5703a10.7136,10.7136,0,0,0,-10.713,10.713,10.7136,10.7136,0,0,0,10.713,10.713l21.4259,0a10.7136,10.7136,0,0,0,10.713,-10.713,10.7136,10.7136,0,0,0,-10.713,-10.713zm10.713,2.67409a8.03522,8.03523,0,0,1,8.03332,8.03889,8.03522,8.03523,0,0,1,-8.03332,8.03336,8.03522,8.03523,0,0,1,-8.03888,-8.03336,8.03522,8.03523,0,0,1,8.03888,-8.03889z" stroke-width="0" fill="black" id="connector0extra2" gorn="0.3.0.0.5.4.0.0" stroke="none"/>
         </g>
        </g>
       </g>
       <circle cy="8.79404" connectorname="GND@2" cx="14.0961" stroke-width="0.850393" fill="none" id="connector1pad2" gorn="0.3.0.0.5.5" r="2.55118" stroke="black"/>
      </g>
     </g>
    </g>
   </g>
  </g>
 </g>
 <g partID="854468371">
  <g transform="translate(121.167,134.267)">
   <g  id="copper1">
    <circle  cy="3.01733" cx="3.01733" stroke-width="0.850392" fill="none" id="connector0pin" r="0.992124" stroke="black"/>
   </g>
  </g>
 </g>
 <g partID="854511832">
  <g transform="translate(64.125,120.308)">
   <g transform="matrix(1, 0, 0, 1, 0.615231, 1.27105)">
    <g id="copper1">
     <g gorn="0.3.0.0">
      <circle cy="1.70533" connectorname="PWR" cx="6.52411" stroke-width="0.850393" fill="none" id="connector2pad" gorn="0.3.0.0.0" r="2.55118" stroke="black"/>
      <path d="M3.68929,-1.13043A2.83464,2.83465,0,0,0,0.854824,1.70404,2.83464,2.83465,0,0,0,3.68929,4.53997L9.35971,4.53997A2.83464,2.83465,0,0,0,12.1942,1.70404,2.83464,2.83465,0,0,0,9.35971,-1.13043Zm2.85352,0.706054A2.12598,2.12598,0,0,1,8.66828,1.70111,2.12598,2.12598,0,0,1,6.54281,3.8266,2.12598,2.12598,0,0,1,4.41587,1.70111,2.12598,2.12598,0,0,1,6.54281,-0.424381Z" stroke-width="0" fill="black" id="connector2extra" gorn="0.3.0.0.1" stroke="none"/>
      <circle cy="15.8982" connectorname="GND@1" cx="6.58983" stroke-width="0.850393" fill="none" id="connector0pad" gorn="0.3.0.0.2" r="2.55118" stroke="black"/>
      <g transform="matrix(0.264583, 0, 0, 0.264583, -0.5625, -1.12932)">
       <g>
        <g>
         <path d="m16.0722,53.5703a10.7136,10.7136,0,0,0,-10.713,10.713,10.7136,10.7136,0,0,0,10.713,10.713l21.4259,0a10.7136,10.7136,0,0,0,10.713,-10.713,10.7136,10.7136,0,0,0,-10.713,-10.713zm10.713,2.70731A8.03522,8.03523,0,0,1,34.8185,64.311,8.03522,8.03523,0,0,1,26.7852,72.3498,8.03522,8.03523,0,0,1,18.7463,64.311,8.03522,8.03523,0,0,1,26.7852,56.2776Z" stroke-width="0" fill="black" id="connector0extra" gorn="0.3.0.0.3.0.0" stroke="none"/>
        </g>
       </g>
      </g>
      <circle cy="8.79404" connectorname="GND@2" cx="14.0961" stroke-width="0.850393" fill="none" id="connector1pad" gorn="0.3.0.0.4" r="2.55118" stroke="black"/>
      <g id="copper0" gorn="0.3.0.0.5">
       <path d="m3.68929,-1.13043a2.83464,2.83465,0,0,0,-2.83447,2.83447,2.83464,2.83465,0,0,0,2.83447,2.83595l5.67039,0a2.83464,2.83465,0,0,0,2.83447,-2.83595,2.83464,2.83465,0,0,0,-2.83447,-2.83447zm2.85352,0.706054a2.12598,2.12598,0,0,1,2.12549,2.12549,2.12598,2.12598,0,0,1,-2.12549,2.12549,2.12598,2.12598,0,0,1,-2.12695,-2.12549,2.12598,2.12598,0,0,1,2.12695,-2.12549z" stroke-width="0" fill="black" id="path1831" gorn="0.3.0.0.5.0" stroke="none"/>
       <path d="m3.68929,-1.13043a2.83464,2.83465,0,0,0,-2.83447,2.83447,2.83464,2.83465,0,0,0,2.83447,2.83595l5.67042,0a2.83464,2.83465,0,0,0,2.83447,-2.83595,2.83464,2.83465,0,0,0,-2.83447,-2.83447zm2.85352,0.706054a2.12598,2.12598,0,0,1,2.12549,2.12549,2.12598,2.12598,0,0,1,-2.12549,2.12549,2.12598,2.12598,0,0,1,-2.12695,-2.12549,2.12598,2.12598,0,0,1,2.12695,-2.12549z" stroke-width="0" fill="black" id="connector2extra2" gorn="0.3.0.0.5.1" stroke="none"/>
       <circle cy="1.70533" connectorname="PWR" cx="6.52411" stroke-width="0.850393" fill="none" id="connector2pad2" gorn="0.3.0.0.5.2" r="2.55118" stroke="black"/>
       <circle cy="15.8786" connectorname="GND@1" cx="6.52411" stroke-width="0.850393" fill="none" id="connector0pad2" gorn="0.3.0.0.5.3" r="2.55118" stroke="black"/>
       <g transform="matrix(0.264583, 0, 0, 0.264583, -0.5625, -1.12932)">
        <g>
         <g>
          <path d="m16.0722,53.5703a10.7136,10.7136,0,0,0,-10.713,10.713,10.7136,10.7136,0,0,0,10.713,10.713l21.4259,0a10.7136,10.7136,0,0,0,10.713,-10.713,10.7136,10.7136,0,0,0,-10.713,-10.713zm10.713,2.67409a8.03522,8.03523,0,0,1,8.03332,8.03889,8.03522,8.03523,0,0,1,-8.03332,8.03336,8.03522,8.03523,0,0,1,-8.03888,-8.03336,8.03522,8.03523,0,0,1,8.03888,-8.03889z" stroke-width="0" fill="black" id="connector0extra2" gorn="0.3.0.0.5.4.0.0" stroke="none"/>
         </g>
        </g>
       </g>
       <circle cy="8.79404" connectorname="GND@2" cx="14.0961" stroke-width="0.850393" fill="none" id="connector1pad2" gorn="0.3.0.0.5.5" r="2.55118" stroke="black"/>
      </g>
     </g>
    </g>
   </g>
  </g>
 </g>
 <g partID="854511862">
  <g transform="translate(25.8575,120.308)">
   <g transform="matrix(1, 0, 0, 1, 0.615231, 1.27105)">
    <g id="copper1">
     <g gorn="0.3.0.0">
      <circle cy="1.70533" connectorname="PWR" cx="6.52411" stroke-width="0.850393" fill="none" id="connector2pad" gorn="0.3.0.0.0" r="2.55118" stroke="black"/>
      <path d="M3.68929,-1.13043A2.83464,2.83465,0,0,0,0.854824,1.70404,2.83464,2.83465,0,0,0,3.68929,4.53997L9.35971,4.53997A2.83464,2.83465,0,0,0,12.1942,1.70404,2.83464,2.83465,0,0,0,9.35971,-1.13043Zm2.85352,0.706054A2.12598,2.12598,0,0,1,8.66828,1.70111,2.12598,2.12598,0,0,1,6.54281,3.8266,2.12598,2.12598,0,0,1,4.41587,1.70111,2.12598,2.12598,0,0,1,6.54281,-0.424381Z" stroke-width="0" fill="black" id="connector2extra" gorn="0.3.0.0.1" stroke="none"/>
      <circle cy="15.8982" connectorname="GND@1" cx="6.58983" stroke-width="0.850393" fill="none" id="connector0pad" gorn="0.3.0.0.2" r="2.55118" stroke="black"/>
      <g transform="matrix(0.264583, 0, 0, 0.264583, -0.5625, -1.12932)">
       <g>
        <g>
         <path d="m16.0722,53.5703a10.7136,10.7136,0,0,0,-10.713,10.713,10.7136,10.7136,0,0,0,10.713,10.713l21.4259,0a10.7136,10.7136,0,0,0,10.713,-10.713,10.7136,10.7136,0,0,0,-10.713,-10.713zm10.713,2.70731A8.03522,8.03523,0,0,1,34.8185,64.311,8.03522,8.03523,0,0,1,26.7852,72.3498,8.03522,8.03523,0,0,1,18.7463,64.311,8.03522,8.03523,0,0,1,26.7852,56.2776Z" stroke-width="0" fill="black" id="connector0extra" gorn="0.3.0.0.3.0.0" stroke="none"/>
        </g>
       </g>
      </g>
      <circle cy="8.79404" connectorname="GND@2" cx="14.0961" stroke-width="0.850393" fill="none" id="connector1pad" gorn="0.3.0.0.4" r="2.55118" stroke="black"/>
      <g id="copper0" gorn="0.3.0.0.5">
       <path d="m3.68929,-1.13043a2.83464,2.83465,0,0,0,-2.83447,2.83447,2.83464,2.83465,0,0,0,2.83447,2.83595l5.67039,0a2.83464,2.83465,0,0,0,2.83447,-2.83595,2.83464,2.83465,0,0,0,-2.83447,-2.83447zm2.85352,0.706054a2.12598,2.12598,0,0,1,2.12549,2.12549,2.12598,2.12598,0,0,1,-2.12549,2.12549,2.12598,2.12598,0,0,1,-2.12695,-2.12549,2.12598,2.12598,0,0,1,2.12695,-2.12549z" stroke-width="0" fill="black" id="path1831" gorn="0.3.0.0.5.0" stroke="none"/>
       <path d="m3.68929,-1.13043a2.83464,2.83465,0,0,0,-2.83447,2.83447,2.83464,2.83465,0,0,0,2.83447,2.83595l5.67042,0a2.83464,2.83465,0,0,0,2.83447,-2.83595,2.83464,2.83465,0,0,0,-2.83447,-2.83447zm2.85352,0.706054a2.12598,2.12598,0,0,1,2.12549,2.12549,2.12598,2.12598,0,0,1,-2.12549,2.12549,2.12598,2.12598,0,0,1,-2.12695,-2.12549,2.12598,2.12598,0,0,1,2.12695,-2.12549z" stroke-width="0" fill="black" id="connector2extra2" gorn="0.3.0.0.5.1" stroke="none"/>
       <circle cy="1.70533" connectorname="PWR" cx="6.52411" stroke-width="0.850393" fill="none" id="connector2pad2" gorn="0.3.0.0.5.2" r="2.55118" stroke="black"/>
       <circle cy="15.8786" connectorname="GND@1" cx="6.52411" stroke-width="0.850393" fill="none" id="connector0pad2" gorn="0.3.0.0.5.3" r="2.55118" stroke="black"/>
       <g transform="matrix(0.264583, 0, 0, 0.264583, -0.5625, -1.12932)">
        <g>
         <g>
          <path d="m16.0722,53.5703a10.7136,10.7136,0,0,0,-10.713,10.713,10.7136,10.7136,0,0,0,10.713,10.713l21.4259,0a10.7136,10.7136,0,0,0,10.713,-10.713,10.7136,10.7136,0,0,0,-10.713,-10.713zm10.713,2.67409a8.03522,8.03523,0,0,1,8.03332,8.03889,8.03522,8.03523,0,0,1,-8.03332,8.03336,8.03522,8.03523,0,0,1,-8.03888,-8.03336,8.03522,8.03523,0,0,1,8.03888,-8.03889z" stroke-width="0" fill="black" id="connector0extra2" gorn="0.3.0.0.5.4.0.0" stroke="none"/>
         </g>
        </g>
       </g>
       <circle cy="8.79404" connectorname="GND@2" cx="14.0961" stroke-width="0.850393" fill="none" id="connector1pad2" gorn="0.3.0.0.5.5" r="2.55118" stroke="black"/>
      </g>
     </g>
    </g>
   </g>
  </g>
 </g>
 <g partID="854422621">
  <g transform="translate(1.37504,1.7808)">
   <g  id="copper1">
    <circle  cy="7.97796" cx="7.97796" stroke-width="2.83465" fill="none" id="nonconn0" r="4.96063" stroke="black"/>
   </g>
  </g>
 </g>
 <g partID="854422601">
  <g transform="translate(1.37504,139.261)">
   <g  id="copper1">
    <circle  cy="7.97796" cx="7.97796" stroke-width="2.83465" fill="none" id="nonconn0" r="4.96063" stroke="black"/>
   </g>
  </g>
 </g>
 <g partID="854422361">
  <g transform="translate(209.722,139.261)">
   <g  id="copper1">
    <circle  cy="7.97796" cx="7.97796" stroke-width="2.83465" fill="none" id="nonconn0" r="4.96063" stroke="black"/>
   </g>
  </g>
 </g>
 <g partID="854422071">
  <g transform="translate(209.722,1.7808)">
   <g  id="copper1">
    <circle  cy="7.97796" cx="7.97796" stroke-width="2.83465" fill="none" id="nonconn0" r="4.96063" stroke="black"/>
   </g>
  </g>
 </g>
 <g partID="854384612">
  <g transform="translate(14.7728,64.8075)">
   <g  id="copper1">
    <g  id="copper0">
     <rect  y="12.168" width="4.464" stroke-width="1.44" fill="none" height="4.464" x="6.408" stroke="black"/>
     <circle  cy="14.4" cx="8.64" stroke-width="1.44" fill="none" id="connector0pad" r="2.232" stroke="black"/>
     <circle  cy="14.4" cx="15.84" stroke-width="1.44" fill="none" id="connector1pad" r="2.232" stroke="black"/>
     <circle  cy="14.4" cx="23.04" stroke-width="1.44" fill="none" id="connector2pad" r="2.232" stroke="black"/>
    </g>
   </g>
  </g>
 </g>
 <g partID="854384892">
  <g transform="translate(155.087,64.8075)">
   <g  id="copper1">
    <g  id="copper0">
     <rect  y="12.168" width="4.464" stroke-width="1.44" fill="none" height="4.464" x="6.408" stroke="black"/>
     <circle  cy="14.4" cx="8.64" stroke-width="1.44" fill="none" id="connector0pad" r="2.232" stroke="black"/>
     <circle  cy="14.4" cx="15.84" stroke-width="1.44" fill="none" id="connector1pad" r="2.232" stroke="black"/>
     <circle  cy="14.4" cx="23.04" stroke-width="1.44" fill="none" id="connector2pad" r="2.232" stroke="black"/>
    </g>
   </g>
  </g>
 </g>
 <g partID="854385172">
  <g transform="translate(61.5442,64.8075)">
   <g  id="copper1">
    <g  id="copper0">
     <rect  y="12.168" width="4.464" stroke-width="1.44" fill="none" height="4.464" x="6.408" stroke="black"/>
     <circle  cy="14.4" cx="8.64" stroke-width="1.44" fill="none" id="connector0pad" r="2.232" stroke="black"/>
     <circle  cy="14.4" cx="15.84" stroke-width="1.44" fill="none" id="connector1pad" r="2.232" stroke="black"/>
     <circle  cy="14.4" cx="23.04" stroke-width="1.44" fill="none" id="connector2pad" r="2.232" stroke="black"/>
    </g>
   </g>
  </g>
 </g>
 <g partID="854385452">
  <g transform="translate(108.316,64.8075)">
   <g  id="copper1">
    <g  id="copper0">
     <rect  y="12.168" width="4.464" stroke-width="1.44" fill="none" height="4.464" x="6.408" stroke="black"/>
     <circle  cy="14.4" cx="8.64" stroke-width="1.44" fill="none" id="connector0pad" r="2.232" stroke="black"/>
     <circle  cy="14.4" cx="15.84" stroke-width="1.44" fill="none" id="connector1pad" r="2.232" stroke="black"/>
     <circle  cy="14.4" cx="23.04" stroke-width="1.44" fill="none" id="connector2pad" r="2.232" stroke="black"/>
    </g>
   </g>
  </g>
 </g>
 <g partID="854134042">
  <g transform="translate(13.2861,94.5365)">
   <g  id="copper1">
    <!-- <rect width="55" x="10" y="15.5" fill="none" height="55" stroke="rgb(255, 191, 0)" stroke-width="20" />  -->
    <circle  cy="3.096" cx="2.7" stroke-width="1.44" fill="none" id="connector0pin" r="1.98" stroke="black"/>
    <circle  cy="3.096" cx="31.5" stroke-width="1.44" fill="none" id="connector1pin" r="1.98" stroke="black"/>
   </g>
  </g>
 </g>
 <g partID="854133742">
  <g transform="translate(155.019,94.5365)">
   <g  id="copper1">
    <!-- <rect width="55" x="10" y="15.5" fill="none" height="55" stroke="rgb(255, 191, 0)" stroke-width="20" />  -->
    <circle  cy="3.096" cx="2.7" stroke-width="1.44" fill="none" id="connector0pin" r="1.98" stroke="black"/>
    <circle  cy="3.096" cx="31.5" stroke-width="1.44" fill="none" id="connector1pin" r="1.98" stroke="black"/>
   </g>
  </g>
 </g>
 <g partID="854133452">
  <g transform="translate(60.0578,94.5365)">
   <g  id="copper1">
    <!-- <rect width="55" x="10" y="15.5" fill="none" height="55" stroke="rgb(255, 191, 0)" stroke-width="20" />  -->
    <circle  cy="3.096" cx="2.7" stroke-width="1.44" fill="none" id="connector0pin" r="1.98" stroke="black"/>
    <circle  cy="3.096" cx="31.5" stroke-width="1.44" fill="none" id="connector1pin" r="1.98" stroke="black"/>
   </g>
  </g>
 </g>
 <g partID="854133202">
  <g transform="translate(111.081,94.5365)">
   <g  id="copper1">
    <!-- <rect width="55" x="10" y="15.5" fill="none" height="55" stroke="rgb(255, 191, 0)" stroke-width="20" />  -->
    <circle  cy="3.096" cx="2.7" stroke-width="1.44" fill="none" id="connector0pin" r="1.98" stroke="black"/>
    <circle  cy="3.096" cx="31.5" stroke-width="1.44" fill="none" id="connector1pin" r="1.98" stroke="black"/>
   </g>
  </g>
 </g>
 <g partID="198051">
  <g transform="translate(195.297,19.5583)">
   <g transform="matrix(-1,0,0,-1,0,0)">
    <g transform="matrix(1, 0, 0, 1, -21.472, -3.00704)">
     <g id="copper1">
      <g gorn="0.3.0.0">
       <circle cy="12.919" cx="24.185" stroke-width="1.25" fill="none" id="connector0pin" gorn="0.3.0.0.0" r="2.088" stroke="black"/>
       <circle cy="12.919" cx="31.384" stroke-width="1.25" fill="none" id="connector1pin" gorn="0.3.0.0.1" r="2.088" stroke="black"/>
       <circle cy="12.919" cx="38.585" stroke-width="1.25" fill="none" id="connector2pin" gorn="0.3.0.0.2" r="2.088" stroke="black"/>
       <circle cy="12.919" cx="45.784" stroke-width="1.25" fill="none" id="connector3pin" gorn="0.3.0.0.3" r="2.088" stroke="black"/>
       <circle cy="12.919" cx="52.9849" stroke-width="1.25" fill="none" id="connector4pin" gorn="0.3.0.0.4" r="2.088" stroke="black"/>
       <circle cy="12.919" cx="60.1849" stroke-width="1.25" fill="none" id="connector5pin" gorn="0.3.0.0.5" r="2.088" stroke="black"/>
       <circle cy="12.919" cx="67.3839" stroke-width="1.25" fill="none" id="connector6pin" gorn="0.3.0.0.6" r="2.088" stroke="black"/>
       <circle cy="12.919" cx="74.5849" stroke-width="1.25" fill="none" id="connector7pin" gorn="0.3.0.0.7" r="2.088" stroke="black"/>
       <circle cy="12.919" cx="81.7839" stroke-width="1.25" fill="none" id="connector8pin" gorn="0.3.0.0.8" r="2.088" stroke="black"/>
       <circle cy="12.919" cx="88.9849" stroke-width="1.25" fill="none" id="connector9pin" gorn="0.3.0.0.9" r="2.088" stroke="black"/>
       <circle cy="12.919" cx="96.1849" stroke-width="1.25" fill="none" id="connector10pin" gorn="0.3.0.0.10" r="2.088" stroke="black"/>
       <circle cy="12.919" cx="103.385" stroke-width="1.25" fill="none" id="connector11pin" gorn="0.3.0.0.11" r="2.088" stroke="black"/>
       <circle cy="12.919" cx="110.585" stroke-width="1.25" fill="none" id="connector12pin" gorn="0.3.0.0.12" r="2.088" stroke="black"/>
       <circle cy="12.919" cx="117.784" stroke-width="1.25" fill="none" id="connector13pin" gorn="0.3.0.0.13" r="2.088" stroke="black"/>
       <circle cy="12.919" cx="124.986" stroke-width="1.25" fill="none" id="connector14pin" gorn="0.3.0.0.14" r="2.088" stroke="black"/>
       <circle cy="12.919" cx="132.185" stroke-width="1.25" fill="none" id="connector15pin" gorn="0.3.0.0.15" r="2.088" stroke="black"/>
       <circle cy="12.919" cx="139.385" stroke-width="1.25" fill="none" id="connector16pin" gorn="0.3.0.0.16" r="2.088" stroke="black"/>
       <circle cy="12.919" cx="146.585" stroke-width="1.25" fill="none" id="connector17pin" gorn="0.3.0.0.17" r="2.088" stroke="black"/>
       <circle cy="12.919" cx="153.784" stroke-width="1.25" fill="none" id="connector18pin" gorn="0.3.0.0.18" r="2.088" stroke="black"/>
       <circle cy="12.919" cx="160.986" stroke-width="1.25" fill="none" id="connector19pin" gorn="0.3.0.0.19" r="2.088" stroke="black"/>
       <circle cy="5.72001" cx="160.986" stroke-width="1.25" fill="none" id="connector20pin" gorn="0.3.0.0.20" r="2.088" stroke="black"/>
       <circle cy="5.72001" cx="153.784" stroke-width="1.25" fill="none" id="connector21pin" gorn="0.3.0.0.21" r="2.088" stroke="black"/>
       <circle cy="5.72001" cx="146.585" stroke-width="1.25" fill="none" id="connector22pin" gorn="0.3.0.0.22" r="2.088" stroke="black"/>
       <circle cy="5.72001" cx="139.385" stroke-width="1.25" fill="none" id="connector23pin" gorn="0.3.0.0.23" r="2.088" stroke="black"/>
       <circle cy="5.72001" cx="132.185" stroke-width="1.25" fill="none" id="connector24pin" gorn="0.3.0.0.24" r="2.088" stroke="black"/>
       <circle cy="5.72001" cx="124.986" stroke-width="1.25" fill="none" id="connector25pin" gorn="0.3.0.0.25" r="2.088" stroke="black"/>
       <circle cy="5.72001" cx="117.784" stroke-width="1.25" fill="none" id="connector26pin" gorn="0.3.0.0.26" r="2.088" stroke="black"/>
       <circle cy="5.72001" cx="110.585" stroke-width="1.25" fill="none" id="connector27pin" gorn="0.3.0.0.27" r="2.088" stroke="black"/>
       <circle cy="5.72001" cx="103.385" stroke-width="1.25" fill="none" id="connector28pin" gorn="0.3.0.0.28" r="2.088" stroke="black"/>
       <circle cy="5.72001" cx="96.1849" stroke-width="1.25" fill="none" id="connector29pin" gorn="0.3.0.0.29" r="2.088" stroke="black"/>
       <circle cy="5.72001" cx="88.9849" stroke-width="1.25" fill="none" id="connector30pin" gorn="0.3.0.0.30" r="2.088" stroke="black"/>
       <circle cy="5.72001" cx="81.7839" stroke-width="1.25" fill="none" id="connector31pin" gorn="0.3.0.0.31" r="2.088" stroke="black"/>
       <circle cy="5.72001" cx="74.5849" stroke-width="1.25" fill="none" id="connector32pin" gorn="0.3.0.0.32" r="2.088" stroke="black"/>
       <circle cy="5.72001" cx="67.3839" stroke-width="1.25" fill="none" id="connector33pin" gorn="0.3.0.0.33" r="2.088" stroke="black"/>
       <circle cy="5.72001" cx="60.1849" stroke-width="1.25" fill="none" id="connector34pin" gorn="0.3.0.0.34" r="2.088" stroke="black"/>
       <circle cy="5.72001" cx="52.9849" stroke-width="1.25" fill="none" id="connector35pin" gorn="0.3.0.0.35" r="2.088" stroke="black"/>
       <circle cy="5.72001" cx="45.784" stroke-width="1.25" fill="none" id="connector36pin" gorn="0.3.0.0.36" r="2.088" stroke="black"/>
       <circle cy="5.72001" cx="38.585" stroke-width="1.25" fill="none" id="connector37pin" gorn="0.3.0.0.37" r="2.088" stroke="black"/>
       <circle cy="5.72001" cx="31.384" stroke-width="1.25" fill="none" id="connector38pin" gorn="0.3.0.0.38" r="2.088" stroke="black"/>
       <circle cy="5.72001" cx="24.185" stroke-width="1.25" fill="none" id="connector39pin" gorn="0.3.0.0.39" r="2.088" stroke="black"/>
      </g>
     </g>
    </g>
   </g>
  </g>
 </g>
 <g partID="337482">
  <g transform="translate(202.738,38.7345)">
   <g  id="copper1">
    <g  id="copper0">
     <circle  cy="5.04" cx="5.04" stroke-width="1.44" fill="none" id="connector0pin" r="2.088" stroke="black"/>
     <circle  cy="12.24" cx="5.04" stroke-width="1.44" fill="none" id="connector1pin" r="2.088" stroke="black"/>
     <circle  cy="19.44" cx="5.04" stroke-width="1.44" fill="none" id="connector2pin" r="2.088" stroke="black"/>
     <circle  cy="26.64" cx="5.04" stroke-width="1.44" fill="none" id="connector3pin" r="2.088" stroke="black"/>
     <circle  cy="33.84" cx="5.04" stroke-width="1.44" fill="none" id="connector4pin" r="2.088" stroke="black"/>
    </g>
   </g>
  </g>
 </g>
 <g partID="854540260">
  <line x2="150.721" y1="124.533" stroke-linecap="round" stroke-width="1.728" x1="169.534" y2="123.452" stroke="black"/>
 </g>
 <g partID="854539910">
  <line x2="169.534" y1="106.16" stroke-linecap="round" stroke-width="1.728" x1="169.534" y2="124.533" stroke="black"/>
 </g>
 <g partID="854539560">
  <line x2="169.533" y1="106.16" stroke-linecap="round" stroke-width="1.728" x1="188.024" y2="106.16" stroke="black"/>
 </g>
 <g partID="854512800">
  <line x2="150.771" y1="139.3" stroke-linecap="round" stroke-width="1.728" x1="163.105" y2="137.825" stroke="black"/>
 </g>
 <g partID="854470120">
  <line x2="54.7501" y1="87.6893" stroke-linecap="round" stroke-width="1.728" x1="77.401" y2="87.6893" stroke="black"/>
 </g>
 <g partID="854470050">
  <line x2="54.7506" y1="87.6893" stroke-linecap="round" stroke-width="1.728" x1="54.7506" y2="137.284" stroke="black"/>
 </g>
 <g partID="854469980">
  <line x2="68.4043" y1="137.284" stroke-linecap="round" stroke-width="1.728" x1="54.7506" y2="137.443" stroke="black"/>
 </g>
 <g partID="854468840">
  <line x2="77.401" y1="81.5197" stroke-linecap="round" stroke-width="1.728" x1="77.3888" y2="87.6894" stroke="black"/>
 </g>
 <g partID="854468460">
  <line x2="74.1902" y1="123.284" stroke-linecap="round" stroke-width="1.728" x1="106.606" y2="123.284" stroke="black"/>
 </g>
 <g partID="854468300">
  <line x2="112.524" y1="137.303" stroke-linecap="round" stroke-width="1.728" x1="122.817" y2="137.439" stroke="black"/>
 </g>
 <g partID="854467670">
  <line x2="112.458" y1="123.284" stroke-linecap="round" stroke-width="1.728" x1="144.873" y2="123.284" stroke="black"/>
 </g>
 <g partID="854475380">
  <line x2="9.3612" y1="67.7941" stroke-linecap="round" stroke-width="1.728" x1="30.4351" y2="67.7941" stroke="black"/>
 </g>
 <g partID="854475310">
  <line x2="17.8871" y1="117.446" stroke-linecap="round" stroke-width="1.728" x1="7.96808" y2="117.446" stroke="black"/>
 </g>
 <g partID="854475240">
  <line x2="17.8871" y1="117.446" stroke-linecap="round" stroke-width="1.728" x1="17.8871" y2="137.284" stroke="black"/>
 </g>
 <g partID="854475170">
  <line x2="7.96807" y1="67.7941" stroke-linecap="round" stroke-width="1.728" x1="9.3612" y2="117.446" stroke="black"/>
 </g>
 <g partID="854475100">
  <line x2="30.1368" y1="137.284" stroke-linecap="round" stroke-width="1.728" x1="17.8871" y2="137.44" stroke="black"/>
 </g>
 <g partID="854474910">
  <line x2="35.9226" y1="123.072" stroke-linecap="round" stroke-width="1.728" x1="47.6442" y2="123.242" stroke="black"/>
 </g>
 <g partID="854474720">
  <line x2="47.6442" y1="147.204" stroke-linecap="round" stroke-width="1.728" x1="47.6442" y2="123.072" stroke="black"/>
 </g>
 <g partID="854474530">
  <line x2="47.6445" y1="147.204" stroke-linecap="round" stroke-width="1.728" x1="88.653" y2="147.204" stroke="black"/>
 </g>
 <g partID="854474340">
  <line x2="88.653" y1="123.072" stroke-linecap="round" stroke-width="1.728" x1="88.653" y2="147.204" stroke="black"/>
 </g>
 <g partID="854471310">
  <line x2="30.4352" y1="76.896" stroke-linecap="round" stroke-width="1.728" x1="30.5768" y2="67.7942" stroke="black"/>
 </g>
 <g partID="854471100">
  <line x2="88.6529" y1="123.248" stroke-linecap="round" stroke-width="1.728" x1="74.19" y2="123.072" stroke="black"/>
 </g>
 <g partID="854403660">
  <line x2="199.214" y1="4.05272" stroke-linecap="round" stroke-width="1.728" x1="200.612" y2="60.8391" stroke="black"/>
 </g>
 <g partID="854403640">
  <line x2="200.612" y1="4.05272" stroke-linecap="round" stroke-width="1.728" x1="156.672" y2="4.0527" stroke="black"/>
 </g>
 <g partID="854403600">
  <line x2="156.672" y1="7.3836" stroke-linecap="round" stroke-width="1.728" x1="156.62" y2="4.05274" stroke="black"/>
 </g>
 <g partID="854424620">
  <line x2="163.737" y1="87.7757" stroke-linecap="round" stroke-width="1.728" x1="163.763" y2="81.5193" stroke="black"/>
 </g>
 <g partID="854424550">
  <line x2="163.764" y1="87.7757" stroke-linecap="round" stroke-width="1.728" x1="186.565" y2="87.7757" stroke="black"/>
 </g>
 <g partID="854405840">
  <line x2="186.565" y1="95.5725" stroke-linecap="round" stroke-width="1.728" x1="186.528" y2="87.7758" stroke="black"/>
 </g>
 <g partID="854424210">
  <line x2="58.9786" y1="56.3946" stroke-linecap="round" stroke-width="1.728" x1="58.9786" y2="66.3654" stroke="black"/>
 </g>
 <g partID="854424140">
  <line x2="70.3376" y1="66.3654" stroke-linecap="round" stroke-width="1.728" x1="58.9786" y2="66.3869" stroke="black"/>
 </g>
 <g partID="854424070">
  <line x2="70.2121" y1="66.3869" stroke-linecap="round" stroke-width="1.728" x1="70.3378" y2="76.8957" stroke="black"/>
 </g>
 <g partID="854406340">
  <line x2="47.601" y1="4.05272" stroke-linecap="round" stroke-width="1.728" x1="47.601" y2="8.32407" stroke="black"/>
 </g>
 <g partID="854406320">
  <line x2="47.601" y1="4.05272" stroke-linecap="round" stroke-width="1.728" x1="149.673" y2="4.05272" stroke="black"/>
 </g>
 <g partID="854406280">
  <line x2="149.673" y1="7.38631" stroke-linecap="round" stroke-width="1.728" x1="149.501" y2="4.05274" stroke="black"/>
 </g>
 <g partID="854424920">
  <line x2="142.576" y1="87.7757" stroke-linecap="round" stroke-width="1.728" x1="131.276" y2="87.7757" stroke="black"/>
 </g>
 <g partID="854424690">
  <line x2="142.58" y1="87.7757" stroke-linecap="round" stroke-width="1.728" x1="142.576" y2="95.5723" stroke="black"/>
 </g>
 <g partID="854406600">
  <line x2="131.276" y1="81.5196" stroke-linecap="round" stroke-width="1.728" x1="131.335" y2="87.776" stroke="black"/>
 </g>
 <g partID="854424320">
  <line x2="157.834" y1="90.6005" stroke-linecap="round" stroke-width="1.728" x1="158.113" y2="95.5754" stroke="black"/>
 </g>
 <g partID="854412360">
  <line x2="158.113" y1="90.6005" stroke-linecap="round" stroke-width="1.728" x1="148.226" y2="90.6005" stroke="black"/>
 </g>
 <g partID="854411810">
  <line x2="148.226" y1="69.2117" stroke-linecap="round" stroke-width="1.728" x1="148.226" y2="90.6006" stroke="black"/>
 </g>
 <g partID="854406840">
  <line x2="148.226" y1="69.2117" stroke-linecap="round" stroke-width="1.728" x1="178.09" y2="69.2117" stroke="black"/>
 </g>
 <g partID="854406760">
  <line x2="178.09" y1="76.8957" stroke-linecap="round" stroke-width="1.728" x1="178.119" y2="69.2118" stroke="black"/>
 </g>
 <g partID="854422640">
  <line x2="178.099" y1="66.5007" stroke-linecap="round" stroke-width="1.728" x1="177.974" y2="76.8957" stroke="black"/>
 </g>
 <g partID="854460220">
  <line x2="194.974" y1="84.9325" stroke-linecap="round" stroke-width="1.728" x1="194.974" y2="66.4622" stroke="black"/>
 </g>
 <g partID="854459990">
  <line x2="177.974" y1="66.4626" stroke-linecap="round" stroke-width="1.728" x1="194.974" y2="66.5007" stroke="black"/>
 </g>
 <g partID="854407180">
  <line x2="194.973" y1="84.9325" stroke-linecap="round" stroke-width="1.728" x1="220.443" y2="84.9325" stroke="black"/>
 </g>
 <g partID="854407160">
  <line x2="220.443" y1="43.7151" stroke-linecap="round" stroke-width="1.728" x1="220.443" y2="84.9329" stroke="black"/>
 </g>
 <g partID="854407120">
  <line x2="220.443" y1="43.7643" stroke-linecap="round" stroke-width="1.728" x1="209.946" y2="43.7151" stroke="black"/>
 </g>
 <g partID="854427310">
  <line x2="100" y1="79.3013" stroke-linecap="round" stroke-width="1.728" x1="100" y2="110.376" stroke="black"/>
 </g>
 <g partID="854407360">
  <line x2="100" y1="79.2217" stroke-linecap="round" stroke-width="1.728" x1="86.8962" y2="79.3014" stroke="black"/>
 </g>
 <g partID="854407600">
  <line x2="142.596" y1="110.402" stroke-linecap="round" stroke-width="1.728" x1="142.674" y2="99.6924" stroke="black"/>
 </g>
 <g partID="854407540">
  <line x2="142.674" y1="110.376" stroke-linecap="round" stroke-width="1.728" x1="100" y2="110.402" stroke="black"/>
 </g>
 <g partID="854407700">
  <line x2="84.5075" y1="97.6302" stroke-linecap="round" stroke-width="1.728" x1="64.8178" y2="97.6083" stroke="black"/>
 </g>
 <g partID="854423650">
  <line x2="84.5516" y1="87.7757" stroke-linecap="round" stroke-width="1.728" x1="84.4626" y2="81.5193" stroke="black"/>
 </g>
 <g partID="854407900">
  <line x2="84.4624" y1="97.6085" stroke-linecap="round" stroke-width="1.728" x1="84.5074" y2="87.7758" stroke="black"/>
 </g>
 <g partID="854408280">
  <line x2="37.775" y1="89.1885" stroke-linecap="round" stroke-width="1.728" x1="37.6493" y2="81.5194" stroke="black"/>
 </g>
 <g partID="854423190">
  <line x2="37.6492" y1="89.1885" stroke-linecap="round" stroke-width="1.728" x1="16.4621" y2="89.1885" stroke="black"/>
 </g>
 <g partID="854408180">
  <line x2="16.4621" y1="95.5757" stroke-linecap="round" stroke-width="1.728" x1="16.102" y2="89.1882" stroke="black"/>
 </g>
 <g partID="854404140">
  <line x2="116.963" y1="60.8391" stroke-linecap="round" stroke-width="1.728" x1="117.009" y2="76.8955" stroke="black"/>
 </g>
 <g partID="854404120">
  <line x2="117.009" y1="60.8391" stroke-linecap="round" stroke-width="1.728" x1="199.214" y2="60.8391" stroke="black"/>
 </g>
</svg>
