,Channel 1,Channel 2,Channel 3,Channel 4
0,0.00,100.00,0.00,0.00
1,0.00,100.00,0.00,0.00
2,0.00,100.00,0.00,0.00
3,0.00,100.00,0.00,0.00
4,0.00,100.00,0.00,0.00
5,0.00,100.00,0.00,0.00
6,0.00,100.00,0.00,0.00
7,0.00,100.00,0.00,0.00
8,0.00,100.00,0.00,0.00
9,0.00,100.00,0.00,0.00
10,0.00,100.00,0.00,0.00
11,0.00,100.00,0.00,0.00
12,0.00,100.00,0.00,0.00
13,0.00,100.00,0.00,0.00
14,0.00,100.00,0.00,0.00
15,0.00,100.00,0.00,0.00
16,0.00,100.00,0.00,0.00
17,0.00,100.00,0.00,0.00
18,0.00,100.00,0.00,0.00
19,0.00,100.00,0.00,0.00
20,0.00,100.00,0.00,0.00
21,0.00,100.00,0.00,0.00
22,0.00,100.00,0.00,0.00
23,0.00,100.00,0.00,0.00
24,0.00,100.00,0.00,0.00
25,0.00,100.00,0.00,0.00
26,0.00,100.00,0.00,0.00
27,0.00,100.00,0.00,0.00
28,0.00,100.00,0.00,0.00
29,0.00,100.00,0.00,0.00
30,100.00,0.00,0.00,0.00
31,100.00,0.00,0.00,0.00
32,100.00,0.00,0.00,0.00
33,100.00,0.00,0.00,0.00
34,100.00,0.00,0.00,0.00
35,100.00,0.00,0.00,0.00
36,100.00,0.00,0.00,0.00
37,100.00,0.00,0.00,0.00
38,100.00,0.00,0.00,0.00
39,100.00,0.00,0.00,0.00
40,100.00,0.00,0.00,0.00
41,100.00,0.00,0.00,0.00
42,100.00,0.00,0.00,0.00
43,100.00,0.00,0.00,0.00
44,100.00,0.00,0.00,0.00
45,100.00,0.00,0.00,0.00
46,100.00,0.00,0.00,0.00
47,100.00,0.00,0.00,0.00
48,100.00,0.00,0.00,0.00
49,100.00,0.00,0.00,0.00
50,100.00,0.00,0.00,0.00
51,100.00,0.00,0.00,0.00
52,100.00,0.00,0.00,0.00
53,100.00,0.00,0.00,0.00
54,100.00,0.00,0.00,0.00
55,100.00,0.00,0.00,0.00
56,100.00,0.00,0.00,0.00
57,100.00,0.00,0.00,0.00
58,100.00,0.00,0.00,0.00
59,100.00,0.00,0.00,0.00
60,0.00,100.00,0.00,0.00
61,0.00,100.00,0.00,0.00
62,0.00,100.00,0.00,0.00
63,0.00,100.00,0.00,0.00
64,0.00,100.00,0.00,0.00
65,0.00,100.00,0.00,0.00
66,0.00,100.00,0.00,0.00
67,0.00,100.00,0.00,0.00
68,0.00,100.00,0.00,0.00
69,0.00,100.00,0.00,0.00
70,0.00,100.00,0.00,0.00
71,0.00,100.00,0.00,0.00
72,0.00,100.00,0.00,0.00
73,0.00,100.00,0.00,0.00
74,0.00,100.00,0.00,0.00
75,0.00,100.00,0.00,0.00
76,0.00,100.00,0.00,0.00
77,0.00,100.00,0.00,0.00
78,0.00,100.00,0.00,0.00
79,0.00,100.00,0.00,0.00
80,0.00,100.00,0.00,0.00
81,0.00,100.00,0.00,0.00
82,0.00,100.00,0.00,0.00
83,0.00,100.00,0.00,0.00
84,0.00,100.00,0.00,0.00
85,0.00,100.00,0.00,0.00
86,0.00,100.00,0.00,0.00
87,0.00,100.00,0.00,0.00
88,0.00,100.00,0.00,0.00
89,0.00,100.00,0.00,0.00
90,100.00,0.00,0.00,0.00
91,100.00,0.00,0.00,0.00
92,100.00,0.00,0.00,0.00
93,100.00,0.00,0.00,0.00
94,100.00,0.00,0.00,0.00
95,100.00,0.00,0.00,0.00
96,100.00,0.00,0.00,0.00
97,100.00,0.00,0.00,0.00
98,100.00,0.00,0.00,0.00
99,100.00,0.00,0.00,0.00
100,100.00,0.00,0.00,0.00
101,100.00,0.00,0.00,0.00
102,100.00,0.00,0.00,0.00
103,100.00,0.00,0.00,0.00
104,100.00,0.00,0.00,0.00
105,100.00,0.00,0.00,0.00
106,100.00,0.00,0.00,0.00
107,100.00,0.00,0.00,0.00
108,100.00,0.00,0.00,0.00
109,100.00,0.00,0.00,0.00
110,100.00,0.00,0.00,0.00
111,100.00,0.00,0.00,0.00
112,100.00,0.00,0.00,0.00
113,100.00,0.00,0.00,0.00
114,100.00,0.00,0.00,0.00
115,100.00,0.00,0.00,0.00
116,100.00,0.00,0.00,0.00
117,100.00,0.00,0.00,0.00
118,100.00,0.00,0.00,0.00
119,100.00,0.00,0.00,0.00
120,0.00,100.00,0.00,0.00
121,0.00,100.00,0.00,0.00
122,0.00,100.00,0.00,0.00
123,0.00,100.00,0.00,0.00
124,0.00,100.00,0.00,0.00
125,0.00,100.00,0.00,0.00
126,0.00,100.00,0.00,0.00
127,0.00,100.00,0.00,0.00
128,0.00,100.00,0.00,0.00
129,0.00,100.00,0.00,0.00
130,0.00,100.00,0.00,0.00
131,0.00,100.00,0.00,0.00
132,0.00,100.00,0.00,0.00
133,0.00,100.00,0.00,0.00
134,0.00,100.00,0.00,0.00
135,0.00,100.00,0.00,0.00
136,0.00,100.00,0.00,0.00
137,0.00,100.00,0.00,0.00
138,0.00,100.00,0.00,0.00
139,0.00,100.00,0.00,0.00
140,0.00,100.00,0.00,0.00
141,0.00,100.00,0.00,0.00
142,0.00,100.00,0.00,0.00
143,0.00,100.00,0.00,0.00
144,0.00,100.00,0.00,0.00
145,0.00,100.00,0.00,0.00
146,0.00,100.00,0.00,0.00
147,0.00,100.00,0.00,0.00
148,0.00,100.00,0.00,0.00
149,0.00,100.00,0.00,0.00
150,100.00,0.00,0.00,0.00
151,100.00,0.00,0.00,0.00
152,100.00,0.00,0.00,0.00
153,100.00,0.00,0.00,0.00
154,100.00,0.00,0.00,0.00
155,100.00,0.00,0.00,0.00
156,100.00,0.00,0.00,0.00
157,100.00,0.00,0.00,0.00
158,100.00,0.00,0.00,0.00
159,100.00,0.00,0.00,0.00
160,100.00,0.00,0.00,0.00
161,100.00,0.00,0.00,0.00
162,100.00,0.00,0.00,0.00
163,100.00,0.00,0.00,0.00
164,100.00,0.00,0.00,0.00
165,100.00,0.00,0.00,0.00
166,100.00,0.00,0.00,0.00
167,100.00,0.00,0.00,0.00
168,100.00,0.00,0.00,0.00
169,100.00,0.00,0.00,0.00
170,100.00,0.00,0.00,0.00
171,100.00,0.00,0.00,0.00
172,100.00,0.00,0.00,0.00
173,100.00,0.00,0.00,0.00
174,100.00,0.00,0.00,0.00
175,100.00,0.00,0.00,0.00
176,100.00,0.00,0.00,0.00
177,100.00,0.00,0.00,0.00
178,100.00,0.00,0.00,0.00
179,100.00,0.00,0.00,0.00
180,0.00,100.00,0.00,0.00
181,0.00,100.00,0.00,0.00
182,0.00,100.00,0.00,0.00
183,0.00,100.00,0.00,0.00
184,0.00,100.00,0.00,0.00
185,0.00,100.00,0.00,0.00
186,0.00,100.00,0.00,0.00
187,0.00,100.00,0.00,0.00
188,0.00,100.00,0.00,0.00
189,0.00,100.00,0.00,0.00
190,0.00,100.00,0.00,0.00
191,0.00,100.00,0.00,0.00
192,0.00,100.00,0.00,0.00
193,0.00,100.00,0.00,0.00
194,0.00,100.00,0.00,0.00
195,0.00,100.00,0.00,0.00
196,0.00,100.00,0.00,0.00
197,0.00,100.00,0.00,0.00
198,0.00,100.00,0.00,0.00
199,0.00,100.00,0.00,0.00
200,0.00,100.00,0.00,0.00
201,0.00,100.00,0.00,0.00
202,0.00,100.00,0.00,0.00
203,0.00,100.00,0.00,0.00
204,0.00,100.00,0.00,0.00
205,0.00,100.00,0.00,0.00
206,0.00,100.00,0.00,0.00
207,0.00,100.00,0.00,0.00
208,0.00,100.00,0.00,0.00
209,0.00,100.00,0.00,0.00
210,100.00,0.00,0.00,0.00
211,100.00,0.00,0.00,0.00
212,100.00,0.00,0.00,0.00
213,100.00,0.00,0.00,0.00
214,100.00,0.00,0.00,0.00
215,100.00,0.00,0.00,0.00
216,100.00,0.00,0.00,0.00
217,100.00,0.00,0.00,0.00
218,100.00,0.00,0.00,0.00
219,100.00,0.00,0.00,0.00
220,100.00,0.00,0.00,0.00
221,100.00,0.00,0.00,0.00
222,100.00,0.00,0.00,0.00
223,100.00,0.00,0.00,0.00
224,100.00,0.00,0.00,0.00
225,100.00,0.00,0.00,0.00
226,100.00,0.00,0.00,0.00
227,100.00,0.00,0.00,0.00
228,100.00,0.00,0.00,0.00
229,100.00,0.00,0.00,0.00
230,100.00,0.00,0.00,0.00
231,100.00,0.00,0.00,0.00
232,100.00,0.00,0.00,0.00
233,100.00,0.00,0.00,0.00
234,100.00,0.00,0.00,0.00
235,100.00,0.00,0.00,0.00
236,100.00,0.00,0.00,0.00
237,100.00,0.00,0.00,0.00
238,100.00,0.00,0.00,0.00
239,100.00,0.00,0.00,0.00
240,0.00,100.00,0.00,0.00
241,0.00,100.00,0.00,0.00
242,0.00,100.00,0.00,0.00
243,0.00,100.00,0.00,0.00
244,0.00,100.00,0.00,0.00
245,0.00,100.00,0.00,0.00
246,0.00,100.00,0.00,0.00
247,0.00,100.00,0.00,0.00
248,0.00,100.00,0.00,0.00
249,0.00,100.00,0.00,0.00
250,0.00,100.00,0.00,0.00
251,0.00,100.00,0.00,0.00
252,0.00,100.00,0.00,0.00
253,0.00,100.00,0.00,0.00
254,0.00,100.00,0.00,0.00
255,0.00,100.00,0.00,0.00
256,0.00,100.00,0.00,0.00
257,0.00,100.00,0.00,0.00
258,0.00,100.00,0.00,0.00
259,0.00,100.00,0.00,0.00
260,0.00,100.00,0.00,0.00
261,0.00,100.00,0.00,0.00
262,0.00,100.00,0.00,0.00
263,0.00,100.00,0.00,0.00
264,0.00,100.00,0.00,0.00
265,0.00,100.00,0.00,0.00
266,0.00,100.00,0.00,0.00
267,0.00,100.00,0.00,0.00
268,0.00,100.00,0.00,0.00
269,0.00,100.00,0.00,0.00
270,100.00,0.00,0.00,0.00
271,100.00,0.00,0.00,0.00
272,100.00,0.00,0.00,0.00
273,100.00,0.00,0.00,0.00
274,100.00,0.00,0.00,0.00
275,100.00,0.00,0.00,0.00
276,100.00,0.00,0.00,0.00
277,100.00,0.00,0.00,0.00
278,100.00,0.00,0.00,0.00
279,100.00,0.00,0.00,0.00
280,100.00,0.00,0.00,0.00
281,100.00,0.00,0.00,0.00
282,100.00,0.00,0.00,0.00
283,100.00,0.00,0.00,0.00
284,100.00,0.00,0.00,0.00
285,100.00,0.00,0.00,0.00
286,100.00,0.00,0.00,0.00
287,100.00,0.00,0.00,0.00
288,100.00,0.00,0.00,0.00
289,100.00,0.00,0.00,0.00
290,100.00,0.00,0.00,0.00
291,100.00,0.00,0.00,0.00
292,100.00,0.00,0.00,0.00
293,100.00,0.00,0.00,0.00
294,100.00,0.00,0.00,0.00
295,100.00,0.00,0.00,0.00
296,100.00,0.00,0.00,0.00
297,100.00,0.00,0.00,0.00
298,100.00,0.00,0.00,0.00
299,100.00,0.00,0.00,0.00
300,0.00,100.00,0.00,0.00
301,0.00,100.00,0.00,0.00
302,0.00,100.00,0.00,0.00
303,0.00,100.00,0.00,0.00
304,0.00,100.00,0.00,0.00
305,0.00,100.00,0.00,0.00
306,0.00,100.00,0.00,0.00
307,0.00,100.00,0.00,0.00
308,0.00,100.00,0.00,0.00
309,0.00,100.00,0.00,0.00
310,0.00,100.00,0.00,0.00
311,0.00,100.00,0.00,0.00
312,0.00,100.00,0.00,0.00
313,0.00,100.00,0.00,0.00
314,0.00,100.00,0.00,0.00
315,0.00,100.00,0.00,0.00
316,0.00,100.00,0.00,0.00
317,0.00,100.00,0.00,0.00
318,0.00,100.00,0.00,0.00
319,0.00,100.00,0.00,0.00
320,0.00,100.00,0.00,0.00
321,0.00,100.00,0.00,0.00
322,0.00,100.00,0.00,0.00
323,0.00,100.00,0.00,0.00
324,0.00,100.00,0.00,0.00
325,0.00,100.00,0.00,0.00
326,0.00,100.00,0.00,0.00
327,0.00,100.00,0.00,0.00
328,0.00,100.00,0.00,0.00
329,0.00,100.00,0.00,0.00
330,100.00,0.00,0.00,0.00
331,100.00,0.00,0.00,0.00
332,100.00,0.00,0.00,0.00
333,100.00,0.00,0.00,0.00
334,100.00,0.00,0.00,0.00
335,100.00,0.00,0.00,0.00
336,100.00,0.00,0.00,0.00
337,100.00,0.00,0.00,0.00
338,100.00,0.00,0.00,0.00
339,100.00,0.00,0.00,0.00
340,100.00,0.00,0.00,0.00
341,100.00,0.00,0.00,0.00
342,100.00,0.00,0.00,0.00
343,100.00,0.00,0.00,0.00
344,100.00,0.00,0.00,0.00
345,100.00,0.00,0.00,0.00
346,100.00,0.00,0.00,0.00
347,100.00,0.00,0.00,0.00
348,100.00,0.00,0.00,0.00
349,100.00,0.00,0.00,0.00
350,100.00,0.00,0.00,0.00
351,100.00,0.00,0.00,0.00
352,100.00,0.00,0.00,0.00
353,100.00,0.00,0.00,0.00
354,100.00,0.00,0.00,0.00
355,100.00,0.00,0.00,0.00
356,100.00,0.00,0.00,0.00
357,100.00,0.00,0.00,0.00
358,100.00,0.00,0.00,0.00
359,100.00,0.00,0.00,0.00
360,0.00,100.00,0.00,0.00
361,0.00,100.00,0.00,0.00
362,0.00,100.00,0.00,0.00
363,0.00,100.00,0.00,0.00
364,0.00,100.00,0.00,0.00
365,0.00,100.00,0.00,0.00
366,0.00,100.00,0.00,0.00
367,0.00,100.00,0.00,0.00
368,0.00,100.00,0.00,0.00
369,0.00,100.00,0.00,0.00
370,0.00,100.00,0.00,0.00
371,0.00,100.00,0.00,0.00
372,0.00,100.00,0.00,0.00
373,0.00,100.00,0.00,0.00
374,0.00,100.00,0.00,0.00
375,0.00,100.00,0.00,0.00
376,0.00,100.00,0.00,0.00
377,0.00,100.00,0.00,0.00
378,0.00,100.00,0.00,0.00
379,0.00,100.00,0.00,0.00
380,0.00,100.00,0.00,0.00
381,0.00,100.00,0.00,0.00
382,0.00,100.00,0.00,0.00
383,0.00,100.00,0.00,0.00
384,0.00,100.00,0.00,0.00
385,0.00,100.00,0.00,0.00
386,0.00,100.00,0.00,0.00
387,0.00,100.00,0.00,0.00
388,0.00,100.00,0.00,0.00
389,0.00,100.00,0.00,0.00
390,100.00,0.00,0.00,0.00
391,100.00,0.00,0.00,0.00
392,100.00,0.00,0.00,0.00
393,100.00,0.00,0.00,0.00
394,100.00,0.00,0.00,0.00
395,100.00,0.00,0.00,0.00
396,100.00,0.00,0.00,0.00
397,100.00,0.00,0.00,0.00
398,100.00,0.00,0.00,0.00
399,100.00,0.00,0.00,0.00
400,100.00,0.00,0.00,0.00
401,100.00,0.00,0.00,0.00
402,100.00,0.00,0.00,0.00
403,100.00,0.00,0.00,0.00
404,100.00,0.00,0.00,0.00
405,100.00,0.00,0.00,0.00
406,100.00,0.00,0.00,0.00
407,100.00,0.00,0.00,0.00
408,100.00,0.00,0.00,0.00
409,100.00,0.00,0.00,0.00
410,100.00,0.00,0.00,0.00
411,100.00,0.00,0.00,0.00
412,100.00,0.00,0.00,0.00
413,100.00,0.00,0.00,0.00
414,100.00,0.00,0.00,0.00
415,100.00,0.00,0.00,0.00
416,100.00,0.00,0.00,0.00
417,100.00,0.00,0.00,0.00
418,100.00,0.00,0.00,0.00
419,100.00,0.00,0.00,0.00
420,0.00,100.00,0.00,0.00
421,0.00,100.00,0.00,0.00
422,0.00,100.00,0.00,0.00
423,0.00,100.00,0.00,0.00
424,0.00,100.00,0.00,0.00
425,0.00,100.00,0.00,0.00
426,0.00,100.00,0.00,0.00
427,0.00,100.00,0.00,0.00
428,0.00,100.00,0.00,0.00
429,0.00,100.00,0.00,0.00
430,0.00,100.00,0.00,0.00
431,0.00,100.00,0.00,0.00
432,0.00,100.00,0.00,0.00
433,0.00,100.00,0.00,0.00
434,0.00,100.00,0.00,0.00
435,0.00,100.00,0.00,0.00
436,0.00,100.00,0.00,0.00
437,0.00,100.00,0.00,0.00
438,0.00,100.00,0.00,0.00
439,0.00,100.00,0.00,0.00
440,0.00,100.00,0.00,0.00
441,0.00,100.00,0.00,0.00
442,0.00,100.00,0.00,0.00
443,0.00,100.00,0.00,0.00
444,0.00,100.00,0.00,0.00
445,0.00,100.00,0.00,0.00
446,0.00,100.00,0.00,0.00
447,0.00,100.00,0.00,0.00
448,0.00,100.00,0.00,0.00
449,0.00,100.00,0.00,0.00
450,100.00,0.00,0.00,0.00
451,100.00,0.00,0.00,0.00
452,100.00,0.00,0.00,0.00
453,100.00,0.00,0.00,0.00
454,100.00,0.00,0.00,0.00
455,100.00,0.00,0.00,0.00
456,100.00,0.00,0.00,0.00
457,100.00,0.00,0.00,0.00
458,100.00,0.00,0.00,0.00
459,100.00,0.00,0.00,0.00
460,100.00,0.00,0.00,0.00
461,100.00,0.00,0.00,0.00
462,100.00,0.00,0.00,0.00
463,100.00,0.00,0.00,0.00
464,100.00,0.00,0.00,0.00
465,100.00,0.00,0.00,0.00
466,100.00,0.00,0.00,0.00
467,100.00,0.00,0.00,0.00
468,100.00,0.00,0.00,0.00
469,100.00,0.00,0.00,0.00
470,100.00,0.00,0.00,0.00
471,100.00,0.00,0.00,0.00
472,100.00,0.00,0.00,0.00
473,100.00,0.00,0.00,0.00
474,100.00,0.00,0.00,0.00
475,100.00,0.00,0.00,0.00
476,100.00,0.00,0.00,0.00
477,100.00,0.00,0.00,0.00
478,100.00,0.00,0.00,0.00
479,100.00,0.00,0.00,0.00
480,0.00,100.00,0.00,0.00
481,0.00,100.00,0.00,0.00
482,0.00,100.00,0.00,0.00
483,0.00,100.00,0.00,0.00
484,0.00,100.00,0.00,0.00
485,0.00,100.00,0.00,0.00
486,0.00,100.00,0.00,0.00
487,0.00,100.00,0.00,0.00
488,0.00,100.00,0.00,0.00
489,0.00,100.00,0.00,0.00
490,0.00,100.00,0.00,0.00
491,0.00,100.00,0.00,0.00
492,0.00,100.00,0.00,0.00
493,0.00,100.00,0.00,0.00
494,0.00,100.00,0.00,0.00
495,0.00,100.00,0.00,0.00
496,0.00,100.00,0.00,0.00
497,0.00,100.00,0.00,0.00
498,0.00,100.00,0.00,0.00
499,0.00,100.00,0.00,0.00
500,0.00,100.00,0.00,0.00
501,0.00,100.00,0.00,0.00
502,0.00,100.00,0.00,0.00
503,0.00,100.00,0.00,0.00
504,0.00,100.00,0.00,0.00
505,0.00,100.00,0.00,0.00
506,0.00,100.00,0.00,0.00
507,0.00,100.00,0.00,0.00
508,0.00,100.00,0.00,0.00
509,0.00,100.00,0.00,0.00
510,100.00,0.00,0.00,0.00
511,100.00,0.00,0.00,0.00
512,100.00,0.00,0.00,0.00
513,100.00,0.00,0.00,0.00
514,100.00,0.00,0.00,0.00
515,100.00,0.00,0.00,0.00
516,100.00,0.00,0.00,0.00
517,100.00,0.00,0.00,0.00
518,100.00,0.00,0.00,0.00
519,100.00,0.00,0.00,0.00
520,100.00,0.00,0.00,0.00
521,100.00,0.00,0.00,0.00
522,100.00,0.00,0.00,0.00
523,100.00,0.00,0.00,0.00
524,100.00,0.00,0.00,0.00
525,100.00,0.00,0.00,0.00
526,100.00,0.00,0.00,0.00
527,100.00,0.00,0.00,0.00
528,100.00,0.00,0.00,0.00
529,100.00,0.00,0.00,0.00
530,100.00,0.00,0.00,0.00
531,100.00,0.00,0.00,0.00
532,100.00,0.00,0.00,0.00
533,100.00,0.00,0.00,0.00
534,100.00,0.00,0.00,0.00
535,100.00,0.00,0.00,0.00
536,100.00,0.00,0.00,0.00
537,100.00,0.00,0.00,0.00
538,100.00,0.00,0.00,0.00
539,100.00,0.00,0.00,0.00
540,0.00,100.00,0.00,0.00
541,0.00,100.00,0.00,0.00
542,0.00,100.00,0.00,0.00
543,0.00,100.00,0.00,0.00
544,0.00,100.00,0.00,0.00
545,0.00,100.00,0.00,0.00
546,0.00,100.00,0.00,0.00
547,0.00,100.00,0.00,0.00
548,0.00,100.00,0.00,0.00
549,0.00,100.00,0.00,0.00
550,0.00,100.00,0.00,0.00
551,0.00,100.00,0.00,0.00
552,0.00,100.00,0.00,0.00
553,0.00,100.00,0.00,0.00
554,0.00,100.00,0.00,0.00
555,0.00,100.00,0.00,0.00
556,0.00,100.00,0.00,0.00
557,0.00,100.00,0.00,0.00
558,0.00,100.00,0.00,0.00
559,0.00,100.00,0.00,0.00
560,0.00,100.00,0.00,0.00
561,0.00,100.00,0.00,0.00
562,0.00,100.00,0.00,0.00
563,0.00,100.00,0.00,0.00
564,0.00,100.00,0.00,0.00
565,0.00,100.00,0.00,0.00
566,0.00,100.00,0.00,0.00
567,0.00,100.00,0.00,0.00
568,0.00,100.00,0.00,0.00
569,0.00,100.00,0.00,0.00
570,100.00,0.00,0.00,0.00
571,100.00,0.00,0.00,0.00
572,100.00,0.00,0.00,0.00
573,100.00,0.00,0.00,0.00
574,100.00,0.00,0.00,0.00
575,100.00,0.00,0.00,0.00
576,100.00,0.00,0.00,0.00
577,100.00,0.00,0.00,0.00
578,100.00,0.00,0.00,0.00
579,100.00,0.00,0.00,0.00
580,100.00,0.00,0.00,0.00
581,100.00,0.00,0.00,0.00
582,100.00,0.00,0.00,0.00
583,100.00,0.00,0.00,0.00
584,100.00,0.00,0.00,0.00
585,100.00,0.00,0.00,0.00
586,100.00,0.00,0.00,0.00
587,100.00,0.00,0.00,0.00
588,100.00,0.00,0.00,0.00
589,100.00,0.00,0.00,0.00
590,100.00,0.00,0.00,0.00
591,100.00,0.00,0.00,0.00
592,100.00,0.00,0.00,0.00
593,100.00,0.00,0.00,0.00
594,100.00,0.00,0.00,0.00
595,100.00,0.00,0.00,0.00
596,100.00,0.00,0.00,0.00
597,100.00,0.00,0.00,0.00
598,100.00,0.00,0.00,0.00
599,100.00,0.00,0.00,0.00
600,0.00,100.00,0.00,0.00
601,0.00,100.00,0.00,0.00
602,0.00,100.00,0.00,0.00
603,0.00,100.00,0.00,0.00
604,0.00,100.00,0.00,0.00
605,0.00,100.00,0.00,0.00
606,0.00,100.00,0.00,0.00
607,0.00,100.00,0.00,0.00
608,0.00,100.00,0.00,0.00
609,0.00,100.00,0.00,0.00
610,0.00,100.00,0.00,0.00
611,0.00,100.00,0.00,0.00
612,0.00,100.00,0.00,0.00
613,0.00,100.00,0.00,0.00
614,0.00,100.00,0.00,0.00
615,0.00,100.00,0.00,0.00
616,0.00,100.00,0.00,0.00
617,0.00,100.00,0.00,0.00
618,0.00,100.00,0.00,0.00
619,0.00,100.00,0.00,0.00
620,0.00,100.00,0.00,0.00
621,0.00,100.00,0.00,0.00
622,0.00,100.00,0.00,0.00
623,0.00,100.00,0.00,0.00
624,0.00,100.00,0.00,0.00
625,0.00,100.00,0.00,0.00
626,0.00,100.00,0.00,0.00
627,0.00,100.00,0.00,0.00
628,0.00,100.00,0.00,0.00
629,0.00,100.00,0.00,0.00
630,100.00,0.00,0.00,0.00
631,100.00,0.00,0.00,0.00
632,100.00,0.00,0.00,0.00
633,100.00,0.00,0.00,0.00
634,100.00,0.00,0.00,0.00
635,100.00,0.00,0.00,0.00
636,100.00,0.00,0.00,0.00
637,100.00,0.00,0.00,0.00
638,100.00,0.00,0.00,0.00
639,100.00,0.00,0.00,0.00
640,100.00,0.00,0.00,0.00
641,100.00,0.00,0.00,0.00
642,100.00,0.00,0.00,0.00
643,100.00,0.00,0.00,0.00
644,100.00,0.00,0.00,0.00
645,100.00,0.00,0.00,0.00
646,100.00,0.00,0.00,0.00
647,100.00,0.00,0.00,0.00
648,100.00,0.00,0.00,0.00
649,100.00,0.00,0.00,0.00
650,100.00,0.00,0.00,0.00
651,100.00,0.00,0.00,0.00
652,100.00,0.00,0.00,0.00
653,100.00,0.00,0.00,0.00
654,100.00,0.00,0.00,0.00
655,100.00,0.00,0.00,0.00
656,100.00,0.00,0.00,0.00
657,100.00,0.00,0.00,0.00
658,100.00,0.00,0.00,0.00
659,100.00,0.00,0.00,0.00
660,0.00,100.00,0.00,0.00
661,0.00,100.00,0.00,0.00
662,0.00,100.00,0.00,0.00
663,0.00,100.00,0.00,0.00
664,0.00,100.00,0.00,0.00
665,0.00,100.00,0.00,0.00
666,0.00,100.00,0.00,0.00
667,0.00,100.00,0.00,0.00
668,0.00,100.00,0.00,0.00
669,0.00,100.00,0.00,0.00
670,0.00,100.00,0.00,0.00
671,0.00,100.00,0.00,0.00
672,0.00,100.00,0.00,0.00
673,0.00,100.00,0.00,0.00
674,0.00,100.00,0.00,0.00
675,0.00,100.00,0.00,0.00
676,0.00,100.00,0.00,0.00
677,0.00,100.00,0.00,0.00
678,0.00,100.00,0.00,0.00
679,0.00,100.00,0.00,0.00
680,0.00,100.00,0.00,0.00
681,0.00,100.00,0.00,0.00
682,0.00,100.00,0.00,0.00
683,0.00,100.00,0.00,0.00
684,0.00,100.00,0.00,0.00
685,0.00,100.00,0.00,0.00
686,0.00,100.00,0.00,0.00
687,0.00,100.00,0.00,0.00
688,0.00,100.00,0.00,0.00
689,0.00,100.00,0.00,0.00
690,100.00,0.00,0.00,0.00
691,100.00,0.00,0.00,0.00
692,100.00,0.00,0.00,0.00
693,100.00,0.00,0.00,0.00
694,100.00,0.00,0.00,0.00
695,100.00,0.00,0.00,0.00
696,100.00,0.00,0.00,0.00
697,100.00,0.00,0.00,0.00
698,100.00,0.00,0.00,0.00
699,100.00,0.00,0.00,0.00
700,100.00,0.00,0.00,0.00
701,100.00,0.00,0.00,0.00
702,100.00,0.00,0.00,0.00
703,100.00,0.00,0.00,0.00
704,100.00,0.00,0.00,0.00
705,100.00,0.00,0.00,0.00
706,100.00,0.00,0.00,0.00
707,100.00,0.00,0.00,0.00
708,100.00,0.00,0.00,0.00
709,100.00,0.00,0.00,0.00
710,100.00,0.00,0.00,0.00
711,100.00,0.00,0.00,0.00
712,100.00,0.00,0.00,0.00
713,100.00,0.00,0.00,0.00
714,100.00,0.00,0.00,0.00
715,100.00,0.00,0.00,0.00
716,100.00,0.00,0.00,0.00
717,100.00,0.00,0.00,0.00
718,100.00,0.00,0.00,0.00
719,100.00,0.00,0.00,0.00
720,0.00,100.00,0.00,0.00
721,0.00,100.00,0.00,0.00
722,0.00,100.00,0.00,0.00
723,0.00,100.00,0.00,0.00
724,0.00,100.00,0.00,0.00
725,0.00,100.00,0.00,0.00
726,0.00,100.00,0.00,0.00
727,0.00,100.00,0.00,0.00
728,0.00,100.00,0.00,0.00
729,0.00,100.00,0.00,0.00
730,0.00,100.00,0.00,0.00
731,0.00,100.00,0.00,0.00
732,0.00,100.00,0.00,0.00
733,0.00,100.00,0.00,0.00
734,0.00,100.00,0.00,0.00
735,0.00,100.00,0.00,0.00
736,0.00,100.00,0.00,0.00
737,0.00,100.00,0.00,0.00
738,0.00,100.00,0.00,0.00
739,0.00,100.00,0.00,0.00
740,0.00,100.00,0.00,0.00
741,0.00,100.00,0.00,0.00
742,0.00,100.00,0.00,0.00
743,0.00,100.00,0.00,0.00
744,0.00,100.00,0.00,0.00
745,0.00,100.00,0.00,0.00
746,0.00,100.00,0.00,0.00
747,0.00,100.00,0.00,0.00
748,0.00,100.00,0.00,0.00
749,0.00,100.00,0.00,0.00
750,100.00,0.00,0.00,0.00
751,100.00,0.00,0.00,0.00
752,100.00,0.00,0.00,0.00
753,100.00,0.00,0.00,0.00
754,100.00,0.00,0.00,0.00
755,100.00,0.00,0.00,0.00
756,100.00,0.00,0.00,0.00
757,100.00,0.00,0.00,0.00
758,100.00,0.00,0.00,0.00
759,100.00,0.00,0.00,0.00
760,100.00,0.00,0.00,0.00
761,100.00,0.00,0.00,0.00
762,100.00,0.00,0.00,0.00
763,100.00,0.00,0.00,0.00
764,100.00,0.00,0.00,0.00
765,100.00,0.00,0.00,0.00
766,100.00,0.00,0.00,0.00
767,100.00,0.00,0.00,0.00
768,100.00,0.00,0.00,0.00
769,100.00,0.00,0.00,0.00
770,100.00,0.00,0.00,0.00
771,100.00,0.00,0.00,0.00
772,100.00,0.00,0.00,0.00
773,100.00,0.00,0.00,0.00
774,100.00,0.00,0.00,0.00
775,100.00,0.00,0.00,0.00
776,100.00,0.00,0.00,0.00
777,100.00,0.00,0.00,0.00
778,100.00,0.00,0.00,0.00
779,100.00,0.00,0.00,0.00
780,0.00,100.00,0.00,0.00
781,0.00,100.00,0.00,0.00
782,0.00,100.00,0.00,0.00
783,0.00,100.00,0.00,0.00
784,0.00,100.00,0.00,0.00
785,0.00,100.00,0.00,0.00
786,0.00,100.00,0.00,0.00
787,0.00,100.00,0.00,0.00
788,0.00,100.00,0.00,0.00
789,0.00,100.00,0.00,0.00
790,0.00,100.00,0.00,0.00
791,0.00,100.00,0.00,0.00
792,0.00,100.00,0.00,0.00
793,0.00,100.00,0.00,0.00
794,0.00,100.00,0.00,0.00
795,0.00,100.00,0.00,0.00
796,0.00,100.00,0.00,0.00
797,0.00,100.00,0.00,0.00
798,0.00,100.00,0.00,0.00
799,0.00,100.00,0.00,0.00
800,0.00,100.00,0.00,0.00
801,0.00,100.00,0.00,0.00
802,0.00,100.00,0.00,0.00
803,0.00,100.00,0.00,0.00
804,0.00,100.00,0.00,0.00
805,0.00,100.00,0.00,0.00
806,0.00,100.00,0.00,0.00
807,0.00,100.00,0.00,0.00
808,0.00,100.00,0.00,0.00
809,0.00,100.00,0.00,0.00
810,100.00,0.00,0.00,0.00
811,100.00,0.00,0.00,0.00
812,100.00,0.00,0.00,0.00
813,100.00,0.00,0.00,0.00
814,100.00,0.00,0.00,0.00
815,100.00,0.00,0.00,0.00
816,100.00,0.00,0.00,0.00
817,100.00,0.00,0.00,0.00
818,100.00,0.00,0.00,0.00
819,100.00,0.00,0.00,0.00
820,100.00,0.00,0.00,0.00
821,100.00,0.00,0.00,0.00
822,100.00,0.00,0.00,0.00
823,100.00,0.00,0.00,0.00
824,100.00,0.00,0.00,0.00
825,100.00,0.00,0.00,0.00
826,100.00,0.00,0.00,0.00
827,100.00,0.00,0.00,0.00
828,100.00,0.00,0.00,0.00
829,100.00,0.00,0.00,0.00
830,100.00,0.00,0.00,0.00
831,100.00,0.00,0.00,0.00
832,100.00,0.00,0.00,0.00
833,100.00,0.00,0.00,0.00
834,100.00,0.00,0.00,0.00
835,100.00,0.00,0.00,0.00
836,100.00,0.00,0.00,0.00
837,100.00,0.00,0.00,0.00
838,100.00,0.00,0.00,0.00
839,100.00,0.00,0.00,0.00
840,0.00,100.00,0.00,0.00
841,0.00,100.00,0.00,0.00
842,0.00,100.00,0.00,0.00
843,0.00,100.00,0.00,0.00
844,0.00,100.00,0.00,0.00
845,0.00,100.00,0.00,0.00
846,0.00,100.00,0.00,0.00
847,0.00,100.00,0.00,0.00
848,0.00,100.00,0.00,0.00
849,0.00,100.00,0.00,0.00
850,0.00,100.00,0.00,0.00
851,0.00,100.00,0.00,0.00
852,0.00,100.00,0.00,0.00
853,0.00,100.00,0.00,0.00
854,0.00,100.00,0.00,0.00
855,0.00,100.00,0.00,0.00
856,0.00,100.00,0.00,0.00
857,0.00,100.00,0.00,0.00
858,0.00,100.00,0.00,0.00
859,0.00,100.00,0.00,0.00
860,0.00,100.00,0.00,0.00
861,0.00,100.00,0.00,0.00
862,0.00,100.00,0.00,0.00
863,0.00,100.00,0.00,0.00
864,0.00,100.00,0.00,0.00
865,0.00,100.00,0.00,0.00
866,0.00,100.00,0.00,0.00
867,0.00,100.00,0.00,0.00
868,0.00,100.00,0.00,0.00
869,0.00,100.00,0.00,0.00
870,100.00,0.00,0.00,0.00
871,100.00,0.00,0.00,0.00
872,100.00,0.00,0.00,0.00
873,100.00,0.00,0.00,0.00
874,100.00,0.00,0.00,0.00
875,100.00,0.00,0.00,0.00
876,100.00,0.00,0.00,0.00
877,100.00,0.00,0.00,0.00
878,100.00,0.00,0.00,0.00
879,100.00,0.00,0.00,0.00
880,100.00,0.00,0.00,0.00
881,100.00,0.00,0.00,0.00
882,100.00,0.00,0.00,0.00
883,100.00,0.00,0.00,0.00
884,100.00,0.00,0.00,0.00
885,100.00,0.00,0.00,0.00
886,100.00,0.00,0.00,0.00
887,100.00,0.00,0.00,0.00
888,100.00,0.00,0.00,0.00
889,100.00,0.00,0.00,0.00
890,100.00,0.00,0.00,0.00
891,100.00,0.00,0.00,0.00
892,100.00,0.00,0.00,0.00
893,100.00,0.00,0.00,0.00
894,100.00,0.00,0.00,0.00
895,100.00,0.00,0.00,0.00
896,100.00,0.00,0.00,0.00
897,100.00,0.00,0.00,0.00
898,100.00,0.00,0.00,0.00
899,100.00,0.00,0.00,0.00
900,0.00,100.00,0.00,0.00
901,0.00,100.00,0.00,0.00
902,0.00,100.00,0.00,0.00
903,0.00,100.00,0.00,0.00
904,0.00,100.00,0.00,0.00
905,0.00,100.00,0.00,0.00
906,0.00,100.00,0.00,0.00
907,0.00,100.00,0.00,0.00
908,0.00,100.00,0.00,0.00
909,0.00,100.00,0.00,0.00
910,0.00,100.00,0.00,0.00
911,0.00,100.00,0.00,0.00
912,0.00,100.00,0.00,0.00
913,0.00,100.00,0.00,0.00
914,0.00,100.00,0.00,0.00
915,0.00,100.00,0.00,0.00
916,0.00,100.00,0.00,0.00
917,0.00,100.00,0.00,0.00
918,0.00,100.00,0.00,0.00
919,0.00,100.00,0.00,0.00
920,0.00,100.00,0.00,0.00
921,0.00,100.00,0.00,0.00
922,0.00,100.00,0.00,0.00
923,0.00,100.00,0.00,0.00
924,0.00,100.00,0.00,0.00
925,0.00,100.00,0.00,0.00
926,0.00,100.00,0.00,0.00
927,0.00,100.00,0.00,0.00
928,0.00,100.00,0.00,0.00
929,0.00,100.00,0.00,0.00
930,100.00,0.00,0.00,0.00
931,100.00,0.00,0.00,0.00
932,100.00,0.00,0.00,0.00
933,100.00,0.00,0.00,0.00
934,100.00,0.00,0.00,0.00
935,100.00,0.00,0.00,0.00
936,100.00,0.00,0.00,0.00
937,100.00,0.00,0.00,0.00
938,100.00,0.00,0.00,0.00
939,100.00,0.00,0.00,0.00
940,100.00,0.00,0.00,0.00
941,100.00,0.00,0.00,0.00
942,100.00,0.00,0.00,0.00
943,100.00,0.00,0.00,0.00
944,100.00,0.00,0.00,0.00
945,100.00,0.00,0.00,0.00
946,100.00,0.00,0.00,0.00
947,100.00,0.00,0.00,0.00
948,100.00,0.00,0.00,0.00
949,100.00,0.00,0.00,0.00
950,100.00,0.00,0.00,0.00
951,100.00,0.00,0.00,0.00
952,100.00,0.00,0.00,0.00
953,100.00,0.00,0.00,0.00
954,100.00,0.00,0.00,0.00
955,100.00,0.00,0.00,0.00
956,100.00,0.00,0.00,0.00
957,100.00,0.00,0.00,0.00
958,100.00,0.00,0.00,0.00
959,100.00,0.00,0.00,0.00
960,0.00,100.00,0.00,0.00
961,0.00,100.00,0.00,0.00
962,0.00,100.00,0.00,0.00
963,0.00,100.00,0.00,0.00
964,0.00,100.00,0.00,0.00
965,0.00,100.00,0.00,0.00
966,0.00,100.00,0.00,0.00
967,0.00,100.00,0.00,0.00
968,0.00,100.00,0.00,0.00
969,0.00,100.00,0.00,0.00
970,0.00,100.00,0.00,0.00
971,0.00,100.00,0.00,0.00
972,0.00,100.00,0.00,0.00
973,0.00,100.00,0.00,0.00
974,0.00,100.00,0.00,0.00
975,0.00,100.00,0.00,0.00
976,0.00,100.00,0.00,0.00
977,0.00,100.00,0.00,0.00
978,0.00,100.00,0.00,0.00
979,0.00,100.00,0.00,0.00
980,0.00,100.00,0.00,0.00
981,0.00,100.00,0.00,0.00
982,0.00,100.00,0.00,0.00
983,0.00,100.00,0.00,0.00
984,0.00,100.00,0.00,0.00
985,0.00,100.00,0.00,0.00
986,0.00,100.00,0.00,0.00
987,0.00,100.00,0.00,0.00
988,0.00,100.00,0.00,0.00
989,0.00,100.00,0.00,0.00
990,100.00,0.00,0.00,0.00
991,100.00,0.00,0.00,0.00
992,100.00,0.00,0.00,0.00
993,100.00,0.00,0.00,0.00
994,100.00,0.00,0.00,0.00
995,100.00,0.00,0.00,0.00
996,100.00,0.00,0.00,0.00
997,100.00,0.00,0.00,0.00
998,100.00,0.00,0.00,0.00
999,100.00,0.00,0.00,0.00
